<svg width="57" height="57" viewBox="0 0 57 57" fill="none" xmlns="http://www.w3.org/2000/svg">
<path d="M42.9997 35.0002H10.9997L0.333008 45.6668V3.00016C0.333008 2.29292 0.613959 1.61464 1.11406 1.11454C1.61415 0.614448 2.29243 0.333496 2.99967 0.333496H42.9997C43.7069 0.333496 44.3852 0.614448 44.8853 1.11454C45.3854 1.61464 45.6663 2.29292 45.6663 3.00016V32.3335C45.6663 33.0407 45.3854 33.719 44.8853 34.2191C44.3852 34.7192 43.7069 35.0002 42.9997 35.0002ZM56.333 19.0002V56.3335L45.6663 45.6668H16.333C15.6258 45.6668 14.9475 45.3859 14.4474 44.8858C13.9473 44.3857 13.6663 43.7074 13.6663 43.0002V40.3335H50.9997V16.3335H53.6663C54.3736 16.3335 55.0519 16.6144 55.552 17.1145C56.0521 17.6146 56.333 18.2929 56.333 19.0002ZM16.8397 5.66683C14.5197 5.66683 12.653 6.20016 11.213 7.24016C9.82634 8.3335 9.13301 9.8535 9.15967 11.9602L9.18634 12.0402H14.333C14.3597 11.2402 14.5997 10.6268 15.0797 10.2002C15.5735 9.79068 16.1983 9.57293 16.8397 9.58683C17.6663 9.58683 18.3597 9.8535 18.8397 10.3335C19.3197 10.8402 19.533 11.5335 19.533 12.3335C19.533 13.1868 19.3463 13.9068 18.9197 14.5202C18.5463 15.1335 17.9863 15.6668 17.293 16.0935C15.933 17.0002 14.9997 17.8002 14.493 18.5202C13.9597 19.2135 13.6663 20.3335 13.6663 21.6668H18.9997C18.9997 20.8402 19.1063 20.1735 19.3463 19.6935C19.5863 19.2135 20.0397 18.7335 20.7063 18.3068C21.9063 17.6668 22.893 16.8935 23.6663 15.8268C24.4397 14.7602 24.8397 13.6668 24.8397 12.3335C24.8397 10.3068 24.1197 8.68016 22.6797 7.48016C21.2663 6.28016 19.3197 5.66683 16.8397 5.66683ZM13.6663 24.3335V29.6668H18.9997V24.3335H13.6663ZM29.6663 29.6668H34.9997V24.3335H29.6663V29.6668ZM29.6663 5.66683V21.6668H34.9997V5.66683H29.6663Z" fill="#00FA00"/>
</svg>
