<svg width="24" height="24" viewBox="0 0 24 24" fill="none" xmlns="http://www.w3.org/2000/svg">
<path fill-rule="evenodd" clip-rule="evenodd" d="M7 4.36364V19.6364H17V4.36364H7ZM7 0H17C17.5304 0 18.0391 0.22987 18.4142 0.63904C18.7893 1.04821 19 1.60316 19 2.18182V21.8182C19 22.3968 18.7893 22.9518 18.4142 23.361C18.0391 23.7701 17.5304 24 17 24H7C6.46957 24 5.96086 23.7701 5.58579 23.361C5.21071 22.9518 5 22.3968 5 21.8182V2.18182C5 0.970909 5.89 0 7 0ZM10.2 14H9C9 15.1933 9.882 16.2067 11.1 16.5467V18H12.9V16.5467C14.118 16.2067 15 15.1933 15 14C15 12.1467 13.416 11.7067 12.144 11.3533C10.824 11 10.2 10.7333 10.2 10C10.2 9.28 11.022 8.66667 12 8.66667C12.978 8.66667 13.8 9.28 13.8 10H15C15 8.80667 14.118 7.79333 12.9 7.45333V6H11.1V7.45333C9.882 7.79333 9 8.80667 9 10C9 11.8533 10.584 12.2933 11.856 12.6467C13.176 13 13.8 13.2667 13.8 14C13.8 14.72 12.978 15.3333 12 15.3333C11.022 15.3333 10.2 14.72 10.2 14Z" fill="white" fill-opacity="0.38"/>
</svg>
