<svg width="1440" height="936" viewBox="0 0 1440 936" fill="none" xmlns="http://www.w3.org/2000/svg">
<rect width="1440" height="500" transform="matrix(1 0 0 -1 0 570)" fill="url(#paint0_radial)"/>
<path opacity="0.05" d="M-166.177 47.8721L123.389 283.507C141.842 298.523 165.75 304.211 188.995 299.115C212.241 294.018 231.574 278.849 242.062 257.491L409.582 -83.8988C422.505 -110.223 419.701 -141.227 402.295 -164.813C393.202 -177.119 380.842 -186.437 366.537 -191.732C353.993 -196.375 340.35 -197.718 327.1 -195.615L57.2029 -152.732C36.9899 -149.516 23.1968 -130.523 26.4121 -110.31L36.7515 -45.2335C38.2889 -35.5307 43.6222 -26.8292 51.5844 -21.054C59.5466 -15.2788 69.4705 -12.9053 79.1734 -14.4428L231.404 -38.6301L150.914 125.388L-77.7992 -60.7249C-85.4239 -66.9372 -95.1998 -69.8532 -104.984 -68.8552C-114.768 -67.8573 -123.746 -63.0125 -129.942 -55.3821L-171.535 -4.27677C-184.445 11.6187 -182.051 34.9527 -166.177 47.8721Z" fill="#009900"/>
<path opacity="0.05" d="M-164.631 301.273L-173.373 357.222C-176.085 374.578 -164.324 390.838 -146.968 393.581C-146.576 393.643 -107.648 400.139 -63.0793 418.279C-24.803 433.852 25.8626 461.526 49.9122 504.971C56.2205 516.338 57.7133 527.537 54.7747 541.244C51.6414 555.848 43.6049 572.213 30.8863 589.887C4.94021 625.937 -30.3131 653.489 -40.512 661.072C-58.3156 674.321 -67.8337 696.264 -65.3378 718.332C-62.848 740.388 -48.6813 759.666 -28.3583 768.632L171.687 856.815C179.412 860.229 188.184 860.416 196.06 857.355C203.936 854.295 210.266 848.24 213.68 840.515L236.52 788.7C243.616 772.601 236.318 753.803 220.22 746.707L100.963 694.128C111.138 682.892 120.346 671.542 128.542 660.149C192.927 570.687 180.965 499.304 159.596 455.189C158.213 452.336 156.736 449.481 155.195 446.689C122.875 388.281 66.0839 341.76 -13.5937 308.417C-72.2373 283.884 -122.69 275.578 -128.25 274.717C-145.638 272.004 -161.912 283.898 -164.631 301.273Z" fill="#009900"/>
<defs>
<radialGradient id="paint0_radial" cx="0" cy="0" r="1" gradientUnits="userSpaceOnUse" gradientTransform="translate(6.1137e-06 500) rotate(-31.1877) scale(482.772 455.137)">
<stop stop-color="#009900" stop-opacity="0.15"/>
<stop offset="1" stop-color="#009900" stop-opacity="0"/>
</radialGradient>
</defs>
</svg>
