<svg width="24" height="24" viewBox="0 0 24 24" fill="none" xmlns="http://www.w3.org/2000/svg">
<path d="M12.0007 21C14.476 21 16.85 20.0167 18.6003 18.2663C20.3507 16.516 21.334 14.142 21.334 11.6667C21.334 9.19131 20.3507 6.81734 18.6003 5.067C16.85 3.31666 14.476 2.33333 12.0007 2.33333C9.5253 2.33333 7.15133 3.31666 5.40099 5.067C3.65065 6.81734 2.66732 9.19131 2.66732 11.6667C2.66732 14.142 3.65065 16.516 5.40099 18.2663C7.15133 20.0167 9.5253 21 12.0007 21ZM12.0007 0C13.5327 0 15.0498 0.301767 16.4653 0.888072C17.8808 1.47438 19.1669 2.33374 20.2502 3.41709C21.3336 4.50044 22.1929 5.78656 22.7792 7.20203C23.3656 8.61749 23.6673 10.1346 23.6673 11.6667C23.6673 14.7609 22.4382 17.7283 20.2502 19.9162C18.0623 22.1042 15.0948 23.3333 12.0007 23.3333C5.54898 23.3333 0.333984 18.0833 0.333984 11.6667C0.333984 8.57247 1.56315 5.60501 3.75107 3.41709C5.939 1.22916 8.90646 0 12.0007 0ZM12.584 5.83333V11.9583L17.834 15.0733L16.959 16.5083L10.834 12.8333V5.83333H12.584Z" fill="#00FA00"/>
</svg>
