<svg width="24" height="25" viewBox="0 0 24 25" fill="none" xmlns="http://www.w3.org/2000/svg">
<path d="M21 22.1445L16.5375 17.7967L17.073 19.5358H6.125C5.56141 19.5358 5.02091 19.3068 4.6224 18.8991C4.22388 18.4914 4 17.9385 4 17.3619V4.31844C4 3.74189 4.22388 3.18894 4.6224 2.78126C5.02091 2.37357 5.56141 2.14453 6.125 2.14453H18.875C19.4386 2.14453 19.9791 2.37357 20.3776 2.78126C20.7761 3.18894 21 3.74189 21 4.31844V22.1445ZM12.5 7.18801C10.222 7.18801 8.624 8.18801 8.624 8.18801C9.4995 7.38801 11.0295 6.92714 11.0295 6.92714L10.885 6.77931C9.4485 6.8054 8.148 7.82279 8.148 7.82279C6.686 10.9445 6.7795 13.6402 6.7795 13.6402C7.9695 15.2141 9.7375 15.1011 9.7375 15.1011L10.341 14.3184C9.2785 14.0837 8.607 13.1184 8.607 13.1184C8.607 13.1184 10.205 14.2315 12.5 14.2315C14.795 14.2315 16.393 13.1184 16.393 13.1184C16.393 13.1184 15.7215 14.0837 14.659 14.3184L15.2625 15.1011C15.2625 15.1011 17.0305 15.2141 18.2205 13.6402C18.2205 13.6402 18.314 10.9445 16.852 7.82279C16.852 7.82279 15.5515 6.8054 14.115 6.77931L13.9705 6.92714C13.9705 6.92714 15.5005 7.38801 16.376 8.18801C16.376 8.18801 14.778 7.18801 12.5 7.18801ZM10.7405 10.4837C11.293 10.4837 11.7435 10.9793 11.735 11.588C11.735 12.188 11.293 12.6924 10.7405 12.6924C10.1965 12.6924 9.7545 12.188 9.7545 11.588C9.7545 10.9793 10.188 10.4837 10.7405 10.4837ZM14.285 10.4837C14.8375 10.4837 15.2795 10.9793 15.2795 11.588C15.2795 12.188 14.8375 12.6924 14.285 12.6924C13.741 12.6924 13.299 12.188 13.299 11.588C13.299 10.9793 13.7325 10.4837 14.285 10.4837Z" fill="var(--main-color)"/>
</svg>
