<svg xmlns="http://www.w3.org/2000/svg" width="10" height="6.923" viewBox="0 0 10 6.923">
  <path id="Polygon_4" data-name="Polygon 4" d="M5,0l5,6.923H0Z" transform="translate(10 6.923) rotate(180)" fill="#8f9aa0"/>
</svg>
