<svg width="8" height="8" viewBox="0 0 8 8" fill="none" xmlns="http://www.w3.org/2000/svg">
<path d="M4.74379 7.24315H2.47737C2.20539 7.24315 1.97875 7.02261 1.97875 6.75797V5.52294H0.709552C0.43758 5.52294 0.210938 5.3024 0.210938 5.03775V2.83235C0.210938 2.56771 0.43758 2.34717 0.709552 2.34717H1.97875V1.11214C1.97875 0.847492 2.20539 0.626953 2.47737 0.626953H4.74379C5.01576 0.626953 5.24241 0.847492 5.24241 1.11214V2.34717H6.51161C6.78358 2.34717 7.01022 2.56771 7.01022 2.83235V5.03775C7.01022 5.3024 6.78358 5.52294 6.51161 5.52294H5.24241V6.75797C5.24241 7.02261 5.01576 7.24315 4.74379 7.24315ZM2.97598 6.27278H4.24518V5.03775C4.24518 4.77311 4.47182 4.55257 4.74379 4.55257H6.01299V3.31754H4.74379C4.47182 3.31754 4.24518 3.097 4.24518 2.83235V1.59733H2.97598V2.83235C2.97598 3.097 2.74934 3.31754 2.47737 3.31754H1.20817V4.55257H2.47737C2.74934 4.55257 2.97598 4.77311 2.97598 5.03775V6.27278Z" fill="#A168DF"/>
</svg>
