<svg width="33" height="32" viewBox="0 0 33 32" fill="none" xmlns="http://www.w3.org/2000/svg">
<path fill-rule="evenodd" clip-rule="evenodd" d="M3.72965 27.9998C3.74211 27.9999 3.7546 28 3.76711 28H3.76908C3.85458 28 3.93961 27.9967 4.02404 27.9901C4.78454 27.9321 5.51313 27.6186 6.08679 27.0664L11.2882 22.0597H21.7139L26.9154 27.0664C27.5415 27.6691 28.4084 27.9936 29.2271 27.9936C29.7088 27.9936 30.2385 27.8545 30.7201 27.6691C31.9723 27.0664 32.6948 25.7684 32.454 24.3776L30.4889 12.2369C30.4765 12.0069 30.4537 11.7725 30.4212 11.5332L30.3251 10.8571C29.7001 6.89738 26.335 4 22.3448 4H10.5956C6.60546 4 3.24027 6.89738 2.61531 10.8571L0.54812 24.1851C0.510745 24.4029 0.495453 24.6194 0.501161 24.8325C0.468436 26.0082 1.12918 27.0937 2.28202 27.6691C2.51811 27.7785 2.76054 27.8604 3.00529 27.9153C3.23959 27.9728 3.47932 27.9975 3.72965 27.9998ZM12.6952 20.3063L13.3839 19.5976H23.0178C24.6043 19.5976 26.0946 19.1147 27.3445 18.2938C28.1583 17.74 28.8144 17.1143 29.3128 16.4087L30.4594 23.5703C30.6408 24.6289 30.0062 25.3787 29.3716 25.6875C28.737 26.0403 27.7397 26.0844 26.9691 25.3346L21.9377 20.4386C21.847 20.3504 21.711 20.3063 21.575 20.3063H12.6952ZM12.8733 18.5975L13.0588 18.4088C13.1495 18.3206 13.2855 18.2765 13.4215 18.2765H22.6176C23.8868 18.2765 25.1107 17.9236 26.1079 17.262C27.3318 16.4681 28.057 15.5418 28.4197 14.3068C28.601 13.6011 28.6463 12.8512 28.5556 12.0132L28.465 11.3957C28.1622 9.30394 26.8281 7.60578 25.003 6.7086C24.1658 6.29812 23.2272 6.05551 22.2376 6.01988H10.7668C7.61387 6.1345 4.97745 8.38991 4.49173 11.4406L2.5426 23.5703C2.5212 23.6952 2.51117 23.8159 2.51116 23.932C2.51143 24.7993 3.07096 25.4144 3.63049 25.6867C4.26508 25.9954 5.26231 26.0836 6.0329 25.3338L11.0644 20.4378L11.729 19.7617L12.7589 18.6801C12.792 18.6468 12.8308 18.6193 12.8733 18.5975Z" fill="var(--tolopea-medium-color)"/>
<path d="M11.7443 15.145H9.47785C9.20588 15.145 8.97924 14.9245 8.97924 14.6598V13.4248H7.71004C7.43807 13.4248 7.21143 13.2043 7.21143 12.9396V10.7342C7.21143 10.4696 7.43807 10.249 7.71004 10.249H8.97924V9.014C8.97924 8.74935 9.20588 8.52881 9.47785 8.52881H11.7443C12.0163 8.52881 12.2429 8.74935 12.2429 9.014V10.249H13.5121C13.7841 10.249 14.0107 10.4696 14.0107 10.7342V12.9396C14.0107 13.2043 13.7841 13.4248 13.5121 13.4248H12.2429V14.6598C12.2429 14.9245 12.0163 15.145 11.7443 15.145ZM9.97647 14.1746H11.2457V12.9396C11.2457 12.675 11.4723 12.4544 11.7443 12.4544H13.0135V11.2194H11.7443C11.4723 11.2194 11.2457 10.9989 11.2457 10.7342V9.49918H9.97647V10.7342C9.97647 10.9989 9.74982 11.2194 9.47785 11.2194H8.20865V12.4544H9.47785C9.74982 12.4544 9.97647 12.675 9.97647 12.9396V14.1746Z" fill="var(--tolopea-medium-color)"/>
<path d="M20.7168 12.7189C21.2174 12.7189 21.6233 12.324 21.6233 11.8368C21.6233 11.3495 21.2174 10.9546 20.7168 10.9546C20.2161 10.9546 19.8102 11.3495 19.8102 11.8368C19.8102 12.324 20.2161 12.7189 20.7168 12.7189Z" fill="var(--tolopea-medium-color)"/>
<path d="M25.1135 12.7189C25.6142 12.7189 26.0201 12.324 26.0201 11.8368C26.0201 11.3495 25.6142 10.9546 25.1135 10.9546C24.6128 10.9546 24.2069 11.3495 24.2069 11.8368C24.2069 12.324 24.6128 12.7189 25.1135 12.7189Z" fill="var(--tolopea-medium-color)"/>
<path d="M22.9378 10.3815C23.4385 10.3815 23.8444 9.98655 23.8444 9.49935C23.8444 9.01214 23.4385 8.61719 22.9378 8.61719C22.4371 8.61719 22.0312 9.01214 22.0312 9.49935C22.0312 9.98655 22.4371 10.3815 22.9378 10.3815Z" fill="var(--tolopea-medium-color)"/>
<path d="M23.4066 14.7643C23.9073 14.7643 24.3131 14.3694 24.3131 13.8822C24.3131 13.395 23.9073 13 23.4066 13C22.9059 13 22.5 13.395 22.5 13.8822C22.5 14.3694 22.9059 14.7643 23.4066 14.7643Z" fill="var(--tolopea-medium-color)"/>
</svg>
