<svg width="32" height="33" viewBox="0 0 32 33" fill="none" xmlns="http://www.w3.org/2000/svg">
<path d="M22.667 4.60938H9.33366C7.86699 4.60938 6.68033 5.80938 6.68033 7.27604L6.66699 28.6094L16.0003 24.6094L25.3337 28.6094V7.27604C25.3337 5.80938 24.1337 4.60938 22.667 4.60938ZM22.667 24.6094L16.0003 21.7027L9.33366 24.6094V7.27604H22.667V24.6094Z" fill="#767676"/>
</svg>
