<svg width="18" height="10" viewBox="0 0 18 10" fill="none" xmlns="http://www.w3.org/2000/svg">
<path d="M15.75 0.5H2.25C1.85218 0.5 1.47064 0.658035 1.18934 0.93934C0.908035 1.22064 0.75 1.60218 0.75 2V8C0.75 8.39782 0.908035 8.77936 1.18934 9.06066C1.47064 9.34196 1.85218 9.5 2.25 9.5H15.75C16.1478 9.5 16.5294 9.34196 16.8107 9.06066C17.092 8.77936 17.25 8.39782 17.25 8V2C17.25 1.60218 17.092 1.22064 16.8107 0.93934C16.5294 0.658035 16.1478 0.5 15.75 0.5V0.5ZM15.75 8H2.25V2H15.75V8ZM4.5 7.25H6V5.75H7.5V4.25H6V2.75H4.5V4.25H3V5.75H4.5V7.25ZM10.875 5C11.1734 5 11.4595 5.11853 11.6705 5.3295C11.8815 5.54048 12 5.82663 12 6.125C12 6.42337 11.8815 6.70952 11.6705 6.9205C11.4595 7.13147 11.1734 7.25 10.875 7.25C10.5766 7.25 10.2905 7.13147 10.0795 6.9205C9.86853 6.70952 9.75 6.42337 9.75 6.125C9.75 5.82663 9.86853 5.54048 10.0795 5.3295C10.2905 5.11853 10.5766 5 10.875 5ZM13.875 2.75C14.1734 2.75 14.4595 2.86853 14.6705 3.0795C14.8815 3.29048 15 3.57663 15 3.875C15 4.17337 14.8815 4.45952 14.6705 4.6705C14.4595 4.88147 14.1734 5 13.875 5C13.5766 5 13.2905 4.88147 13.0795 4.6705C12.8685 4.45952 12.75 4.17337 12.75 3.875C12.75 3.57663 12.8685 3.29048 13.0795 3.0795C13.2905 2.86853 13.5766 2.75 13.875 2.75Z" fill="black"/>
</svg>
