<svg width="333" height="143" viewBox="0 0 333 143" fill="none" xmlns="http://www.w3.org/2000/svg">
<mask id="mask0_18719:131326" style="mask-type:alpha" maskUnits="userSpaceOnUse" x="0" y="0" width="333" height="143">
<rect x="0.5" y="0.621094" width="332" height="141" rx="2.5" fill="#4E4E4E" stroke="#3B3B3B"/>
</mask>
<g mask="url(#mask0_18719:131326)">
<mask id="path-2-inside-1_18719:131326" fill="white">
<path fill-rule="evenodd" clip-rule="evenodd" d="M347.918 -165.574V-154.476C347.918 -149.219 345.638 -144.224 341.675 -140.777L287.908 -94.0311L234.339 -140.868C230.397 -144.315 228.135 -149.297 228.135 -154.537V-165.574H207.781V78.7837C207.781 90.1253 212.78 100.891 221.446 108.209L288.025 164.426L354.607 108.209C363.273 100.891 368.272 90.1253 368.272 78.7837V-165.574H347.918ZM228.13 -119.237L272.397 -80.5316L228.13 -42.0486V-119.237ZM341.466 92.6548L288.018 137.781L257.075 111.654L347.911 32.6832V78.7818C347.911 84.1271 345.553 89.2042 341.466 92.6547V92.6548ZM341.67 11.1322L241.342 98.3617L234.575 92.6484C230.488 89.1979 228.13 84.1208 228.13 78.7755V68.2752C228.13 63.0215 230.407 58.0225 234.374 54.5755L347.914 -44.1371V-2.56744C347.914 2.68961 345.634 7.68512 341.67 11.1322ZM341.67 -65.6793L228.13 33.0331V-6.82516C228.13 -12.0789 230.407 -17.0781 234.374 -20.5248L347.914 -119.237V-79.3792C347.914 -74.1219 345.634 -69.1263 341.67 -65.6791V-65.6793Z"/>
</mask>
<path d="M347.918 -165.574V-166.574H346.918V-165.574H347.918ZM341.675 -140.777L342.331 -140.022L342.331 -140.022L341.675 -140.777ZM287.908 -94.0311L287.25 -93.2783L287.906 -92.7044L288.564 -93.2765L287.908 -94.0311ZM234.339 -140.868L233.681 -140.116L233.681 -140.116L234.339 -140.868ZM228.135 -165.574H229.135V-166.574H228.135V-165.574ZM207.781 -165.574V-166.574H206.781V-165.574H207.781ZM221.446 108.209L220.801 108.973L220.801 108.973L221.446 108.209ZM288.025 164.426L287.38 165.19L288.025 165.735L288.67 165.19L288.025 164.426ZM354.607 108.209L355.253 108.973L355.253 108.973L354.607 108.209ZM368.272 -165.574H369.272V-166.574H368.272V-165.574ZM228.13 -119.237L228.788 -119.99L227.13 -121.44V-119.237H228.13ZM272.397 -80.5316L273.053 -79.7769L273.919 -80.5294L273.055 -81.2844L272.397 -80.5316ZM228.13 -42.0486H227.13V-39.8542L228.786 -41.2939L228.13 -42.0486ZM341.466 92.6548L342.111 93.4189L342.466 93.1193V92.6548H341.466ZM288.018 137.781L287.372 138.545L288.018 139.09L288.663 138.545L288.018 137.781ZM257.075 111.654L256.419 110.9L255.539 111.665L256.43 112.418L257.075 111.654ZM347.911 32.6832H348.911V30.4888L347.255 31.9286L347.911 32.6832ZM341.466 92.6547L340.821 91.8906L340.466 92.1902V92.6547H341.466ZM341.67 11.1322L342.326 11.8869L342.327 11.8867L341.67 11.1322ZM241.342 98.3617L240.697 99.1258L241.352 99.6786L241.998 99.1164L241.342 98.3617ZM234.575 92.6484L235.221 91.8843H235.22L234.575 92.6484ZM234.374 54.5755L235.03 55.3304L235.03 55.3302L234.374 54.5755ZM347.914 -44.1371H348.914V-46.3316L347.258 -44.8917L347.914 -44.1371ZM341.67 -65.6793H342.67V-67.8738L341.014 -66.434L341.67 -65.6793ZM228.13 33.0331H227.13V35.2276L228.786 33.7878L228.13 33.0331ZM234.374 -20.5248L235.03 -19.7699L235.03 -19.7701L234.374 -20.5248ZM347.914 -119.237H348.914V-121.432L347.258 -119.992L347.914 -119.237ZM341.67 -65.6791H340.67V-63.4839L342.327 -64.9245L341.67 -65.6791ZM346.918 -165.574V-154.476H348.918V-165.574H346.918ZM346.918 -154.476C346.918 -149.509 344.764 -144.789 341.019 -141.531L342.331 -140.022C346.512 -143.659 348.918 -148.93 348.918 -154.476H346.918ZM341.019 -141.531L287.252 -94.7858L288.564 -93.2765L342.331 -140.022L341.019 -141.531ZM288.566 -94.784L234.998 -141.621L233.681 -140.116L287.25 -93.2783L288.566 -94.784ZM234.998 -141.621C231.273 -144.878 229.135 -149.586 229.135 -154.537H227.135C227.135 -149.009 229.522 -143.752 233.681 -140.116L234.998 -141.621ZM229.135 -154.537V-165.574H227.135V-154.537H229.135ZM228.135 -166.574H207.781V-164.574H228.135V-166.574ZM206.781 -165.574V78.7837H208.781V-165.574H206.781ZM206.781 78.7837C206.781 90.4198 211.91 101.465 220.801 108.973L222.091 107.445C213.651 100.317 208.781 89.8308 208.781 78.7837H206.781ZM220.801 108.973L287.38 165.19L288.67 163.662L222.091 107.445L220.801 108.973ZM288.67 165.19L355.253 108.973L353.962 107.445L287.38 163.662L288.67 165.19ZM355.253 108.973C364.143 101.465 369.272 90.4198 369.272 78.7837H367.272C367.272 89.8308 362.403 100.317 353.962 107.445L355.253 108.973ZM369.272 78.7837V-165.574H367.272V78.7837H369.272ZM368.272 -166.574H347.918V-164.574H368.272V-166.574ZM227.472 -118.485L271.739 -79.7788L273.055 -81.2844L228.788 -119.99L227.472 -118.485ZM271.741 -81.2863L227.474 -42.8033L228.786 -41.2939L273.053 -79.7769L271.741 -81.2863ZM229.13 -42.0486V-119.237H227.13V-42.0486H229.13ZM340.821 91.8907L287.372 137.017L288.663 138.545L342.111 93.4189L340.821 91.8907ZM288.663 137.017L257.721 110.89L256.43 112.418L287.372 138.545L288.663 137.017ZM257.732 112.409L348.567 33.4379L347.255 31.9286L256.419 110.9L257.732 112.409ZM346.911 32.6832V78.7818H348.911V32.6832H346.911ZM346.911 78.7818C346.911 83.8325 344.683 88.63 340.821 91.8906L342.111 93.4188C346.423 89.7784 348.911 84.4217 348.911 78.7818H346.911ZM340.466 92.6547V92.6548H342.466V92.6547H340.466ZM341.014 10.3775L240.686 97.6071L241.998 99.1164L342.326 11.8869L341.014 10.3775ZM241.987 97.5977L235.221 91.8843L233.93 93.4125L240.697 99.1258L241.987 97.5977ZM235.22 91.8843C231.359 88.6238 229.13 83.8262 229.13 78.7755H227.13C227.13 84.4155 229.618 89.7721 233.93 93.4125L235.22 91.8843ZM229.13 78.7755V68.2752H227.13V78.7755H229.13ZM229.13 68.2752C229.13 63.3109 231.282 58.5872 235.03 55.3304L233.718 53.8207C229.532 57.4577 227.13 62.7322 227.13 68.2752H229.13ZM235.03 55.3302L348.57 -43.3824L347.258 -44.8917L233.718 53.8209L235.03 55.3302ZM346.914 -44.1371V-2.56744H348.914V-44.1371H346.914ZM346.914 -2.56744C346.914 2.39973 344.759 7.12019 341.014 10.3777L342.327 11.8867C346.508 8.25003 348.914 2.97948 348.914 -2.56744H346.914ZM341.014 -66.434L227.474 32.2785L228.786 33.7878L342.326 -64.9247L341.014 -66.434ZM229.13 33.0331V-6.82516H227.13V33.0331H229.13ZM229.13 -6.82516C229.13 -11.7896 231.282 -16.5134 235.03 -19.7699L233.718 -21.2797C229.532 -17.6429 227.13 -12.3683 227.13 -6.82516H229.13ZM235.03 -19.7701L348.57 -118.483L347.258 -119.992L233.718 -21.2795L235.03 -19.7701ZM346.914 -119.237V-79.3792H348.914V-119.237H346.914ZM346.914 -79.3792C346.914 -74.4118 344.759 -69.6912 341.014 -66.4336L342.327 -64.9245C346.508 -68.5614 348.914 -73.8321 348.914 -79.3792H346.914ZM342.67 -65.6791V-65.6793H340.67V-65.6791H342.67Z" fill="#F13030" mask="url(#path-2-inside-1_18719:131326)"/>
</g>
</svg>
