<svg viewBox="0 0 64 64" fill="none" xmlns="http://www.w3.org/2000/svg">
<path d="M0.449018 33.3913C0.741192 33.3079 1.00554 33.255 1.26711 33.1576C1.5253 33.0631 1.75092 32.8964 1.91715 32.6774C2.08339 32.4584 2.18324 32.1962 2.20484 31.9221C2.26879 31.3969 2.2939 30.8677 2.27997 30.3388C2.24348 30.1342 2.14657 29.9452 2.00171 29.7962C1.70113 29.4618 1.46103 29.0776 1.29215 28.6609C1.09684 28.1108 1.04232 27.5206 1.13354 26.944C1.2198 26.4293 1.34224 25.92 1.38676 25.4025C1.43462 24.6323 1.36614 23.8594 1.18363 23.1096C1.03893 22.439 0.88867 21.7656 0.724496 21.0978C0.590931 20.5607 0.390583 20.0348 0.295974 19.4783C0.173539 18.7381 0.109539 17.9896 0.0483221 17.2522C-0.00217996 16.819 -0.00963667 16.3819 0.0260612 15.9472C0.0928438 15.374 0.251453 14.8146 0.359974 14.2442C0.449018 13.7684 0.521366 13.287 0.599279 12.8084C0.654931 12.4717 0.721714 12.1378 0.76067 11.8011C0.830235 11.2167 0.913714 10.6324 0.935975 10.0453C0.974931 9.05187 0.983279 8.05291 0.986062 7.05674C0.976243 6.22232 0.858393 5.3927 0.635453 4.58856C0.363896 3.54519 0.462226 2.43995 0.913714 1.46091C0.938275 1.42154 0.971697 1.38846 1.01131 1.3643C1.05093 1.34015 1.09564 1.32559 1.14189 1.32178C1.54055 1.31665 1.93917 1.33523 2.33563 1.37743C2.94986 1.40562 3.56517 1.35513 4.16658 1.22717C4.29542 1.20627 4.42564 1.19511 4.55615 1.19378L9.79024 1.31065C11.3596 1.34404 12.9318 1.383 14.504 1.40526C14.7822 1.40526 15.0605 1.32734 15.3388 1.33847C15.7014 1.34723 16.0626 1.38726 16.4184 1.45813C16.5747 1.50368 16.7104 1.60202 16.8024 1.73639C16.8479 1.8164 16.9134 1.8833 16.9923 1.93059C17.0713 1.97788 17.1612 2.00396 17.2532 2.0063C17.8821 2.023 18.5109 2.023 19.1398 2.04247C19.7687 2.06195 20.3224 2.08421 20.9151 2.12317C21.5404 2.18219 22.1707 2.16068 22.7906 2.05917C22.9111 2.03817 23.0281 2.00072 23.1384 1.94786C23.8842 1.57778 24.6355 1.21604 25.3645 0.818125C25.6125 0.657212 25.8428 0.47068 26.0518 0.261604C26.1394 0.178895 26.2442 0.116553 26.3587 0.0790336C26.4732 0.0415141 26.5945 0.0297425 26.7141 0.0445601C27.1509 0.0723862 27.5906 0.016734 28.0302 0.00560355C28.3558 0.00560355 28.6814 0.00560355 29.0069 0.00560355C29.6915 0.0389949 30.3788 0.10856 31.0661 0.122473C31.4612 0.122473 31.8563 0.0362123 32.2515 0.0195166C32.808 -0.00274427 33.3645 -0.00274427 33.9016 0.00282094C34.2995 0.00282094 34.6974 0.0334296 35.0925 0.0584731C35.3902 0.080734 35.6824 0.119691 35.9774 0.147517C36.1137 0.147517 36.1416 0.228212 36.0803 0.336734C35.9913 0.503691 35.9023 0.670647 35.8021 0.829256C35.6296 1.10752 35.6685 1.20491 35.9774 1.25221C36.2862 1.29952 36.5339 1.33013 36.8122 1.35795C37.2017 1.39134 37.5913 1.42473 37.9836 1.44143C38.145 1.44143 38.2285 1.4776 38.2619 1.66126C38.3426 2.18717 38.6042 2.58508 39.1607 2.67134C39.4683 2.71028 39.7797 2.71028 40.0873 2.67134C40.6188 2.61569 41.1447 2.51552 41.6762 2.44873C41.8348 2.42926 41.8765 2.35413 41.8988 2.21221C41.9544 1.83378 42.0268 1.45813 42.0991 1.08247C42.1372 0.871017 42.2435 0.677866 42.4018 0.532617C42.5601 0.387368 42.7617 0.298033 42.9756 0.278299C43.4012 0.196993 43.8336 0.156923 44.2668 0.158647C44.9986 0.178125 45.7249 0.275517 46.4539 0.317256C47.1829 0.358995 47.9593 0.367343 48.7106 0.400734C49.8236 0.450821 50.9367 0.484212 52.0275 0.573256C52.7843 0.637256 53.5329 0.779169 54.2814 0.901604C54.3297 0.914948 54.3745 0.938837 54.4125 0.971554C54.4505 1.00427 54.4808 1.045 54.5012 1.09082C54.607 1.40526 54.6904 1.72804 54.7656 2.0536C54.8017 2.20665 54.8518 2.24282 55.0049 2.18439C55.3732 2.01375 55.669 1.71793 55.8396 1.3496C55.9202 1.20422 56.0435 1.08705 56.1928 1.01391C56.342 0.940761 56.5102 0.915162 56.6744 0.94056C56.7315 0.941508 56.7868 0.959965 56.833 0.99343C57.1113 1.32178 57.5064 1.31343 57.8737 1.33013C58.4664 1.35795 59.0619 1.33013 59.6546 1.3496C60.2473 1.36908 60.8094 1.41917 61.3854 1.47482C61.545 1.48437 61.7007 1.52777 61.8422 1.60213C61.9838 1.6765 62.1079 1.78012 62.2063 1.90613C62.5235 2.31517 62.9937 2.46265 63.4668 2.57395C63.631 2.61569 63.6671 2.68804 63.6727 2.85221C63.6692 3.12007 63.6925 3.3876 63.7423 3.65082C63.8897 4.33256 63.695 4.96143 63.4946 5.59865C63.3788 5.98968 63.3683 6.40432 63.464 6.80074C63.5843 7.33 63.6716 7.86622 63.7256 8.4063C63.9259 10.9746 63.9565 13.5486 63.9231 16.1225C63.9009 17.664 63.8369 19.2056 63.7896 20.7472C63.7961 20.9667 63.7347 21.183 63.6136 21.3663C63.4926 21.5496 63.3179 21.691 63.1134 21.7712C62.8351 21.8853 62.5819 22.0049 62.3259 22.1413C62.2648 22.1622 62.2088 22.196 62.1618 22.2403C62.1147 22.2847 62.0777 22.3386 62.0532 22.3984C62.0287 22.4582 62.0173 22.5226 62.0197 22.5872C62.0221 22.6517 62.0383 22.7151 62.0671 22.7729C62.1339 23.0039 62.2174 23.2265 62.273 23.4602C62.2963 23.5548 62.2813 23.6548 62.2313 23.7385C61.9809 24.0752 61.7193 24.4063 61.4438 24.7235C61.096 25.127 61.0487 25.3162 61.3186 25.7726C61.5982 26.2539 61.9058 26.7185 62.2397 27.1639C62.6201 27.689 62.8657 28.2996 62.9548 28.942C63.233 30.4613 63.0911 31.9833 62.9743 33.5027C62.9297 34.0592 62.9075 34.6352 62.888 35.2028C62.888 35.3531 62.849 35.4449 62.696 35.4811C62.5339 35.5435 62.3751 35.6141 62.2202 35.6926C62.1117 35.7474 62.0168 35.8258 61.9427 35.9221C61.8685 36.0184 61.8169 36.1302 61.7916 36.2491C61.7443 36.4049 61.8723 36.3882 61.9642 36.391H63.4445C63.8563 36.391 63.8536 36.391 63.8563 36.8084C63.8563 37.7183 63.8563 38.6282 63.887 39.5354C63.887 39.9527 64.0094 40.3701 64.0122 40.7847C64.0122 41.1298 63.8981 41.4748 63.8897 41.8199C63.8619 42.7743 63.8591 43.726 63.8536 44.6776C63.8397 48.0613 63.8146 51.4421 63.8202 54.823C63.8202 56.0223 63.9287 57.2216 63.9343 58.4209C63.9398 59.6202 63.887 60.8195 63.8591 62.0188C63.8591 62.0606 63.8591 62.1023 63.8341 62.1858C63.6643 62.1301 63.5057 62.0912 63.3583 62.0272C62.9621 61.8162 62.5499 61.6366 62.1256 61.4901C61.2602 61.2642 60.3834 61.0849 59.4988 60.9531C59.0073 60.9175 58.5136 60.9277 58.024 60.9837C57.7875 60.9837 57.551 61.031 57.3117 61.0449C57.1447 61.0449 57.0557 61.1312 57.0723 61.3065C57.0794 61.3573 57.0794 61.4088 57.0723 61.4595C57.0417 61.6766 57.1475 61.7378 57.3506 61.7378C57.7123 61.7378 57.7513 61.7823 57.7903 62.1997C57.6793 62.198 57.5685 62.2064 57.4591 62.2247C57.2254 62.2915 57 62.3778 56.7718 62.4501C56.639 62.5151 56.4959 62.5565 56.3489 62.5726C55.2553 62.5336 54.1645 62.4752 53.071 62.4279C52.2566 62.3945 51.4394 62.3667 50.6195 62.3444C49.9138 62.3342 49.2246 62.1301 48.6271 61.7545C48.5762 61.7091 48.5103 61.684 48.4421 61.684C48.3739 61.684 48.308 61.7091 48.257 61.7545C47.6637 62.1909 46.9426 62.4188 46.2063 62.4028C45.6219 62.4028 45.0376 62.4919 44.4532 62.5253C43.9629 62.5693 43.4701 62.5786 42.9784 62.5531C41.3672 62.446 39.7507 62.446 38.1395 62.5531C37.6052 62.5742 37.0732 62.6347 36.5478 62.734C35.8633 62.8675 35.2845 63.2627 34.6723 63.5687C34.4793 63.6665 34.2782 63.7475 34.0713 63.8108C33.9289 63.8586 33.775 63.8607 33.6313 63.8168C33.4877 63.7729 33.3613 63.6852 33.2699 63.566C33.1363 63.4129 33.0362 63.2348 32.9054 63.079C32.8581 63.0234 32.7468 62.9566 32.7022 62.9788C31.9955 63.3044 31.3332 63.079 30.6626 62.8397C30.3908 62.749 30.1114 62.6829 29.8278 62.6421C29.5764 62.5953 29.3166 62.6251 29.0824 62.7279C28.8482 62.8306 28.6503 63.0014 28.5144 63.2181C28.3096 63.4708 28.0903 63.7115 27.8577 63.9388C27.7715 64.0279 27.6852 64.0223 27.5655 63.9694C27.0702 63.7552 26.7975 63.3239 26.4942 62.9176C26.1455 62.5254 25.8804 62.0662 25.7151 61.568C25.7 61.5341 25.6764 61.5046 25.6467 61.4822C25.6171 61.4598 25.5822 61.4453 25.5454 61.4401C25.4222 61.4291 25.2982 61.4456 25.1822 61.4885C25.0662 61.5313 24.9612 61.5993 24.8748 61.6877C24.8414 61.7267 24.8024 61.7601 24.769 61.7962C24.716 61.8683 24.6373 61.9172 24.5492 61.9327C24.4611 61.9483 24.3704 61.9293 24.296 61.8797C23.8413 61.6856 23.3484 61.5971 22.8546 61.6209C22.4929 61.6209 22.1311 61.6014 21.7722 61.582C21.6986 61.5848 21.6263 61.5633 21.5662 61.5207C21.2351 61.223 20.8289 61.2425 20.4365 61.2564C19.0619 61.3399 17.6901 61.454 16.3182 61.5347C16.0658 61.5543 15.8119 61.5318 15.5669 61.4679C14.8242 61.2615 14.0431 61.2348 13.288 61.39C12.9901 61.4641 12.6761 61.4377 12.3948 61.3148C12.0411 61.1733 11.6521 61.1451 11.2817 61.2341C10.8206 61.2965 10.3557 61.3271 9.89041 61.326C8.68833 61.3427 7.48624 61.326 6.28693 61.3594C5.47163 61.3788 4.65354 61.4874 3.83824 61.479C2.80749 61.4603 1.79181 61.2282 0.855279 60.7973C0.783975 60.7813 0.721826 60.7379 0.682257 60.6764C0.642688 60.615 0.628874 60.5405 0.643801 60.4689C0.707801 59.84 0.743975 59.2084 0.82467 58.5823C0.930201 57.6868 0.933935 56.7823 0.835801 55.886C0.718931 54.6867 0.660496 53.4818 0.604844 52.2686C0.56867 51.5145 0.604844 50.7548 0.56867 50.0007C0.543627 49.4164 0.846931 48.9767 1.14189 48.5287C1.2135 48.4193 1.29962 48.3201 1.39789 48.2338C1.73127 47.918 1.92883 47.4849 1.94884 47.0261C2.02954 46.35 2.12137 45.671 2.18258 44.992C2.27441 43.9959 2.43302 42.9997 2.29111 41.9952C2.27413 41.8255 2.21838 41.6619 2.12815 41.5172C2.03793 41.3724 1.91565 41.2504 1.77076 41.1604C1.61651 41.0655 1.46871 40.9604 1.32832 40.846C0.858061 40.4731 0.796844 39.9277 0.771801 39.3879C0.682757 37.7044 0.615974 36.0209 0.538061 34.3347C0.5158 34.0119 0.476844 33.703 0.449018 33.3913ZM7.12728 12.135C7.32206 12.5385 7.40554 12.9698 7.7478 13.2647C8.14015 13.6098 8.51024 13.9826 8.86085 14.3555C10.7029 16.2495 12.5422 18.1464 14.3788 20.046C14.9772 20.6164 15.5439 21.2192 16.0762 21.8519C16.6534 22.5815 17.2741 23.2756 17.9349 23.9305C19.0007 25.0129 20.1165 26.0397 21.1683 27.1305C22.8602 28.8863 24.5075 30.6755 26.177 32.4536C26.9116 33.2383 27.6268 34.0397 28.3753 34.8077C28.7426 35.1861 29.2101 35.4755 29.569 35.854C30.3036 36.608 30.9965 37.4011 31.7172 38.1691C32.9137 39.4463 34.0129 40.8293 35.5016 41.8087C35.7816 41.994 36.005 42.2531 36.1471 42.5573C36.3048 42.8531 36.4912 43.1327 36.7036 43.392C36.8817 43.6202 37.1016 43.815 37.2963 44.0293C38.2897 45.1256 39.2748 46.2303 40.2793 47.3183C40.8163 47.8999 41.3923 48.4314 41.9489 49.0185C42.7169 49.8394 43.4626 50.688 44.2278 51.5033C44.4608 51.7876 44.7804 51.9879 45.1377 52.0738C45.992 52.2268 46.8463 52.3715 47.7061 52.48C48.4518 52.5747 49.2059 52.6192 49.9544 52.6748C50.5388 52.7166 51.1259 52.7527 51.7103 52.7694C52.0248 52.7939 52.3391 52.72 52.6098 52.5579C52.8805 52.3959 53.0941 52.1538 53.2212 51.8651C53.4466 51.4171 53.6803 50.9747 53.8974 50.5211C54.4095 49.5271 54.8278 48.4874 55.1468 47.4157C55.425 46.3861 55.6866 45.3538 55.9983 44.3354C56.3836 43.1512 56.641 41.9291 56.7663 40.6901C56.7827 40.6234 56.774 40.553 56.7416 40.4923C56.7092 40.4317 56.6556 40.3852 56.591 40.3618C56.3474 40.2486 56.1145 40.1135 55.8953 39.9583C55.0967 39.3712 54.312 38.7618 53.5106 38.1719C53.0988 37.8686 52.648 37.6153 52.2417 37.2981C51.8355 36.9809 51.496 36.6442 50.9339 36.6025C50.3718 36.5607 49.9823 36.2073 49.5843 35.8595C49.0696 35.4143 48.5631 34.958 48.0205 34.5489C47.7283 34.3291 47.3555 34.2233 47.0494 34.023C45.8751 33.2494 44.712 32.4564 43.5461 31.6717C43.4125 31.5827 43.2845 31.488 43.1565 31.3934C42.728 31.0734 42.3023 30.7451 41.8682 30.4334C41.5676 30.2192 41.2504 30.0272 40.9443 29.8213C40.0038 29.1924 39.0744 28.5496 38.1256 27.9347C37.441 27.4894 36.712 27.0999 36.033 26.6547C35.3541 26.2094 34.7502 25.7086 34.0852 25.2633C32.4657 24.1503 30.8407 23.0373 29.2156 21.9409C28.1638 21.2286 27.1092 20.5246 26.0602 19.8122C25.2254 19.2557 24.3906 18.6686 23.5558 18.0981C23.4833 18.051 23.4058 18.0118 23.3249 17.9813C22.9659 17.8477 22.5958 17.7364 22.248 17.5778C22.0229 17.4839 21.8215 17.3414 21.6581 17.1604C21.4786 16.9317 21.2454 16.7511 20.9791 16.6345C20.6591 16.5037 20.328 16.3952 20.0135 16.2477C19.3708 15.9444 18.8532 15.5214 18.728 14.7673C18.7178 14.6966 18.6908 14.6293 18.6491 14.5711C18.6075 14.513 18.5524 14.4658 18.4887 14.4334C17.793 14.0068 17.1029 13.5792 16.4184 13.1506C15.8897 12.8223 15.3749 12.4661 14.8295 12.1656C14.3408 11.9123 13.8879 11.5951 13.4828 11.2223C13.2085 10.9329 12.8599 10.7245 12.4751 10.62C12.0903 10.5154 11.6842 10.5188 11.3012 10.6296C10.8195 10.7796 10.3497 10.9656 9.89598 11.1861C9.26613 11.5177 8.60173 11.779 7.91476 11.9653L7.12728 12.135ZM14.8908 53.2564V53.2954C15.0855 53.2954 15.2831 53.2954 15.4779 53.2954C16.6763 53.3807 17.8739 53.1199 18.9283 52.544C19.5651 52.2266 20.2582 52.0375 20.968 51.9875C21.4687 51.9495 21.955 51.8023 22.3927 51.5562C22.7659 51.336 23.165 51.1631 23.5809 51.0414C23.9593 50.9218 24.3349 50.7882 24.7162 50.6769C24.9109 50.6185 24.9276 50.5183 24.8247 50.3736C24.6985 50.1878 24.557 50.0128 24.4017 49.8505C23.8925 49.3552 23.3722 48.871 22.8462 48.3924C20.8316 46.542 18.7642 44.7527 16.8664 42.7771C16.001 41.8783 15.105 41.0101 14.209 40.142C13.5635 39.5159 12.8956 38.912 12.2389 38.2971C12.1109 38.1774 12.033 38.1886 11.9607 38.3667C11.3068 39.9193 10.6389 41.4665 9.98502 43.0192C9.4925 44.1879 9.03893 45.376 8.51859 46.5336C8.21649 47.1549 8.06311 47.8379 8.07059 48.5287C8.05134 48.7759 8.11174 49.0227 8.24293 49.233C8.37412 49.4433 8.56922 49.6061 8.79963 49.6974C9.08175 49.8407 9.34449 50.0193 9.58154 50.2289C9.77354 50.3764 9.91267 50.6157 10.1381 50.7159C10.6654 51.0181 11.1478 51.3927 11.5711 51.8289C12.0581 52.2602 12.5534 52.6887 13.0654 53.0922C13.2145 53.1892 13.3883 53.2414 13.5662 53.2425C13.992 53.2703 14.4428 53.2564 14.8908 53.2564ZM52.0553 14.4946C52.0553 14.2025 52.0553 13.9131 52.0553 13.6237C52.0488 13.5768 52.0326 13.5318 52.0077 13.4915C51.9828 13.4513 51.9497 13.4167 51.9106 13.39C51.5127 13.1451 51.0758 12.9503 50.7002 12.6748C49.784 12.0501 48.8201 11.4983 47.8174 11.0247C47.7511 10.9885 47.6763 10.9709 47.6008 10.9738C47.5254 10.9768 47.4521 11.0001 47.3889 11.0414C47.1816 11.1596 46.9612 11.253 46.7322 11.3197C46.0588 11.5089 45.377 11.6703 44.7009 11.8456L41.0584 12.8084C40.1151 13.056 39.1746 13.3065 38.2313 13.5513C38.0894 13.5875 38.0282 13.6515 38.1367 13.774C38.294 13.96 38.4632 14.1357 38.6431 14.2999C38.9019 14.5308 39.1746 14.7451 39.4501 14.9593C39.7256 15.1736 39.9426 15.335 40.193 15.5159C40.3934 15.6606 40.6104 15.7802 40.7996 15.9388C41.4897 16.5093 42.1576 17.1131 42.8671 17.6668C43.5767 18.2206 44.3085 18.7159 45.0264 19.2418C45.2073 19.3753 45.3576 19.5479 45.5412 19.6759C46.1256 20.0793 46.7238 20.4633 47.3054 20.8724C47.9482 21.326 48.6522 21.6877 49.1976 22.2832C49.3358 22.4185 49.5007 22.5236 49.6818 22.5916C49.8629 22.6597 50.0562 22.6892 50.2494 22.6783C50.3258 22.6892 50.4036 22.6841 50.4779 22.6634C50.5522 22.6426 50.6214 22.6066 50.6811 22.5577C50.7407 22.5088 50.7896 22.448 50.8245 22.3791C50.8594 22.3103 50.8796 22.235 50.8838 22.158C50.9562 21.582 50.9951 21.0032 51.0313 20.4244C51.0604 19.6837 51.1877 18.9501 51.4097 18.2428C51.8518 17.0433 52.0706 15.773 52.0553 14.4946Z" fill="white" fill-opacity="0.6"/>
</svg>
