<svg width="14" height="14" viewBox="0 0 14 14" fill="none" xmlns="http://www.w3.org/2000/svg">
<path d="M12.334 0.333496H1.66732C0.933984 0.333496 0.333984 0.933496 0.333984 1.66683V13.6668L3.00065 11.0002H12.334C13.0673 11.0002 13.6673 10.4002 13.6673 9.66683V1.66683C13.6673 0.933496 13.0673 0.333496 12.334 0.333496ZM12.334 9.66683H3.00065L1.66732 11.0002V1.66683H12.334V9.66683Z" fill="white" fill-opacity="0.87"/>
</svg>
