<svg viewBox="0 0 48 48" fill="none" xmlns="http://www.w3.org/2000/svg">
<rect width="48" height="48" fill="#BBF55A"/>
<path d="M32.9667 20.1136L31.5983 19.8267C31.351 19.7749 31.0939 19.8133 30.8718 19.9352L29.4336 20.7248L30.6032 19.5589C30.8681 19.2949 31.237 19.1688 31.6046 19.2163L32.7479 19.364C33.0388 19.4016 33.1949 19.7315 33.0429 19.9864L32.9667 20.1136ZM31.7953 20.4275L30.1609 21.3248L31.3344 21.1365V21.1368C31.3344 21.4144 31.5556 21.6395 31.8283 21.6395C32.1011 21.6395 32.3222 21.4144 32.3222 21.1368C32.3222 21.0824 32.3114 21.0312 32.296 20.9824L32.4993 20.9499C32.5734 20.5437 32.1524 20.2315 31.7953 20.4275ZM29.7383 12.0584L26.3376 12.0421V19.756C27.4519 20.2189 28.2373 21.3323 28.2373 22.6328C28.2373 24.3485 26.8707 25.7395 25.185 25.7395C23.4993 25.7395 22.1327 24.3485 22.1327 22.6328C22.1327 21.2416 23.0311 20.0643 24.2696 19.6685V12C19.4302 12.3635 15.5366 16.4792 15.5366 21.5851V28.9933C15.5366 31.0997 16.948 32.9349 18.957 33.4405L29.1247 36V19.0843C29.1247 17.1976 30.5141 15.6424 32.308 15.4181C32.8716 16.3333 33.9301 17.5149 33.8648 19.4371C33.846 19.9899 33.3644 20.4771 33.6482 21.0573C34.343 22.4789 34.9849 22.9592 35.183 23.2413C35.347 23.4747 35.2134 23.6632 35.1911 23.6971C35.0517 23.9093 34.7211 24.0949 34.3454 24.2587C34.1507 24.5757 34.2914 24.9152 34.4441 25.1211C34.5998 25.3309 34.7009 25.6397 34.1774 25.9144C34.4965 26.0629 34.4913 26.3565 34.2838 26.5624C33.8627 26.98 33.9785 27.2189 33.9785 28.2112C33.9785 28.7757 33.4996 29.1525 33.0424 29.1525H31.4343C30.7567 29.1525 30.2076 29.7115 30.2076 30.4011V32.6629L35.9996 34.2432V18.4613C35.9999 14.9368 33.2012 12.0749 29.7383 12.0584ZM26.1568 23.1211C26.2684 23.0064 26.3376 22.8488 26.3376 22.6749C26.3376 22.3248 26.0585 22.0408 25.7145 22.0408C25.4897 22.0408 25.2946 22.1629 25.185 22.3445C25.0755 22.1629 24.8803 22.0408 24.6555 22.0408C24.3115 22.0408 24.0325 22.3248 24.0325 22.6749C24.0325 22.8904 24.1386 23.08 24.3 23.1947L25.1746 23.8035C25.1746 23.8035 26.1013 23.1779 26.1563 23.1216L26.1568 23.1211Z" fill="black"/>
<path d="M22.111 30.6002C22.111 33.3147 19.9512 35.5002 17.3055 35.5002C14.6598 35.5002 12.5 33.3147 12.5 30.6002C12.5 27.8856 14.6598 25.7002 17.3055 25.7002C19.9512 25.7002 22.111 27.8856 22.111 30.6002Z" fill="#BBF55A" stroke="black"/>
<path d="M17.3285 28.8969C17.6665 28.8969 17.9406 28.6065 17.9406 28.2483C17.9406 27.89 17.6665 27.5996 17.3285 27.5996C16.9904 27.5996 16.7163 27.89 16.7163 28.2483C16.7163 28.6065 16.9904 28.8969 17.3285 28.8969Z" fill="black"/>
<path d="M17.3285 29.7139C17.248 29.7136 17.1683 29.7302 17.0939 29.7626C17.0195 29.7951 16.9519 29.8429 16.895 29.9032C16.8381 29.9635 16.793 30.0351 16.7623 30.1139C16.7317 30.1928 16.716 30.2773 16.7163 30.3625V33.1582C16.7163 33.3302 16.7808 33.4952 16.8956 33.6168C17.0104 33.7385 17.1661 33.8068 17.3285 33.8068C17.4908 33.8068 17.6465 33.7385 17.7613 33.6168C17.8761 33.4952 17.9406 33.3302 17.9406 33.1582V30.3625C17.9401 30.1906 17.8755 30.026 17.7608 29.9044C17.6461 29.7829 17.4907 29.7144 17.3285 29.7139Z" fill="black"/>
</svg>
