<svg width="214" height="214" viewBox="0 0 214 214" fill="none" xmlns="http://www.w3.org/2000/svg">
<path d="M106.667 0C47.7867 0 0 47.7867 0 106.667C0 165.547 47.7867 213.333 106.667 213.333C165.547 213.333 213.333 165.547 213.333 106.667C213.333 47.7867 165.547 0 106.667 0ZM21.3333 106.667C21.3333 59.52 59.52 21.3333 106.667 21.3333C126.4 21.3333 144.533 28.0533 158.933 39.36L39.36 158.933C28.0533 144.533 21.3333 126.4 21.3333 106.667ZM106.667 192C86.9333 192 68.8 185.28 54.4 173.973L173.973 54.4C185.28 68.8 192 86.9333 192 106.667C192 153.813 153.813 192 106.667 192Z" fill="#9FA3A6"/>
</svg>
