<svg width="30" height="30" viewBox="0 0 30 30" fill="none" xmlns="http://www.w3.org/2000/svg">
<g clip-path="url(#clip0)">
<path d="M20.5447 9.86233C19.5249 9.39042 18.4313 9.04274 17.2879 8.84361C17.2671 8.83977 17.2463 8.84937 17.2356 8.86858C17.0949 9.12085 16.9392 9.44997 16.8301 9.70865C15.6003 9.52297 14.3768 9.52297 13.1722 9.70865C13.0631 9.44422 12.9017 9.12085 12.7604 8.86858C12.7497 8.85001 12.7289 8.84041 12.708 8.84361C11.5653 9.0421 10.4717 9.38979 9.45129 9.86233C9.44246 9.86617 9.43488 9.87258 9.42986 9.8809C7.35559 13.0062 6.78737 16.0547 7.06612 19.0654C7.06738 19.0801 7.07558 19.0942 7.08693 19.1032C8.45547 20.1168 9.78114 20.7321 11.0822 21.14C11.103 21.1464 11.1251 21.1387 11.1383 21.1214C11.4461 20.6976 11.7204 20.2506 11.9557 19.7806C11.9695 19.7531 11.9563 19.7204 11.9279 19.7096C11.4928 19.5431 11.0784 19.3401 10.6798 19.1096C10.6483 19.091 10.6458 19.0456 10.6748 19.0238C10.7586 18.9604 10.8425 18.8944 10.9226 18.8279C10.9371 18.8157 10.9573 18.8131 10.9744 18.8208C13.5929 20.0265 16.4277 20.0265 19.0153 18.8208C19.0323 18.8125 19.0525 18.8151 19.0677 18.8272C19.1478 18.8938 19.2316 18.9604 19.3161 19.0238C19.3451 19.0456 19.3433 19.091 19.3117 19.1096C18.9131 19.3446 18.4988 19.5431 18.063 19.7089C18.0346 19.7198 18.022 19.7531 18.0359 19.7806C18.2762 20.25 18.5505 20.6969 18.8526 21.1208C18.8652 21.1387 18.8879 21.1464 18.9087 21.14C20.2161 20.7321 21.5417 20.1168 22.9103 19.1032C22.9223 19.0942 22.9298 19.0808 22.9311 19.0661C23.2647 15.5854 22.3723 12.5619 20.5655 9.88154C20.5611 9.87258 20.5535 9.86617 20.5447 9.86233ZM12.3467 17.2322C11.5583 17.2322 10.9088 16.5023 10.9088 15.6059C10.9088 14.7094 11.5457 13.9795 12.3467 13.9795C13.1539 13.9795 13.7972 14.7158 13.7846 15.6059C13.7846 16.5023 13.1476 17.2322 12.3467 17.2322ZM17.6632 17.2322C16.8748 17.2322 16.2253 16.5023 16.2253 15.6059C16.2253 14.7094 16.8622 13.9795 17.6632 13.9795C18.4704 13.9795 19.1137 14.7158 19.1011 15.6059C19.1011 16.5023 18.4704 17.2322 17.6632 17.2322Z" fill="white"/>
</g>
<rect x="0.5" y="0.5" width="29" height="29" stroke="white" stroke-opacity="0.2"/>
<defs>
<clipPath id="clip0">
<rect width="16" height="12.5" fill="white" transform="translate(7 8.75)"/>
</clipPath>
</defs>
</svg>
