<svg xmlns="http://www.w3.org/2000/svg" width="30" height="30" viewBox="0 0 30 30">
  <defs>
    <style>
    .b {
      fill: #fff;
    }</style>
  </defs>
  <path class="b" d="M3,17.5H13V15H3Zm0,5H13V20H3Zm0-10H13V10H3ZM3,5V7.5H13V5ZM15.5,5h10V22.5h-10Z"
        transform="translate(0.75 1.25)"/>
</svg>
