<svg width="33" height="32" viewBox="0 0 33 32" fill="none" xmlns="http://www.w3.org/2000/svg">
<path d="M22.4999 17.3346C20.8999 17.3346 18.4066 17.788 16.4999 18.668C14.5933 17.7746 12.0999 17.3346 10.4999 17.3346C7.60659 17.3346 1.83325 18.7746 1.83325 21.668V25.3346H31.1666V21.668C31.1666 18.7746 25.3933 17.3346 22.4999 17.3346ZM17.1666 23.3346H3.83325V21.668C3.83325 20.948 7.24658 19.3346 10.4999 19.3346C13.7533 19.3346 17.1666 20.948 17.1666 21.668V23.3346ZM29.1666 23.3346H19.1666V21.668C19.1666 21.0546 18.8999 20.5213 18.4732 20.0413C19.6466 19.6413 21.0866 19.3346 22.4999 19.3346C25.7533 19.3346 29.1666 20.948 29.1666 21.668V23.3346ZM10.4999 16.0013C13.0733 16.0013 15.1666 13.908 15.1666 11.3346C15.1666 8.7613 13.0733 6.66797 10.4999 6.66797C7.92659 6.66797 5.83325 8.7613 5.83325 11.3346C5.83325 13.908 7.92659 16.0013 10.4999 16.0013ZM10.4999 8.66797C11.9666 8.66797 13.1666 9.86797 13.1666 11.3346C13.1666 12.8013 11.9666 14.0013 10.4999 14.0013C9.03325 14.0013 7.83325 12.8013 7.83325 11.3346C7.83325 9.86797 9.03325 8.66797 10.4999 8.66797ZM22.4999 16.0013C25.0732 16.0013 27.1666 13.908 27.1666 11.3346C27.1666 8.7613 25.0732 6.66797 22.4999 6.66797C19.9266 6.66797 17.8333 8.7613 17.8333 11.3346C17.8333 13.908 19.9266 16.0013 22.4999 16.0013ZM22.4999 8.66797C23.9666 8.66797 25.1666 9.86797 25.1666 11.3346C25.1666 12.8013 23.9666 14.0013 22.4999 14.0013C21.0333 14.0013 19.8333 12.8013 19.8333 11.3346C19.8333 9.86797 21.0333 8.66797 22.4999 8.66797Z" fill="var(--tolopea-medium-color)"/>
</svg>
