<svg xmlns="http://www.w3.org/2000/svg" width="16.229" height="20.002" viewBox="0 0 16.229 20.002">
  <g id="place" transform="translate(21.115 -2)">
    <path id="Union_3" data-name="Union 3" d="M18649.465,15080.756l-5.887-6.9a6.341,6.341,0,0,1-1.18-1.934,8.107,8.107,0,1,1,15.2,0,6.474,6.474,0,0,1-1.18,1.932l-5.887,6.9a.7.7,0,0,1-1.07,0Zm-4.969-15.482a6.67,6.67,0,0,0-.785,6.156,5.063,5.063,0,0,0,.93,1.516l5.359,6.279,5.355-6.275s0,0,0,0a5.015,5.015,0,0,0,.926-1.51,6.7,6.7,0,0,0-11.789-6.162Zm1.578,3.793a3.928,3.928,0,1,1,3.926,3.916A3.925,3.925,0,0,1,18646.074,15069.066Zm1.4,0a2.523,2.523,0,1,0,2.523-2.518A2.524,2.524,0,0,0,18647.477,15069.066Z" transform="translate(-18663 -15059)" fill="#ff6a3a"/>
  </g>
</svg>
