<svg viewBox="0 0 56 56" fill="none" xmlns="http://www.w3.org/2000/svg">
<rect width="56" height="56" rx="4" fill="url(#paint0_radial)"/>
<path d="M38.5372 14.4516H17.4619C15.806 14.4516 14.4512 15.8064 14.4512 17.4624V38.5376C14.4512 40.1935 15.806 41.5484 17.4619 41.5484H38.5372C40.1931 41.5484 41.5479 40.1935 41.5479 38.5376V17.4624C41.5479 15.8064 40.1931 14.4516 38.5372 14.4516ZM23.4834 35.5269H20.4727V24.9892H23.4834V35.5269ZM29.5049 35.5269H26.4942V20.4731H29.5049V35.5269ZM35.5264 35.5269H32.5157V29.5054H35.5264V35.5269Z" fill="white"/>
<defs>
<radialGradient id="paint0_radial" cx="0" cy="0" r="1" gradientUnits="userSpaceOnUse" gradientTransform="rotate(65.3835) scale(51.3792 56.4254)">
<stop stop-color="#736DFF"/>
<stop offset="1" stop-color="#736DFF" stop-opacity="0.24"/>
</radialGradient>
</defs>
</svg>
