<svg xmlns="http://www.w3.org/2000/svg" width="22" height="19" viewBox="0 0 22 19">
  <g id="Component_9_1" data-name="Component 9 – 1" transform="translate(1 1)">
    <line id="Line_441" data-name="Line 441" x2="11" transform="translate(9 6)" fill="none" stroke="#1d252d" stroke-linecap="round" stroke-width="2"/>
    <line id="Line_446" data-name="Line 446" x2="4" fill="none" stroke="#1d252d" stroke-linecap="round" stroke-width="2"/>
    <line id="Line_447" data-name="Line 447" x2="11" transform="translate(9 17)" fill="none" stroke="#1d252d" stroke-linecap="round" stroke-width="2"/>
  </g>
</svg>
