<svg width="73" height="32" viewBox="0 0 73 32" fill="none" xmlns="http://www.w3.org/2000/svg">
<g clip-path="url(#clip0_416_1098)">
<path d="M42.9661 0H41.2018V9.15474L39.1531 7.60241C38.9605 7.45661 38.8044 7.26909 38.697 7.05433C38.5896 6.83957 38.5337 6.60333 38.5336 6.36387V0H36.8103V26.8913H38.5264V9.24032L40.5751 10.7927C40.7677 10.9385 40.9238 11.126 41.0312 11.3407C41.1386 11.5555 41.1945 11.7917 41.1946 12.0312V26.8913H42.9589L42.9661 0Z" fill="#F13030"/>
<path d="M23.9926 -1.28418e-05H21.0208V26.8913H23.9926C26.0044 26.8913 27.0102 25.8223 27.0102 23.6844V3.22828C27.0102 2.22033 26.7628 1.42791 26.2679 0.851038C25.773 0.274162 25.0145 -0.00952179 23.9926 -1.28418e-05ZM25.2459 23.6844C25.2459 24.6781 24.8282 25.1749 23.9926 25.1749H22.7875V1.76152H23.9926C24.1693 1.74894 24.3466 1.7777 24.5099 1.84544C24.6733 1.91319 24.8181 2.01801 24.9326 2.15139C25.1606 2.47259 25.2711 2.86073 25.2459 3.25205V23.6844Z" fill="#F13030"/>
<path d="M59.2377 1.76391H61.3732V26.8913H63.1158V1.76391H65.2513V0H59.2377V1.76391Z" fill="#F13030"/>
<path d="M33.1805 14.4679L31.4403 13.1509C31.2475 13.0047 31.0913 12.8168 30.9839 12.6016C30.8765 12.3864 30.8207 12.1498 30.8208 11.91V0H29.0565V11.8862C29.0571 12.3873 29.1741 12.8816 29.3984 13.3312C29.6228 13.7807 29.9486 14.1737 30.3508 14.4798L32.561 16.1438C32.7536 16.2896 32.9097 16.4771 33.0171 16.6919C33.1245 16.9067 33.1804 17.1429 33.1805 17.3824V24.671C33.1805 24.7971 33.1297 24.918 33.0393 25.0072C32.9489 25.0963 32.8263 25.1464 32.6984 25.1464H31.2981C31.1702 25.1464 31.0476 25.0963 30.9572 25.0072C30.8668 24.918 30.816 24.7971 30.816 24.671V18.9894H29.0517V24.7518C29.0517 25.3192 29.2802 25.8634 29.6871 26.2647C30.0939 26.6659 30.6456 26.8913 31.2209 26.8913H32.7852C33.3605 26.8913 33.9122 26.6659 34.3191 26.2647C34.7259 25.8634 34.9544 25.3192 34.9544 24.7518V0H33.1901L33.1805 14.4679Z" fill="#F13030"/>
<path d="M70.5539 0V14.4679L68.8089 13.1509C68.6161 13.0047 68.46 12.8168 68.3526 12.6016C68.2452 12.3864 68.1894 12.1498 68.1895 11.91V0H66.4252V11.8862C66.4252 12.3874 66.5419 12.8819 66.7663 13.3315C66.9907 13.7812 67.3168 14.174 67.7195 14.4798L69.9273 16.1438C70.1225 16.2894 70.2807 16.4776 70.3894 16.6938C70.4982 16.91 70.5545 17.1482 70.5539 17.3895V24.6781C70.5539 24.7405 70.5415 24.8024 70.5172 24.8601C70.493 24.9177 70.4575 24.9701 70.4128 25.0143C70.368 25.0584 70.3149 25.0935 70.2564 25.1174C70.1979 25.1413 70.1352 25.1536 70.0719 25.1536H68.6739C68.5461 25.1536 68.4235 25.1035 68.3331 25.0143C68.2427 24.9251 68.1919 24.8042 68.1919 24.6781V18.9965H66.4276V24.7589C66.4276 25.3264 66.6561 25.8706 67.0629 26.2718C67.4697 26.673 68.0215 26.8984 68.5968 26.8984H70.1635C70.7388 26.8984 71.2905 26.673 71.6974 26.2718C72.1042 25.8706 72.3327 25.3264 72.3327 24.7589V0H70.5539Z" fill="#F13030"/>
<path d="M48.5579 0H44.569V26.8913H46.2875V10.089H48.9556V26.8913H50.7199V2.13238C50.718 1.56742 50.4896 1.02613 50.0846 0.626637C49.6796 0.227145 49.1308 0.0018801 48.5579 0ZM48.9556 3.74415V8.38214H46.2875V1.70448H48.4736C48.6014 1.70448 48.724 1.75457 48.8144 1.84373C48.9048 1.9329 48.9556 2.05383 48.9556 2.17993V3.74415Z" fill="#F13030"/>
<path d="M56.2322 0H54.6679C54.0926 0 53.5409 0.225412 53.134 0.626649C52.7272 1.02789 52.4987 1.57208 52.4987 2.13951V11.8862C52.4992 12.3875 52.6164 12.8821 52.8412 13.3317C53.066 13.7814 53.3925 14.1741 53.7954 14.4798L56.0032 16.1438C56.1958 16.2896 56.3518 16.4771 56.4593 16.6919C56.5667 16.9067 56.6226 17.1429 56.6226 17.3824V24.671C56.6226 24.7971 56.5718 24.918 56.4814 25.0072C56.391 25.0963 56.2684 25.1464 56.1406 25.1464H54.7426C54.6148 25.1464 54.4922 25.0963 54.4018 25.0072C54.3114 24.918 54.2606 24.7971 54.2606 24.671V18.9894H52.4963V24.7518C52.4963 25.3192 52.7248 25.8634 53.1316 26.2647C53.5384 26.6659 54.0902 26.8913 54.6655 26.8913H56.2298C56.8051 26.8913 57.3568 26.6659 57.7636 26.2647C58.1705 25.8634 58.399 25.3192 58.399 24.7518V17.4156C58.4002 16.9127 58.2836 16.4163 58.0583 15.9652C57.8329 15.5141 57.5049 15.1204 57.0999 14.8149L54.8873 13.1509C54.6945 13.0047 54.5383 12.8168 54.4309 12.6016C54.3235 12.3864 54.2677 12.1498 54.2678 11.91V2.21559C54.2678 2.08949 54.3186 1.96856 54.409 1.87939C54.4994 1.79023 54.622 1.74014 54.7499 1.74014H56.1478C56.2757 1.74014 56.3983 1.79023 56.4887 1.87939C56.5791 1.96856 56.6299 2.08949 56.6299 2.21559V8.96932H58.3942V2.13238C58.3923 1.56742 58.1639 1.02613 57.7588 0.626637C57.3538 0.227145 56.805 0.0018801 56.2322 0Z" fill="#F13030"/>
<path d="M14.3564 0V1.07451C14.3567 1.32656 14.302 1.57572 14.1959 1.80503C14.0899 2.03435 13.935 2.23843 13.7418 2.40339L8.45606 6.93678L3.18965 2.39626C2.99887 2.23038 2.8462 2.02623 2.74187 1.79747C2.63754 1.5687 2.58395 1.3206 2.58468 1.06976V0H0.584168V23.6939C0.583982 24.2371 0.70402 24.7738 0.935899 25.2666C1.16778 25.7593 1.50591 26.1961 1.92668 26.5466L8.47293 32L15.0192 26.5466C15.44 26.1961 15.7781 25.7593 16.01 25.2666C16.2418 24.7738 16.3619 24.2371 16.3617 23.6939V0H14.3564ZM2.58468 4.4906L6.92314 8.24426L2.58468 11.9765V4.4906ZM13.7225 25.0371L8.46811 29.4136L5.42637 26.8818L14.3564 19.2247V23.6939C14.3559 23.9498 14.299 24.2025 14.1895 24.4344C14.0801 24.6664 13.9207 24.872 13.7225 25.0371ZM13.7418 17.1328L3.87899 25.5933L3.21376 25.0371C3.01642 24.8716 2.85794 24.6657 2.74932 24.4338C2.64069 24.2019 2.58451 23.9494 2.58468 23.6939V22.6765C2.58496 22.4245 2.63996 22.1756 2.74598 21.9463C2.85199 21.7171 3.00657 21.513 3.19929 21.3476L14.3564 11.7768V15.8181C14.3547 16.0681 14.299 16.3149 14.193 16.542C14.087 16.7691 13.9332 16.9713 13.7418 17.1351V17.1328ZM13.7418 9.68487L2.58468 19.258V15.3926C2.58468 15.141 2.63956 14.8923 2.74561 14.6634C2.85166 14.4345 3.00639 14.2308 3.19929 14.0661L14.3564 4.49298V8.35837C14.3561 8.61031 14.3011 8.85928 14.1951 9.0885C14.0891 9.31772 13.9345 9.52188 13.7418 9.68724V9.68487Z" fill="#F13030"/>
</g>
<defs>
<clipPath id="clip0_416_1098">
<rect width="73" height="32" fill="white"/>
</clipPath>
</defs>
</svg>
