<svg width="13" height="13" viewBox="0 0 13 13" fill="none" xmlns="http://www.w3.org/2000/svg">
<path d="M0 9.50167V12.0017H2.5L9.87333 4.62833L7.37333 2.12833L0 9.50167ZM11.8067 2.695C12.0667 2.435 12.0667 2.015 11.8067 1.755L10.2467 0.195C9.98667 -0.065 9.56667 -0.065 9.30667 0.195L8.08667 1.415L10.5867 3.915L11.8067 2.695V2.695Z" fill="white" fill-opacity="0.87"/>
</svg>
