<svg width="23" height="26" viewBox="0 0 23 26" fill="none" xmlns="http://www.w3.org/2000/svg">
<path fill-rule="evenodd" clip-rule="evenodd" d="M11.5 0C7.63401 0 4.5 3.13401 4.5 7C4.5 10.866 7.63401 14 11.5 14C15.366 14 18.5 10.866 18.5 7C18.5 3.13401 15.366 0 11.5 0ZM6.5 7C6.5 4.23858 8.73858 2 11.5 2C14.2614 2 16.5 4.23858 16.5 7C16.5 9.76142 14.2614 12 11.5 12C8.73858 12 6.5 9.76142 6.5 7Z" fill="#A3A1A7"/>
<path fill-rule="evenodd" clip-rule="evenodd" d="M7.5 17C3.63401 17 0.5 20.134 0.5 24V26H22.5V24C22.5 20.134 19.366 17 15.5 17H7.5ZM2.5 24C2.5 21.2386 4.73858 19 7.5 19H15.5C18.2614 19 20.5 21.2386 20.5 24H2.5Z" fill="#A3A1A7"/>
</svg>
