<svg width="18" height="28" viewBox="0 0 18 28" fill="none" xmlns="http://www.w3.org/2000/svg">
<path fill-rule="evenodd" clip-rule="evenodd" d="M3.16665 22.9091H14.8333V5.09091H3.16665V22.9091ZM3.16665 0H14.8333C15.4522 0 16.0456 0.268181 16.4832 0.745546C16.9208 1.22291 17.1666 1.87036 17.1666 2.54545V25.4545C17.1666 26.1296 16.9208 26.7771 16.4832 27.2545C16.0456 27.7318 15.4522 28 14.8333 28H3.16665C2.54781 28 1.95432 27.7318 1.51673 27.2545C1.07915 26.7771 0.833313 26.1296 0.833313 25.4545V2.54545C0.833313 1.13273 1.87165 0 3.16665 0ZM6.89998 16.3333H5.49998C5.49998 17.7256 6.52898 18.9078 7.94998 19.3044V21H10.05V19.3044C11.471 18.9078 12.5 17.7256 12.5 16.3333C12.5 14.1711 10.652 13.6578 9.16798 13.2456C7.62798 12.8333 6.89998 12.5222 6.89998 11.6667C6.89998 10.8267 7.85898 10.1111 8.99998 10.1111C10.141 10.1111 11.1 10.8267 11.1 11.6667H12.5C12.5 10.2744 11.471 9.09222 10.05 8.69556V7H7.94998V8.69556C6.52898 9.09222 5.49998 10.2744 5.49998 11.6667C5.49998 13.8289 7.34798 14.3422 8.83198 14.7544C10.372 15.1667 11.1 15.4778 11.1 16.3333C11.1 17.1733 10.141 17.8889 8.99998 17.8889C7.85898 17.8889 6.89998 17.1733 6.89998 16.3333Z" fill="black"/>
</svg>
