<svg viewBox="0 0 41 37" fill="none" xmlns="http://www.w3.org/2000/svg">
<path d="M14.8242 34.5469C12.2658 27.7795 8.43685 21.5531 3.53959 16.1967L2.85256 16.8871C5.19526 18.6839 7.83246 20.0683 10.6489 20.9799C12.866 21.6801 15.5245 22.2554 17.5823 20.7991C19.5438 19.3953 20.42 16.749 20.9013 14.4906C21.4356 12.0086 21.5651 9.06309 20.7685 6.60084C20.1645 4.77306 18.3689 3.99066 17.018 5.63435C15.5046 7.472 15.8265 10.378 16.2215 12.5379C16.6596 14.9705 17.6387 18.2875 19.9056 19.6386C22.0131 20.8911 24.8077 20.3224 26.8755 19.2671C32.4547 16.4137 34.1773 9.92439 33.5632 4.14517C33.5301 3.81643 32.8065 4.3983 32.8032 4.64485C32.6704 11.7555 32.6771 19.4381 37.015 25.4901C37.1942 25.74 37.9111 25.0924 37.702 24.7998C33.4272 18.8463 33.4404 11.2295 33.5732 4.22078L32.8098 4.72046C33.2645 9.12556 32.4779 14.0007 29.0428 17.1336C27.3003 18.7214 24.8476 19.8096 22.438 19.517C20.1147 19.2375 18.89 17.5018 18.0403 15.5064C17.1556 13.4463 16.7039 11.2294 16.7127 8.99077C16.7127 8.04072 16.8156 5.14453 18.5348 5.4667C19.5737 5.66394 19.9753 6.9263 20.1711 7.80731C20.594 9.77484 20.6525 11.8021 20.3437 13.7904C20.0118 15.8811 19.348 18.8069 17.5756 20.1744C15.5046 21.782 12.2354 20.6314 10.0647 19.8194C7.72525 18.938 5.52988 17.7195 3.54955 16.2033C3.27739 15.9929 2.64678 16.6339 2.86252 16.8871C7.72848 22.2093 11.5317 28.3969 14.0708 35.1222C14.2002 35.4509 14.9403 34.8526 14.8242 34.5469Z" fill="#BBF55A"/>
<path d="M13.9976 35.0729C15.146 34.5174 16.6296 34.4648 17.8808 34.2314C19.0314 34.0122 20.1809 33.781 21.3293 33.5377C23.3428 33.0994 25.3486 32.6205 27.3466 32.1011C29.1986 31.6146 31.0772 31.184 32.5342 29.8986C34.1738 28.4423 35.5943 26.6671 37.0779 25.0629C37.4696 24.6388 37.131 24.2903 36.746 24.7341C35.2425 26.3778 33.7987 28.3075 32.0629 29.6915C30.4034 31.0064 27.8113 31.3615 25.7834 31.8645C23.688 32.3839 21.5859 32.8518 19.4773 33.2682C17.7215 33.5969 15.6903 33.6758 14.0673 34.4582C13.7354 34.616 13.45 35.3754 14.0242 35.0992L13.9976 35.0729Z" fill="#BBF55A"/>
<path d="M14.5525 36.9905C23.8972 37.1847 33.0629 34.436 40.7294 29.1403C41.1111 28.8773 41.1144 28.2592 40.5767 28.6307C33.0665 33.7795 24.1019 36.4381 14.9707 36.2246C14.662 36.2246 14.1044 36.9807 14.5525 36.9905Z" fill="#BBF55A"/>
<path d="M1.20334 13.0054V12.9758L0.964372 13.7056L1.62817 13.4525C1.75468 13.4075 1.86729 13.3309 1.9551 13.2301C2.04291 13.1293 2.10293 13.0077 2.12934 12.8772C2.13312 12.7729 2.11438 12.669 2.07438 12.5725C2.03437 12.476 1.97402 12.389 1.89736 12.3174C1.8207 12.2459 1.72949 12.1913 1.62984 12.1575C1.53018 12.1236 1.42438 12.1112 1.3195 12.1211C1.05846 12.1363 0.807264 12.2252 0.595553 12.3772C0.383843 12.5293 0.220454 12.7381 0.124666 12.9791C0.0250106 13.2159 -0.0158471 13.473 0.0055206 13.7286C0.0268883 13.9843 0.109858 14.2312 0.247469 14.4486C0.579368 14.9811 1.06062 15.0304 1.55515 14.6787C1.78258 14.5225 1.96981 14.3156 2.10182 14.0746C2.23382 13.8337 2.30691 13.5654 2.3152 13.2914C2.33425 13.0633 2.27519 12.8354 2.14755 12.6446C2.0199 12.4537 1.8311 12.311 1.61158 12.2394C0.881397 12.0882 -0.379822 13.275 0.333762 13.9292C1.22325 14.7773 2.7168 12.7391 1.42571 12.3118C1.20002 12.2362 0.901311 12.5517 0.818336 12.7161C0.672822 12.9721 0.607726 13.2652 0.631376 13.558C0.655026 13.8509 0.766348 14.13 0.951096 14.3598C1.00088 14.419 1.11705 14.396 1.17679 14.3795C1.62817 14.2448 2.15257 13.5906 1.80076 13.1303C1.39584 12.6043 0.642429 13.2552 0.43997 13.6497C0.372284 13.7715 0.33487 13.9074 0.330829 14.0464C0.326789 14.1853 0.356239 14.3232 0.416737 14.4486C0.532902 14.6787 0.808379 14.9811 1.08054 14.9154C1.61821 14.7905 2.10279 14.0146 1.70451 13.5478C1.49541 13.3013 0.791784 13.9686 1.0208 14.2382C1.08054 14.396 1.18011 14.3795 1.3195 14.1889L1.54188 14.2086C1.4405 14.153 1.34772 14.0832 1.2664 14.0015C1.19338 13.9226 1.16019 13.7484 1.09713 13.699C1.09713 13.6103 1.09713 13.6037 1.04735 13.676C0.997562 13.7484 1.0042 13.7549 1.08054 13.7812L1.12037 13.8667C1.12037 14.0837 1.20666 14.0113 1.4058 13.6464L1.62817 13.6662C1.50536 13.531 1.42367 13.3643 1.39254 13.1851C1.36142 13.0059 1.38212 12.8217 1.45226 12.6537L0.854845 13.0679C0.914823 13.0846 0.970183 13.1146 1.01675 13.1556C1.06332 13.1966 1.09989 13.2475 1.12368 13.3046C1.14752 13.3596 1.15993 13.4189 1.16019 13.4788C1.33278 13.3736 1.35933 13.3243 1.24649 13.3341C1.21662 13.2848 1.00752 13.2717 0.947777 13.1731C0.927863 13.1336 0.884716 13.0186 0.907949 12.9857C0.878078 13.0251 0.907949 13.012 0.957734 12.9857C1.01878 12.9793 1.0805 12.9869 1.13807 13.008C1.19565 13.0291 1.24752 13.0631 1.28963 13.1073C1.37919 13.1911 1.44885 13.2936 1.49362 13.4073C1.53839 13.5209 1.55714 13.6431 1.54852 13.7648C1.54852 14.0081 1.46886 14.2809 1.17679 14.0607C0.974685 13.872 0.838643 13.6244 0.788465 13.3539C0.775217 13.2095 0.775217 13.0643 0.788465 12.9199C0.831612 12.818 0.828293 12.8082 0.788465 12.8936H0.874759C1.09381 12.989 1.3892 12.9791 1.37261 13.3078L1.85054 12.726L1.18675 12.9758C1.07674 13.018 0.977315 13.0833 0.895359 13.1673C0.813403 13.2513 0.750881 13.352 0.712128 13.4624C0.655705 13.6563 0.761913 13.7549 0.957734 13.7023C1.15034 13.6424 1.32872 13.5446 1.48215 13.4147C1.63558 13.2847 1.76089 13.1254 1.85054 12.9462C1.9302 12.795 1.9468 12.6175 1.73438 12.5912C1.52196 12.5649 1.28631 12.841 1.20334 13.0021V13.0054Z" fill="#BBF55A"/>
<path d="M35.36 0.161142C35.0015 -0.167597 34.4804 0.364959 34.3244 0.670686C34.2688 0.76456 34.2336 0.868888 34.2211 0.977003C34.2085 1.08512 34.2188 1.19464 34.2514 1.29858C34.3477 1.56157 34.6331 1.74895 34.6198 2.05139C34.5966 2.50176 35.2538 1.94619 35.3268 1.81141C35.6188 1.26899 35.8147 0.368247 35.0845 0.0592328C34.4472 -0.210333 33.7768 0.496455 33.6208 1.04545C33.5528 1.30296 33.5703 1.57531 33.6707 1.8222C33.7712 2.06908 33.9492 2.27739 34.1784 2.41629C34.726 2.71544 35.3367 2.41629 35.6885 1.95605C36.0404 1.49582 36.2196 0.831768 35.8313 0.371534C35.4429 -0.0886995 34.8356 0.0986814 34.4306 0.401121C34.0257 0.70356 33.6274 1.25584 33.7868 1.77196C34.0158 2.50833 34.9152 2.42944 35.35 1.94948C35.472 1.82954 35.5652 1.68393 35.6227 1.52345C35.6802 1.36296 35.7004 1.19173 35.6819 1.02244C35.6708 0.852998 35.6138 0.689658 35.5168 0.549641C35.4199 0.409624 35.2866 0.29812 35.1309 0.226889C34.799 0.128268 34.4174 0.437282 34.278 0.719997C34.1386 1.00271 34.1751 1.35446 34.5335 1.32159C34.6481 1.29838 34.7556 1.2492 34.8478 1.17791C34.9399 1.10661 35.0141 1.01514 35.0646 0.910665C35.1309 0.782457 35.1774 0.535903 34.9517 0.555628V0.614801L34.7028 0.897516L34.7559 0.864642L34.4705 0.99285C34.6364 0.959976 34.7592 1.12435 34.8289 1.25913C34.871 1.33848 34.9001 1.42391 34.9152 1.51226C34.9351 1.6306 34.8522 1.72594 34.9982 1.62731C35.1442 1.52869 34.9683 1.56485 34.8787 1.53198C34.7926 1.5013 34.7152 1.45056 34.653 1.38405C34.6036 1.3361 34.5668 1.27682 34.546 1.21146C34.5251 1.1461 34.5209 1.07667 34.5335 1.00929C34.5767 0.887653 34.6729 0.85478 34.809 0.864642C34.9448 0.890508 35.0668 0.963798 35.1526 1.07118C35.2385 1.17857 35.2827 1.31292 35.277 1.4498C35.2885 1.56427 35.2629 1.6794 35.204 1.77853C35.2537 1.72265 35.204 1.77853 35.1675 1.77853C35.106 1.78994 35.043 1.78994 34.9816 1.77853C34.8506 1.7392 34.7306 1.67036 34.631 1.57739C34.5314 1.48442 34.4548 1.36986 34.4074 1.24269C34.3608 1.12441 34.3382 0.998165 34.341 0.871216C34.341 0.815331 34.3809 0.743008 34.341 0.756158C34.3012 0.769308 34.4638 0.805469 34.497 0.821906C34.9119 1.0323 34.8289 1.53527 34.663 1.87387L35.3865 1.62731C35.3977 1.42968 35.3416 1.23406 35.2272 1.07175C35.1675 0.976413 35.0944 0.887653 35.0413 0.785745C35.0145 0.746932 34.9954 0.703425 34.9849 0.657537C35.0081 0.47673 34.9053 0.545766 34.6729 0.867929C34.9185 1.10133 35.6056 0.41427 35.36 0.177579V0.161142Z" fill="#BBF55A"/>
</svg>
