<svg width="32" height="32" viewBox="0 0 32 32" fill="none" xmlns="http://www.w3.org/2000/svg">
<path d="M20.2885 21.7022C20.4834 21.8971 20.7393 21.9951 20.9953 21.9951C21.2512 21.9951 21.5072 21.8971 21.7021 21.7022C22.093 21.3113 22.093 20.6794 21.7021 20.2885L16.9963 15.5827V6.99882C16.9963 6.44696 16.5484 5.99907 15.9965 5.99907C15.4447 5.99907 14.9968 6.44696 14.9968 6.99882V15.9966C14.9968 16.1266 15.0238 16.2565 15.0738 16.3785C15.1247 16.5015 18.197 19.6107 18.289 19.7027L20.2885 21.7022Z" fill="#A3A1A7"/>
<path d="M6.99876 16.9963C7.55091 16.9963 7.99851 16.5487 7.99851 15.9966C7.99851 15.4444 7.55091 14.9968 6.99876 14.9968C6.44661 14.9968 5.99901 15.4444 5.99901 15.9966C5.99901 16.5487 6.44661 16.9963 6.99876 16.9963Z" fill="#A3A1A7"/>
<path d="M25.994 15.9966C25.994 16.5487 25.5464 16.9963 24.9943 16.9963C24.4421 16.9963 23.9945 16.5487 23.9945 15.9966C23.9945 15.4444 24.4421 14.9968 24.9943 14.9968C25.5464 14.9968 25.994 15.4444 25.994 15.9966Z" fill="#A3A1A7"/>
<path d="M15.9965 25.9941C16.5487 25.9941 16.9963 25.5465 16.9963 24.9944C16.9963 24.4422 16.5487 23.9946 15.9965 23.9946C15.4444 23.9946 14.9968 24.4422 14.9968 24.9944C14.9968 25.5465 15.4444 25.9941 15.9965 25.9941Z" fill="#A3A1A7"/>
<path fill-rule="evenodd" clip-rule="evenodd" d="M19.6226 29.5162C27.0892 27.5155 31.5203 19.8407 29.5196 12.374C27.5189 4.90734 19.8441 0.476287 12.3774 2.47698C4.91076 4.47766 0.479705 12.1525 2.48039 19.6192C4.48108 27.0858 12.1559 31.5169 19.6226 29.5162ZM19.1051 27.5848C25.5051 25.8699 29.3031 19.2915 27.5882 12.8915C25.8734 6.49152 19.2949 2.69347 12.8949 4.40835C6.49494 6.12322 2.69689 12.7016 4.41177 19.1016C6.12664 25.5016 12.7051 29.2997 19.1051 27.5848Z" fill="#A3A1A7"/>
</svg>
