<svg xmlns="http://www.w3.org/2000/svg" width="70.169" height="46.229" viewBox="0 0 70.169 46.229">
  <g id="Group_21" data-name="Group 21" opacity="0.6">
    <g id="check_circle-black-18dp_1_" data-name="check_circle-black-18dp (1)" transform="translate(44.079 16.126)">
      <path id="Path_249" data-name="Path 249" d="M0,0H26.09V26.09H0Z" fill="none"/>
      <path id="Path_250" data-name="Path 250" d="M12.871,2A10.871,10.871,0,1,0,23.742,12.871,10.875,10.875,0,0,0,12.871,2ZM10.7,18.306,5.261,12.871l1.533-1.533,3.9,3.892,8.251-8.251L20.48,8.522Z" transform="translate(0.174 0.174)" fill="#fff"/>
    </g>
    <g id="pages-black-18dp" transform="translate(0)">
      <path id="Path_258" data-name="Path 258" d="M0,0H46.229V46.229H0Z" fill="none"/>
      <path id="Path_259" data-name="Path 259" d="M3,6.912V18.649h9.78l-1.956-7.824,7.824,1.956V3H6.912A3.924,3.924,0,0,0,3,6.912Zm9.78,15.649H3V34.3a3.924,3.924,0,0,0,3.912,3.912H18.649v-9.78l-7.824,1.956Zm17.6,7.824-7.824-1.956v9.78H34.3A3.924,3.924,0,0,0,38.209,34.3V22.561h-9.78ZM34.3,3H22.561v9.78l7.824-1.956-1.956,7.824h9.78V6.912A3.924,3.924,0,0,0,34.3,3Z" transform="translate(2.51 2.51)" fill="#fff"/>
    </g>
  </g>
</svg>
