<svg width="33" height="33" viewBox="0 0 33 33" fill="none" xmlns="http://www.w3.org/2000/svg">
<path d="M21.7873 23.4855C22.0101 23.7083 22.3026 23.8203 22.5951 23.8203C22.8876 23.8203 23.1801 23.7083 23.4029 23.4855C23.8497 23.0388 23.8497 22.3167 23.4029 21.8699L18.0248 16.4918V6.68169C18.0248 6.05099 17.513 5.53911 16.8823 5.53911C16.2516 5.53911 15.7397 6.05099 15.7397 6.68169V16.9648C15.7397 17.1134 15.7705 17.2619 15.8277 17.4013C15.8859 17.5418 19.3971 21.0953 19.5022 21.2004L21.7873 23.4855Z" fill="#F12BA3"/>
<path d="M6.5991 18.1074C7.23012 18.1074 7.74167 17.5959 7.74167 16.9648C7.74167 16.3338 7.23012 15.8223 6.5991 15.8223C5.96807 15.8223 5.45652 16.3338 5.45652 16.9648C5.45652 17.5959 5.96807 18.1074 6.5991 18.1074Z" fill="#F12BA3"/>
<path d="M28.308 16.9648C28.308 17.5959 27.7964 18.1074 27.1654 18.1074C26.5344 18.1074 26.0229 17.5959 26.0229 16.9648C26.0229 16.3338 26.5344 15.8223 27.1654 15.8223C27.7964 15.8223 28.308 16.3338 28.308 16.9648Z" fill="#F12BA3"/>
<path d="M16.8823 28.3906C17.5133 28.3906 18.0248 27.879 18.0248 27.248C18.0248 26.617 17.5133 26.1054 16.8823 26.1054C16.2512 26.1054 15.7397 26.617 15.7397 27.248C15.7397 27.879 16.2512 28.3906 16.8823 28.3906Z" fill="#F12BA3"/>
<path fill-rule="evenodd" clip-rule="evenodd" d="M21.0263 32.4158C29.5597 30.1293 34.6237 21.3581 32.3372 12.8248C30.0507 4.29143 21.2795 -0.772636 12.7462 1.51387C4.21281 3.80037 -0.851249 12.5716 1.43525 21.1049C3.72175 29.6383 12.493 34.7023 21.0263 32.4158ZM20.4349 30.2085C27.7492 28.2487 32.0898 20.7305 30.1299 13.4162C28.1701 6.10192 20.6519 1.76129 13.3376 3.72115C6.0233 5.68101 1.68268 13.1992 3.64253 20.5135C5.60239 27.8278 13.1206 32.1684 20.4349 30.2085Z" fill="#F12BA3"/>
</svg>
