<svg width="33" height="33" viewBox="0 0 33 33" fill="none" xmlns="http://www.w3.org/2000/svg">
<path d="M9.15346 4.21875L25.0201 20.0854L27.8468 17.2587L29.7268 19.1388L26.4335 22.4321L30.6735 26.6721C31.1935 27.1921 31.1935 28.0321 30.6735 28.5521L29.7268 29.4987C29.6034 29.6224 29.4569 29.7204 29.2956 29.7873C29.1343 29.8542 28.9614 29.8887 28.7868 29.8887C28.6122 29.8887 28.4393 29.8542 28.278 29.7873C28.1167 29.7204 27.9701 29.6224 27.8468 29.4987L23.5535 25.2721L20.3001 28.5654L18.4201 26.6854L21.2468 23.8587L5.38013 7.99208V4.21875H9.15346ZM22.0735 14.2987L28.3935 7.97875V4.21875H24.6201L18.3001 10.5387L22.0735 14.2987ZM15.4735 20.9654L11.7001 17.1388L8.75346 20.0854L5.9268 17.2587L4.0468 19.1388L7.34013 22.4321L3.10013 26.6854C2.97653 26.8088 2.87846 26.9553 2.81155 27.1166C2.74465 27.2779 2.71021 27.4508 2.71021 27.6254C2.71021 27.8 2.74465 27.9729 2.81155 28.1342C2.87846 28.2955 2.97653 28.4421 3.10013 28.5654L4.0468 29.5121C4.5668 30.0321 5.4068 30.0321 5.9268 29.5121L10.2201 25.2721L13.4735 28.5654L15.3535 26.6854L12.5268 23.8587L15.4735 20.9654Z" fill="var(--tertiary-color)"/>
</svg>
