<svg viewBox="0 0 60 54" fill="none" xmlns="http://www.w3.org/2000/svg">
<g clip-path="url(#clip0)">
<path d="M10.8116 6.68555H0L3.08681 14.4324C5.23907 19.8339 9.89483 23.3234 14.9467 23.3234H18.1124C12.5623 17.8217 11.1357 10.8087 10.8116 6.68555L10.8116 6.68555Z" fill="white"/>
<rect x="19.4988" y="41.5918" width="21.0027" height="8.00959" fill="white"/>
<path d="M18.9741 50.6709H16.0195V54.0002H43.9804V50.6709H41.0258H18.9741Z" fill="white"/>
<rect x="11.7864" width="36.4283" height="2.74062" fill="white"/>
<path d="M49.1892 6.68633C48.8642 10.8087 47.4377 17.8224 41.8876 23.3234H45.0533C50.1059 23.3234 54.7609 19.8339 56.9132 14.4324L60 6.68555H49.1892V6.68633Z" fill="white"/>
<path d="M26.7113 38.1406L25.7551 40.5222H34.2458L33.2896 38.1406C33.2501 38.1509 33.2115 38.1659 33.1689 38.1659H26.832C26.7887 38.1651 26.7508 38.1501 26.7114 38.1406H26.7113Z" fill="white"/>
<path d="M28.2473 34.3174L27.131 37.0967H32.8698L31.7535 34.3174H28.2473Z" fill="white"/>
<path fill-rule="evenodd" clip-rule="evenodd" d="M23.6049 26.17C26.2616 27.689 28.0386 30.3216 28.3992 33.2476H31.6005C31.961 30.3215 33.738 27.6906 36.3947 26.17C48.1556 19.4443 48.3173 6.4703 48.2198 3.80859H11.7814C11.6832 6.4703 11.8433 19.4443 23.6049 26.17ZM28.4796 12.4715L29.9998 9.33082L31.52 12.4715C31.5958 12.6294 31.7436 12.7383 31.9146 12.7635L35.3124 13.2678L32.8522 15.7125C32.7292 15.8356 32.6727 16.0115 32.7021 16.1859L33.2831 19.6368L30.2427 18.0072C30.0903 17.926 29.9085 17.926 29.7561 18.0072L26.7157 19.6368L27.2967 16.1859C27.3261 16.0123 27.2696 15.8356 27.1466 15.7125L24.6872 13.2678L28.0843 12.7635C28.256 12.7383 28.4038 12.6286 28.4796 12.4715H28.4796Z" fill="white"/>
</g>
<defs>
<clipPath id="clip0">
<rect width="60" height="54" fill="white"/>
</clipPath>
</defs>
</svg>
