<svg width="21" height="20" viewBox="0 0 21 20" fill="none" xmlns="http://www.w3.org/2000/svg">
<path d="M16.5 0C15.6 0 14.5 1 14.5 2H6.5C6.5 1 5.4 0 4.5 0H0.5V9C0.5 10 1.5 11 2.5 11H4.7C5.1 13 6.4 14.7 9.5 15V17.08C6.5 17.54 6.5 20 6.5 20H14.5C14.5 20 14.5 17.54 11.5 17.08V15C14.6 14.7 15.9 13 16.3 11H18.5C19.5 11 20.5 10 20.5 9V0H16.5ZM4.5 9H2.5V2H4.5V9ZM14.5 9.5C14.5 11.43 13.92 13 10.5 13C7.09 13 6.5 11.43 6.5 9.5V4H14.5V9.5ZM18.5 9H16.5V2H18.5V9Z" fill="#A3A1A7"/>
</svg>
