<svg width="154" height="64" viewBox="0 0 154 64" fill="none" xmlns="http://www.w3.org/2000/svg">
<path d="M78.677 27.2192C81.6944 28.1647 83.6832 29.692 83.6832 33.0374C83.6832 37.0374 80.1857 39.5829 76.551 39.5829C73.3964 39.5829 70.379 38.2011 68.5959 35.7283L70.859 32.892C72.5735 35.0738 74.4937 36.0192 76.6196 36.0192C78.4027 36.0192 79.9114 35.1465 79.9114 33.4011C79.9114 32.0192 79.2256 31.3647 77.5797 30.8556L74.2194 29.7647C71.4077 28.892 69.556 27.3647 69.556 24.1647C69.556 20.7465 72.4363 17.9102 76.4139 17.9102C79.3628 17.9102 81.763 19.0738 83.4089 20.892L81.283 23.8738C79.9114 22.3465 78.3341 21.4738 76.4139 21.4738C74.6308 21.4738 73.3964 22.492 73.3964 23.8738C73.3964 25.1102 74.1508 25.692 75.5224 26.1283L78.677 27.2192Z" fill="white"/>
<path d="M89.4438 27.4375C90.1296 26.2738 91.5697 25.2556 93.4213 25.2556C96.9188 25.2556 99.662 28.2375 99.662 32.4556C99.662 36.6738 96.9188 39.6556 93.4213 39.6556C91.5697 39.6556 90.1296 38.5647 89.5124 37.4738H89.4438V44.7465H85.8091V25.5465H89.4438V27.4375ZM92.7355 36.2375C94.7929 36.2375 96.0959 34.4193 96.0959 32.4556C96.0959 30.4193 94.7243 28.6738 92.7355 28.6738C90.6782 28.6738 89.3752 30.492 89.3752 32.4556C89.3752 34.4193 90.6782 36.2375 92.7355 36.2375Z" fill="white"/>
<path d="M106.383 31.0738L109.4 30.7829C109.4 29.4011 108.509 28.5283 106.657 28.5283C105.285 28.5283 103.845 29.1829 102.885 29.9102L101.651 27.0738C102.817 26.2011 105.011 25.1829 107.274 25.1829C110.909 25.1829 112.898 27.4374 112.898 30.9283V39.292H109.4V37.5465H109.331C108.92 38.4192 107.411 39.6556 105.56 39.6556C103.022 39.6556 101.033 38.1283 101.033 35.4374C101.102 32.6738 103.708 31.292 106.383 31.0738ZM109.469 33.3283L107.068 33.5465C105.491 33.692 104.531 34.1283 104.531 35.292C104.531 36.2374 105.423 36.8192 106.52 36.8192C108.166 36.8192 109.537 35.7283 109.537 33.7647V33.3283H109.469Z" fill="white"/>
<path d="M119.275 32.3102V39.292H115.641V25.5465H119.275V27.8738H119.344C119.824 26.4193 121.196 25.3283 122.636 25.3283C122.91 25.3283 123.253 25.3283 123.527 25.4011V29.3283C123.116 29.1829 122.636 29.0374 122.156 29.0374C120.441 29.1102 119.275 30.3465 119.275 32.3102Z" fill="white"/>
<path d="M129.288 32.2374V39.292H125.722V18.4193H129.288V31.5829L134.363 25.5465H138.546L133.128 31.8738L138.683 39.292H134.363L129.288 32.2374Z" fill="white"/>
<path d="M152.056 31.8011V30.5647H148.696L151.85 27.0011V25.6193H147.05V26.8556H150.067L146.913 30.492V31.8011H152.056ZM142.112 31.8011V28.3829C142.112 28.1647 142.112 27.9466 142.181 27.8011C142.249 27.5829 142.318 27.4375 142.455 27.292C142.592 27.1466 142.729 27.0011 142.866 26.9284C143.004 26.8556 143.209 26.7829 143.484 26.7829C143.689 26.7829 143.895 26.8556 144.032 26.9284C144.169 27.0011 144.307 27.1466 144.375 27.292C144.444 27.4375 144.512 27.6556 144.512 27.8011C144.512 28.0193 144.581 28.1647 144.581 28.3829V31.8738H146.021V27.9466C146.021 27.6556 145.952 27.292 145.884 27.0011C145.815 26.7102 145.678 26.4193 145.472 26.2011C145.267 25.9829 145.061 25.7647 144.787 25.6193C144.512 25.4738 144.169 25.4011 143.826 25.4011C143.415 25.4011 143.004 25.5466 142.661 25.7647C142.318 25.9829 142.112 26.2738 141.975 26.5647V25.5466H140.603V31.8011H142.112Z" fill="white"/>
<path d="M43.7598 30.5226C43.7598 30.5226 43.7663 30.5157 43.7598 30.5226C43.7728 30.5157 43.7663 30.5157 43.7598 30.5226ZM2.48902 30.219C2.46299 30.2673 2.49552 30.2673 2.52155 30.2811C2.54758 30.2949 2.59312 30.3018 2.60613 30.3087C3.46499 30.5709 4.37591 30.8469 5.22175 31.1022C5.24778 31.1091 5.2738 31.1298 5.30634 31.1229C4.3694 30.8193 3.42595 30.5295 2.48902 30.219ZM56.942 37.9609C54.45 37.5193 48.1062 37.5262 44.2153 37.5745C44.0006 37.471 43.7924 37.3606 43.5841 37.2571C41.925 36.436 40.2528 35.6149 38.6067 34.7869C38.8864 34.5178 39.1597 34.2418 39.4525 33.9796C39.459 33.9796 39.459 33.9865 39.4655 33.9865C41.9185 34.9525 45.7508 36.3532 48.2623 37.2571C48.2623 37.2571 48.2688 37.2571 48.2753 37.2571C48.451 37.2985 48.8284 36.9673 48.978 36.4429C49.1277 35.9185 49.0626 35.4079 48.9 35.3389C48.9 35.3389 43.2458 33.2413 41.0987 32.4339C42.2373 31.3575 43.4215 30.3501 44.5796 29.3082C45.7378 28.2663 46.8895 27.2174 48.0671 26.1893C48.6527 25.6787 49.2383 25.1612 49.8369 24.6575C51.0276 23.6432 52.2183 22.6357 53.474 21.7042C53.7864 21.4696 54.1052 21.235 54.437 21.0211C54.6452 20.8831 54.8599 20.7382 55.0681 20.6278C55.2048 20.5519 55.3544 20.5036 55.4911 20.4277C55.4976 20.4277 55.4976 20.4208 55.5041 20.4208C55.5041 20.3932 55.4715 20.4139 55.4846 20.3863C55.5041 20.3725 55.5301 20.3587 55.5496 20.338C55.5626 20.2483 55.6082 20.0896 55.5431 20.0206C55.4585 19.9999 55.4 20.0689 55.3284 20.0758C55.3154 20.0551 55.3349 20.0482 55.3414 20.0344C55.0291 20.2138 54.7103 20.3863 54.3915 20.545C54.3394 20.5726 54.2548 20.6002 54.2093 20.6278C54.1898 20.6416 54.1702 20.6485 54.1442 20.6623C53.6953 20.9038 53.2398 21.1384 52.7844 21.3799C52.3614 21.6076 51.9385 21.8284 51.5221 22.063C51.1057 22.3045 50.6828 22.5184 50.2663 22.753C48.6007 23.6915 46.935 24.6161 45.3019 25.5959C45.484 25.4441 45.6597 25.2785 45.8679 25.1543C46.0761 25.0301 46.2909 24.9128 46.4991 24.7886C47.7613 24.0434 49.0041 23.312 50.2989 22.5805C51.1447 22.1044 51.9971 21.6352 52.8689 21.1522C53.6042 20.752 54.3784 20.3242 55.1657 19.9516C55.2698 19.9033 55.413 19.8136 55.5496 19.8343C55.5626 19.8343 55.5952 19.8481 55.6212 19.8619C55.6863 19.8826 55.7188 19.9033 55.7448 19.9447C55.7904 20.0206 55.8359 20.2552 55.7839 20.3863C55.7578 20.4415 55.7318 20.4415 55.6928 20.4691C55.6732 20.4829 55.6667 20.4967 55.6472 20.5105C55.6147 20.5312 55.5756 20.5519 55.5431 20.5795C55.3219 20.7106 55.1202 20.8348 54.9185 20.9728C54.5151 21.2488 54.1117 21.5386 53.7213 21.8215C53.5912 21.9181 53.461 22.0216 53.3309 22.1182C52.5501 22.7047 51.8019 23.3188 51.0601 23.9468C50.5526 24.3746 50.0386 24.8162 49.5571 25.2647C49.453 25.3613 49.3424 25.451 49.2383 25.5476C48.1517 26.5205 47.0781 27.5072 46.0111 28.4802C45.2954 29.1357 44.5861 29.7981 43.8639 30.4467C43.8574 30.4605 43.8574 30.4605 43.8704 30.4536C45.5882 28.9149 47.3254 27.3968 49.0756 25.9064C47.6637 27.1622 46.2583 28.4388 44.8659 29.7222C44.8594 29.7429 44.8854 29.7153 44.8854 29.7153C45.0546 29.5704 45.2303 29.4048 45.4125 29.2875C44.8789 29.874 44.2868 30.4191 43.7078 30.9711C43.2718 31.3851 42.8359 31.806 42.4195 32.2269C42.3024 32.3511 42.1592 32.4753 42.0551 32.5995C42.0421 32.6133 42.0096 32.6547 42.0291 32.6616C42.1917 32.5374 42.3349 32.3925 42.4911 32.2545C43.2458 31.5576 44.0006 30.8676 44.7618 30.1776C45.3734 29.6256 45.9851 29.0736 46.5902 28.5285C46.896 28.2524 47.2083 27.9833 47.5141 27.7142C47.5206 27.7073 47.5271 27.6935 47.5401 27.6866C47.5726 27.659 47.5987 27.6314 47.6247 27.6107C48.2038 27.0932 48.7829 26.5895 49.3619 26.0858C50.2793 25.2785 51.2423 24.4781 52.1858 23.6984C52.6672 23.305 53.1487 22.9255 53.6367 22.546C53.7994 22.4218 53.962 22.2976 54.1312 22.1734C54.6452 21.7939 55.1397 21.4696 55.6993 21.1453C55.8945 21.0349 56.0832 20.9383 56.1873 20.7658C56.2979 20.5864 56.3759 20.3173 56.3369 20.0551C56.2979 19.8136 56.2003 19.6273 56.0051 19.5169C56.1027 19.5997 56.1808 19.7101 56.2328 19.8481C56.2849 19.9723 56.3304 20.1517 56.3044 20.3449C56.2979 20.4139 56.2653 20.4898 56.2393 20.5657C56.1808 20.7106 56.1222 20.8141 56.0116 20.9038C55.9595 20.9452 55.9075 21.0004 55.8489 21.028C55.7318 21.097 55.6082 21.1591 55.4846 21.2281C55.1202 21.4213 54.7753 21.6559 54.4435 21.8698C54.2093 22.0216 53.9946 22.1872 53.7603 22.3183C54.2353 21.8905 54.7819 21.4834 55.3544 21.1315C55.4911 21.0487 55.6407 20.959 55.7839 20.8693C55.927 20.7796 56.0441 20.6554 56.1027 20.4967C56.1742 20.3104 56.1612 20.0758 56.0832 19.9033C56.0051 19.7377 55.8945 19.6273 55.7383 19.5514C55.966 19.4341 56.1873 19.303 56.402 19.165C56.5581 19.0615 56.7208 18.958 56.8379 18.8269C56.8835 18.7786 56.9355 18.7372 56.968 18.6889C57.0396 18.5923 57.0852 18.4819 57.1372 18.3645C57.1893 18.2541 57.2283 18.1092 57.2348 17.9712C57.2478 17.8194 57.2023 17.6883 57.1567 17.5572C57.1177 17.433 57.0591 17.3226 56.9876 17.2329C56.8444 17.0466 56.6622 16.9086 56.4085 16.8465C56.2783 16.812 56.1352 16.7844 55.9856 16.8051C54.7298 16.9707 53.6823 17.3778 52.6477 17.7642C52.8494 17.7159 53.1227 17.5848 53.3374 17.5365C52.6347 17.8056 51.9255 18.1161 51.2618 18.4197C50.8584 18.5992 50.5071 18.8683 50.1492 19.096C50.4745 18.8062 50.7869 18.5164 51.0862 18.1989C51.3789 17.8815 51.6457 17.5296 51.8995 17.1708C52.0166 17.0052 52.1467 16.8258 52.2703 16.6257C52.394 16.4325 52.5046 16.2255 52.5501 15.9771C52.5761 15.846 52.5892 15.6597 52.5631 15.5493C52.5371 15.4389 52.459 15.3423 52.3875 15.2595C52.3224 15.1836 52.2313 15.1146 52.1402 15.0456C52.0491 14.9835 51.945 14.9076 51.8279 14.9007C51.7693 14.9007 51.7043 14.9214 51.6392 14.9352C51.3074 14.9904 51.0862 15.1491 50.8714 15.3009C50.7803 15.3699 50.6958 15.4389 50.6112 15.501C49.902 16.0461 49.2773 16.6188 48.6332 17.2053C47.6637 18.0885 46.7203 18.9787 45.7638 19.8619C44.8464 20.7106 43.9225 21.5662 43.0181 22.4149C42.979 22.4494 42.9335 22.4839 42.8945 22.5253C41.6127 23.7053 40.3439 24.9059 39.0686 26.0789C38.1057 26.9621 37.1557 27.866 36.2058 28.7493C36.902 28.0454 37.5851 27.3209 38.2813 26.6171C38.457 26.4446 38.6262 26.2652 38.8019 26.0927C38.9775 25.9202 39.1402 25.727 39.3159 25.5545C39.4981 25.382 39.6607 25.1957 39.8364 25.0232C40.0121 24.8507 40.1877 24.6713 40.3569 24.4919C41.7168 23.0497 43.0896 21.6076 44.4495 20.1655C46.1542 18.3576 47.8654 16.5636 49.5376 14.7282C49.7914 14.4522 50.0386 14.1693 50.2793 13.8933C50.3639 13.7967 50.442 13.7001 50.5071 13.5897C50.6437 13.3688 50.7153 13.1204 50.7153 12.8513C50.7153 12.7685 50.7153 12.6857 50.7088 12.6029C50.6958 12.4235 50.5852 12.251 50.4615 12.1268C50.429 12.0923 50.3965 12.0578 50.3574 12.0302C50.2533 11.9405 50.1362 11.8991 49.9931 11.8784C49.8369 11.8508 49.6938 11.8784 49.5376 11.9198C49.2643 11.9957 49.0756 12.1268 48.8414 12.2648C48.8414 12.2648 48.5746 12.4442 48.4575 12.5408C48.5421 12.4442 48.6722 12.3338 48.7829 12.2372C48.7829 12.2234 48.7763 12.2165 48.7698 12.2096C48.7698 12.2096 48.7698 12.2027 48.7763 12.2027C49.0236 11.9267 49.0821 11.5403 48.887 11.3126C48.6852 11.0711 48.2818 11.0987 47.9891 11.3816C47.9435 11.4299 47.8719 11.5058 47.8199 11.5748C47.3579 12.0923 46.961 12.5684 46.486 13.0721C46.3559 13.2101 46.2388 13.355 46.0957 13.4861C45.6727 13.8795 45.2563 14.2659 44.8399 14.6523C44.5601 14.9145 44.2803 15.1698 44.0006 15.432C43.7208 15.6942 43.441 15.9495 43.1612 16.2048C42.7448 16.5912 42.3349 16.9914 41.9185 17.3778C41.7818 17.502 41.6387 17.6262 41.5086 17.7642C41.8469 17.4951 42.1983 17.2329 42.5431 16.9707C41.9315 17.5365 41.3134 18.1023 40.6887 18.6682C40.0641 19.234 39.459 19.8136 38.8409 20.3794C37.6242 21.4903 36.4205 22.6357 35.2233 23.7674C35.2103 23.7812 35.1842 23.8019 35.1582 23.8088C35.1517 22.9393 35.1257 21.2833 35.1192 21.2005C35.1192 21.0832 34.8979 20.9866 34.6312 20.9866C34.5531 20.9866 34.4815 20.9935 34.4165 21.0073C34.4425 19.7308 34.4685 18.4542 34.5011 17.1846V17.1777C34.4945 16.9017 34.1822 16.674 33.7853 16.674C33.7658 16.674 33.7463 16.674 33.7268 16.6809C33.7073 16.6809 33.6877 16.6878 33.6682 16.6878C33.6292 16.6947 33.5966 16.6947 33.5576 16.7016C33.5251 16.7085 33.4925 16.7154 33.4535 16.7292C33.421 16.7361 33.3884 16.7568 33.3624 16.7706C33.3299 16.7844 33.3039 16.8051 33.2778 16.8189C33.2518 16.8327 33.2258 16.8534 33.2063 16.8741C33.1867 16.8948 33.1672 16.9155 33.1477 16.9431C33.1282 16.9638 33.1152 16.9914 33.1087 17.0121C33.0956 17.0397 33.0891 17.0673 33.0826 17.0949C33.0761 17.1225 33.0761 17.1501 33.0696 17.1846C33.0696 17.1915 33.0696 17.2053 33.0696 17.2122C33.0696 17.2191 33.0696 17.2329 33.0696 17.2398V17.2674C33.0696 17.2743 33.0696 17.2881 33.0696 17.295C33.0696 17.3019 33.0696 17.3157 33.0696 17.3226C33.0696 17.3364 33.0696 17.3433 33.0696 17.3571V17.3847C33.0696 17.3985 33.0696 17.4054 33.0696 17.4192C33.0696 17.433 33.0696 17.4399 33.0696 17.4537C33.0696 17.4675 33.0696 17.4813 33.0696 17.4951C33.0696 17.5089 33.0696 17.5227 33.0696 17.5365C33.0696 17.5503 33.0696 17.5641 33.0696 17.5779C33.0696 17.5917 33.0696 17.6055 33.0696 17.6262C33.0696 17.64 33.0696 17.6607 33.0696 17.6745C33.0696 17.6883 33.0696 17.709 33.0761 17.7228C33.0761 17.7435 33.0761 17.7573 33.0761 17.778C33.0761 17.7987 33.0761 17.8125 33.0826 17.8332C33.0826 17.8539 33.0826 17.8746 33.0826 17.8884C33.0826 17.9091 33.0826 17.9298 33.0826 17.9505C33.0826 17.9712 33.0826 17.9919 33.0891 18.0126C33.0891 18.0333 33.0891 18.054 33.0891 18.0816L33.0956 18.1506C33.0956 18.1713 33.0956 18.1989 33.1022 18.2196C33.1022 18.2472 33.1022 18.2679 33.1022 18.2955C33.1022 18.3231 33.1022 18.3438 33.1087 18.3714C33.1087 18.399 33.1087 18.4266 33.1087 18.4473C33.1087 18.4749 33.1087 18.5026 33.1152 18.5302C33.1152 18.5578 33.1152 18.5854 33.1152 18.613L33.1217 18.6958C33.1217 18.7234 33.1217 18.751 33.1282 18.7786C33.1282 18.8062 33.1282 18.8338 33.1282 18.8683C33.1282 18.8959 33.1282 18.9235 33.1347 18.958C33.1347 18.9856 33.1347 19.0201 33.1412 19.0477C33.1412 19.0753 33.1412 19.1098 33.1412 19.1374C33.1412 19.165 33.1477 19.1995 33.1477 19.2271C33.1477 19.2616 33.1477 19.2892 33.1477 19.3237C33.1477 19.3513 33.1542 19.3858 33.1542 19.4203C33.1542 19.4548 33.1607 19.4824 33.1607 19.5169C33.1607 19.5514 33.1672 19.579 33.1672 19.6135L33.1737 19.7101C33.1737 19.7446 33.1802 19.7791 33.1802 19.8067L33.1867 19.9033C33.1867 19.9309 33.1932 19.9654 33.1932 19.9999L33.1998 20.0965C33.1998 20.131 33.2063 20.1655 33.2063 20.2C33.2063 20.2345 33.2128 20.269 33.2128 20.3035L33.2193 20.407C33.2193 20.4415 33.2258 20.476 33.2258 20.5105C33.2258 20.545 33.2258 20.5795 33.2323 20.614C33.2323 20.6485 33.2388 20.683 33.2388 20.7175C33.2388 20.752 33.2388 20.7865 33.2453 20.821C33.2453 20.8555 33.2453 20.89 33.2518 20.9245C33.2518 20.959 33.2583 20.9935 33.2583 21.028C33.2583 21.0625 33.2583 21.097 33.2648 21.1315C33.2648 21.166 33.2713 21.2005 33.2713 21.235C33.2778 21.2695 33.2778 21.304 33.2778 21.3385C33.2778 21.373 33.2843 21.4075 33.2843 21.442C33.2908 21.4765 33.2908 21.511 33.2908 21.5455C33.2908 21.58 33.2973 21.6145 33.2973 21.649C33.2973 21.6835 33.3039 21.718 33.3039 21.7525L33.3104 21.856C33.3104 21.8905 33.3104 21.925 33.3169 21.9595C33.3169 21.994 33.3234 22.0285 33.3234 22.063C33.3234 22.0975 33.3299 22.132 33.3299 22.1665C33.3299 22.201 33.3364 22.2355 33.3364 22.2631C33.3364 22.2976 33.3429 22.3252 33.3429 22.3597C33.3429 22.3942 33.3429 22.4287 33.3494 22.4563C33.3494 22.4839 33.3494 22.5184 33.3559 22.5529C33.3559 22.5874 33.3559 22.615 33.3624 22.6495C33.3624 22.6771 33.3624 22.7116 33.3689 22.7461C33.3689 22.7806 33.3754 22.8082 33.3754 22.8427C33.3754 22.8703 33.3754 22.9048 33.3819 22.9324C33.3819 22.96 33.3819 22.9945 33.3884 23.0221C33.3884 23.0497 33.3884 23.0842 33.3949 23.1118C33.3949 23.1394 33.3949 23.1739 33.4015 23.2015C33.4015 23.2291 33.4015 23.2636 33.4015 23.2912C33.4015 23.3188 33.408 23.3465 33.408 23.381C33.408 23.4086 33.408 23.4362 33.408 23.4707C33.408 23.4983 33.408 23.5259 33.408 23.5535C33.408 23.5811 33.4145 23.6087 33.4145 23.6363C33.4145 23.6639 33.421 23.6915 33.421 23.7191C33.421 23.7329 33.421 23.7467 33.421 23.7605C33.421 23.7674 33.421 23.7743 33.421 23.7812C33.421 23.7881 33.421 23.7881 33.421 23.7881V23.795C33.3429 23.6156 33.2583 23.4431 33.1867 23.2774C33.1607 23.2153 33.1152 23.1256 33.1152 23.0635C33.0891 22.7116 33.0891 22.3597 33.0696 22.0078C33.0501 21.6559 33.0306 21.304 33.0111 20.9452C32.972 20.2414 32.933 19.5376 32.9005 18.8269C32.8094 16.8741 32.6792 14.949 32.6142 12.9893C32.6142 12.8996 32.6012 12.8099 32.6012 12.7271C32.6012 12.6443 32.6207 12.5546 32.6272 12.4718C32.8289 10.5122 33.2388 6.56531 33.2388 6.4687C33.2583 5.68899 32.8809 5.04727 32.3929 5.02657C31.8984 5.00587 31.482 5.62689 31.4495 6.3997C31.443 6.55841 31.6122 9.31156 31.6772 10.733C31.6837 10.8434 31.7033 10.9538 31.6967 11.0642C31.6837 11.2781 31.6382 11.4851 31.6187 11.6921C31.4755 10.6364 31.3194 9.57377 31.1307 8.52495C30.9485 7.50373 30.7598 6.4894 30.5451 5.48198C30.428 4.94377 30.2523 4.44006 29.9855 3.95705C29.7318 3.50164 29.3479 3.04623 28.8339 2.93583C28.3849 2.84613 28.0141 3.00483 27.7603 3.20494C27.3959 3.43954 27.1357 3.93635 27.0576 4.34346C26.96 4.86787 27.0706 5.42678 27.1422 5.95119C27.3179 7.20702 27.409 8.46974 27.5716 9.72557C27.6627 10.4294 27.7343 11.1401 27.8189 11.8439C27.6562 11.4989 27.5 11.1401 27.3439 10.7951C26.2703 8.30414 25.1707 5.82699 24.0971 3.34294C24.0711 3.32224 24.0841 3.32914 24.0776 3.32914C24.0711 3.33604 24.0776 3.32914 24.0711 3.33604C24.5331 4.44006 25.0341 5.56479 25.483 6.70331C24.956 5.61999 24.4745 4.48836 23.967 3.38434C23.6482 3.54994 23.3619 3.66725 23.0431 3.83285C23.0691 3.82595 23.0301 3.83975 23.0561 3.83285C24.3704 7.05522 25.7238 10.2569 27.0251 13.4792C27.4285 14.4867 27.8449 15.501 28.2483 16.5153C28.2743 16.5843 28.3134 16.6395 28.3199 16.7154C27.2788 14.3349 26.2378 11.9474 25.1902 9.57377C25.1902 9.56687 25.1837 9.56687 25.1837 9.57377C25.945 11.3402 26.6932 13.148 27.4285 14.9283C27.448 14.9835 27.474 15.0387 27.4935 15.1008C26.5241 12.9341 25.5481 10.7813 24.5786 8.61465C24.5656 8.58015 24.5591 8.57325 24.5526 8.55945C24.4745 8.58705 24.429 8.62845 24.3639 8.64225C23.7458 7.06212 22.5551 4.02605 22.4965 3.89495C22.1972 3.20494 21.5921 2.80473 21.0976 3.00483C20.5576 3.21874 20.46 3.92945 20.5511 4.44696C20.6227 4.85407 20.7788 5.22668 20.922 5.61309C21.0651 6.01329 21.2083 6.4135 21.3579 6.81371C21.3904 6.91031 21.4295 7.02762 21.475 7.13802C21.5075 7.23462 21.5336 7.38642 21.5921 7.46922C21.3058 7.08282 20.948 6.88271 20.6617 7.00001C20.3038 7.15182 20.1867 7.75903 20.3624 8.41454C20.0956 8.04194 19.7573 7.84873 19.4905 7.95913C19.1197 8.11784 19.0351 8.79405 19.2953 9.48407C19.3018 9.50477 19.3149 9.52547 19.3214 9.54617C19.3539 9.61517 19.3799 9.66347 19.3994 9.71867C19.6662 10.4501 19.9395 11.1746 20.2062 11.906C19.9915 11.5265 19.7963 11.1194 19.5816 10.733C19.5361 10.6571 19.484 10.5881 19.4255 10.526C19.2953 10.3949 19.0936 10.3535 18.9049 10.4432C18.7553 10.5191 18.6317 10.6709 18.6317 10.8917C18.6317 11.0021 18.6707 11.0987 18.6967 11.1884C18.7293 11.2781 18.7683 11.3609 18.8008 11.4437C19.2042 12.5063 19.6207 13.493 20.0371 14.5488C20.8634 16.6326 21.6962 18.6613 22.5486 20.7175C23.0756 22.0009 23.6157 23.2843 24.1492 24.5471C24.1882 24.6299 24.2273 24.7127 24.2468 24.7955C23.6287 23.3948 23.0171 21.9871 22.3924 20.5864C23.1667 22.4701 23.928 24.3953 24.7153 26.2583C24.7413 26.3135 24.7673 26.3687 24.7803 26.4308C24.6632 26.4032 24.5591 26.3618 24.4485 26.3204C24.3379 26.279 24.2273 26.2514 24.1232 26.2031C24.0256 26.1548 21.7938 24.9749 21.6182 24.8783C21.0391 24.554 13.9275 21.3247 13.6412 21.2143C13.6086 21.2005 13.5761 21.1798 13.5436 21.166C12.6977 20.7658 12.4505 21.6697 12.5351 21.8974C12.2423 21.7801 11.943 21.6628 11.6437 21.5524C11.3444 21.442 10.7393 21.2074 10.7393 21.2074C10.5961 21.1522 10.3944 21.3454 10.2903 21.6352C10.2318 21.8008 10.2188 21.9664 10.2448 22.0837C9.87391 21.994 9.52256 21.8905 9.1712 21.7663C8.98252 21.6973 8.79383 21.6214 8.59213 21.5593C8.39042 21.4972 8.18872 21.4351 7.97401 21.3937C7.75278 21.3454 7.50554 21.304 7.27781 21.3316C7.03707 21.3592 6.77681 21.442 6.61415 21.6421C6.43847 21.856 6.41244 22.1458 6.47751 22.408C6.54257 22.6702 6.6662 22.891 6.80934 23.1118C6.85489 23.1808 6.90043 23.2429 6.95248 23.305C7.00454 23.3672 7.05659 23.4224 7.10864 23.4776C7.17371 23.5397 7.23877 23.6087 7.31034 23.6708C7.38191 23.7398 7.45999 23.8019 7.54458 23.8571C7.62916 23.9192 7.72025 23.9744 7.80484 24.0296C7.90894 24.0917 8.00654 24.1538 8.11064 24.209C8.22125 24.2711 8.33837 24.3332 8.45549 24.3815C8.58562 24.4436 8.71575 24.4919 8.84588 24.5471C8.99553 24.6023 9.13867 24.6575 9.28832 24.7058C9.32736 24.7196 9.35989 24.7334 9.39893 24.7403C9.23627 24.7127 9.07361 24.6851 8.91745 24.6506C8.80684 25.0646 8.63767 25.6718 8.63767 25.6925L8.64418 25.6994C8.64418 25.6994 15.45 28.7769 18.8919 30.2811C16.8879 29.5911 14.8384 28.9425 12.8214 28.2593C12.1447 28.0316 11.468 27.8108 10.7913 27.59C9.45098 27.1553 8.01955 26.7551 6.471 26.5343C6.0676 26.4722 5.65769 26.4446 5.25428 26.417C5.05258 26.4032 4.85739 26.3687 4.65569 26.348C4.45398 26.3204 4.25879 26.2928 4.06359 26.2721C3.966 26.2583 3.8684 26.2514 3.77731 26.2238C3.69272 26.1962 3.60814 26.1686 3.52355 26.141C3.11364 25.9961 2.6712 25.8443 2.26129 25.7132C2.18321 25.6856 2.11164 25.6649 2.04007 25.6511C2.03356 25.6442 2.02055 25.6373 2.00754 25.6373C1.74077 25.5821 1.46099 25.8581 1.38942 26.2583C1.31784 26.6516 1.46749 27.0104 1.73426 27.0794C1.75378 27.0863 1.7733 27.0863 1.77981 27.0932C1.79933 27.1001 1.81885 27.1001 1.83837 27.1001C2.45648 27.1829 3.06159 27.2657 3.6667 27.3416C3.81635 27.3623 3.95298 27.4244 4.09613 27.4658C4.51905 27.6038 4.95498 27.7349 5.35839 27.8798C5.2738 28.073 5.23477 28.2938 5.1697 28.5078C5.12415 28.6665 5.07861 28.8252 5.03306 28.977C5.02005 29.0253 5.01354 29.046 5.00704 29.0736C5.469 29.2047 5.92446 29.3565 6.37991 29.5014C9.60714 30.5226 12.8344 31.53 16.0551 32.5581C15.964 32.8548 15.8794 33.1516 15.7883 33.4483C14.7928 33.0894 13.7973 32.7099 12.7953 32.358C12.2943 32.1786 11.7998 31.9854 11.3053 31.8129C10.2773 31.4541 9.21675 31.0401 8.21475 30.6951C8.20824 30.6951 8.11064 30.6537 8.1692 30.6813C8.22125 30.7089 8.29283 30.7296 8.35789 30.7503C9.23627 31.0815 10.0821 31.392 10.954 31.7301C11.3834 31.8957 11.8194 32.0544 12.2293 32.2338C12.2813 32.2614 12.3464 32.2752 12.3919 32.3166C11.9755 32.2131 11.5656 32.082 11.1557 31.9509C10.3489 31.6887 9.54858 31.4127 8.74178 31.1574C8.33186 31.0263 7.94147 30.8745 7.55108 30.7365C7.10864 30.5778 6.6662 30.4122 6.22375 30.2535C6.01555 30.1707 5.57961 30.012 5.10463 29.8395C4.40193 29.5773 3.68622 29.322 2.99652 29.0598C2.95098 29.0391 2.90543 29.0115 2.85989 28.9908C2.63867 28.9218 2.39142 29.1288 2.30683 29.4531C2.21574 29.7705 2.31985 30.081 2.52806 30.1569C2.56059 30.1707 2.60613 30.1776 2.60613 30.1776C2.6712 30.1914 2.71675 30.2052 2.78181 30.2259C4.44748 30.702 6.10664 31.2195 7.74628 31.7094C7.92195 31.7646 8.09112 31.8129 8.26029 31.875C9.08662 32.1786 9.92596 32.5029 10.7393 32.8065C10.3229 32.6961 9.91945 32.5857 9.50304 32.4684C9.49653 32.4684 9.49653 32.4753 9.50954 32.4753C10.0431 32.634 10.5701 32.7789 11.0906 32.9376C11.3444 33.0135 11.5851 33.1239 11.8324 33.2137C12.0861 33.3103 12.3334 33.3931 12.5806 33.4897C13.5826 33.8623 14.5781 34.2142 15.5736 34.5868C16.5691 34.9594 17.5646 35.3251 18.5666 35.6839C19.5686 36.0358 20.5576 36.4153 21.5661 36.7741C19.0871 39.1616 16.5951 41.5283 14.3829 44.1849C13.973 44.6817 13.5566 45.1992 13.1792 45.7236C13.1337 45.7857 13.1011 45.8547 13.0491 45.903C12.945 45.9996 12.8279 46.0824 12.7173 46.179C12.7173 46.179 12.1707 46.6068 12.0731 46.7586C11.9755 46.9104 12.1187 47.2278 12.4049 47.4417C12.6912 47.6556 13.01 47.7039 13.1207 47.5452C13.1207 47.5452 13.1207 47.5383 13.1272 47.5383C13.1337 47.5383 13.1337 47.5314 13.1337 47.5245C13.2703 47.2278 13.4395 46.9794 13.6086 46.7172C13.6542 46.6482 13.6867 46.5792 13.7453 46.524C13.7973 46.4757 13.8559 46.4205 13.921 46.3722C14.0381 46.2756 14.1552 46.1721 14.2723 46.0755C17.4995 43.3362 20.7138 40.5899 23.9215 37.8298C23.9735 37.7815 24.0776 37.6849 24.1102 37.6849C24.1362 37.6849 24.1817 37.7125 24.2143 37.7263C24.3249 37.7677 24.429 37.8091 24.5396 37.8367C23.7848 38.7338 23.004 39.6032 22.2493 40.4933C22.0606 40.7141 21.8654 40.9349 21.6767 41.1557C21.2928 41.6042 20.9155 42.0527 20.5381 42.4943C20.3494 42.7151 20.1607 42.9428 19.9915 43.1913C20.0436 43.1913 20.0956 43.1016 20.1347 43.0878C18.7748 44.6334 15.9445 47.6142 15.951 47.6211C16.0356 47.7039 16.0811 47.7591 16.1592 47.8419C15.4955 48.4975 14.8384 49.153 14.1747 49.8016C14.2398 49.8637 14.2983 49.9396 14.3634 50.0086C14.1031 50.2501 13.8364 50.4916 13.5631 50.7331C13.5306 50.7607 13.4395 50.8435 13.4395 50.8435C13.2963 50.9746 13.4069 51.3679 13.6932 51.7267C13.934 52.0303 14.2138 52.2028 14.3829 52.1752C14.3894 52.1752 14.3894 52.1821 14.3959 52.1821C13.96 52.6514 13.3874 53.1827 12.945 53.6657C12.8929 53.7209 12.7563 53.8589 12.7433 53.8796C12.5871 54.059 12.509 54.5627 12.6066 54.8318C12.6262 54.887 12.6717 55.025 12.7433 55.0871C12.3659 55.4321 12.0146 55.7288 11.6307 56.0738C11.5916 56.1083 11.5591 56.1497 11.5461 56.1566C11.4485 56.2946 11.4875 56.5292 11.6632 56.7776C11.8519 57.0398 12.1187 57.164 12.2553 57.0536C12.2618 57.0467 12.2618 57.0467 12.2683 57.0398C12.2488 57.1571 12.2813 57.302 12.3659 57.4331C12.483 57.6264 12.6652 57.7299 12.7888 57.6884C12.8148 57.6815 12.8214 57.6747 12.8344 57.6678C12.8604 57.6539 12.8734 57.6333 12.8929 57.6057C14.1487 56.5499 15.3979 55.4804 16.6472 54.4247C17.0701 54.0659 17.493 53.7002 17.9225 53.3483C17.5191 53.9417 17.1482 54.5351 16.7578 55.1078C16.7188 55.163 16.6797 55.2044 16.6342 55.2527C16.465 55.4321 16.2893 55.6115 16.1137 55.7978C15.7688 56.1635 15.4109 56.5085 15.0661 56.8673C14.7798 57.1709 14.474 57.4745 14.1877 57.7782C14.1292 57.8403 14.0251 57.9438 14.0251 57.9438C13.7453 58.2681 13.7518 58.7718 14.0316 59.034C14.0381 59.0409 14.0446 59.0409 14.0511 59.0478C14.0576 59.0547 14.0641 59.0616 14.0771 59.0685C14.0901 59.0823 14.1096 59.0892 14.1227 59.103C14.1357 59.1099 14.1552 59.1237 14.1682 59.1306C14.1812 59.1375 14.2007 59.1444 14.2138 59.1513C14.2333 59.1582 14.2463 59.1651 14.2658 59.172C14.2853 59.1789 14.2983 59.1858 14.3179 59.1858C14.3374 59.1927 14.3569 59.1927 14.3699 59.1996C14.3894 59.1996 14.4089 59.2065 14.422 59.2065H14.4805C14.5 59.2065 14.5196 59.2065 14.5391 59.1996C14.5586 59.1927 14.5781 59.1927 14.5976 59.1858C14.6172 59.1858 14.6367 59.1789 14.6562 59.172C14.6757 59.1651 14.6952 59.1582 14.7148 59.1513C14.7343 59.1444 14.7538 59.1375 14.7733 59.1306C14.7928 59.1237 14.8058 59.1099 14.8254 59.103C14.8449 59.0961 14.8579 59.0823 14.8774 59.0754C14.8969 59.0616 14.9099 59.0547 14.9295 59.0409C14.949 59.0271 14.962 59.0133 14.9815 58.9995C14.9945 58.9857 15.0141 58.9719 15.0271 58.9512C15.0466 58.9305 15.0661 58.9167 15.0856 58.896C15.0921 58.8891 15.0921 58.8822 15.0986 58.8822C15.1051 58.8684 15.1116 58.8615 15.1247 58.8546C15.1312 58.8408 15.1377 58.8339 15.1507 58.827C15.1572 58.8132 15.1637 58.7994 15.1767 58.7925C15.1832 58.7787 15.1962 58.7649 15.2027 58.7511C15.2158 58.7373 15.2223 58.7235 15.2353 58.7097C15.2483 58.6959 15.2548 58.6821 15.2678 58.6614C15.2808 58.6476 15.2938 58.6269 15.3003 58.6131C15.3134 58.5924 15.3264 58.5786 15.3394 58.5579C15.3524 58.5372 15.3654 58.5165 15.3784 58.4958C15.3914 58.4751 15.4109 58.4544 15.424 58.4337C15.437 58.413 15.4565 58.3923 15.4695 58.3647C15.4825 58.344 15.502 58.3164 15.5216 58.2957C15.5346 58.275 15.5541 58.2474 15.5736 58.2198C15.5931 58.1922 15.6061 58.1715 15.6257 58.1439C15.6452 58.1163 15.6647 58.0887 15.6777 58.0611C15.6972 58.0335 15.7168 58.0059 15.7363 57.9783C15.7558 57.9507 15.7753 57.9162 15.7948 57.8886C15.8144 57.861 15.8339 57.8334 15.8534 57.7989C15.8729 57.7713 15.8924 57.7368 15.912 57.7091C15.9315 57.6815 15.951 57.647 15.977 57.6194C15.9965 57.5919 16.0161 57.5574 16.0421 57.5298C16.0616 57.5021 16.0876 57.4676 16.1071 57.44C16.1267 57.4055 16.1527 57.3779 16.1722 57.3434C16.1917 57.3158 16.2178 57.2813 16.2373 57.2468C16.2568 57.2192 16.2828 57.1847 16.3023 57.1502C16.3219 57.1226 16.3479 57.0881 16.3674 57.0536C16.3869 57.026 16.413 56.9915 16.4325 56.957C16.452 56.9294 16.478 56.8949 16.4975 56.8604C16.5171 56.8328 16.5431 56.7983 16.5626 56.7638C16.5821 56.7293 16.6016 56.7017 16.6277 56.6741C16.6472 56.6465 16.6667 56.612 16.6927 56.5844C16.7123 56.5568 16.7318 56.5223 16.7513 56.4947C16.7708 56.4671 16.7903 56.4326 16.8098 56.405C16.8294 56.3774 16.8489 56.3498 16.8684 56.3222C16.8879 56.2946 16.9074 56.267 16.9205 56.2394C16.94 56.2118 16.9595 56.1842 16.979 56.1566C16.9985 56.129 17.0115 56.1014 17.0311 56.0738C17.0441 56.0462 17.0636 56.0186 17.0831 55.9979C17.1026 55.9703 17.1157 55.9427 17.1352 55.922C17.1547 55.8944 17.1677 55.8737 17.1872 55.8461C17.3239 55.6391 17.454 55.4252 17.6232 55.2596C17.7923 55.094 17.955 54.9146 18.1177 54.7421C18.6122 54.2177 19.1262 53.714 19.6207 53.1896C20.1152 52.6651 20.6292 52.1545 21.1237 51.637C21.2863 51.4645 21.462 51.2989 21.6247 51.1195C21.9565 50.7745 22.3013 50.4364 22.6267 50.0914C22.7958 49.9189 22.965 49.7533 23.1277 49.5808C23.4595 49.2289 23.7978 48.8908 24.1297 48.5527C24.6372 48.0421 25.1252 47.5107 25.6392 47.0139C25.7238 46.9311 25.8084 46.8414 25.8864 46.7586C26.1337 46.4964 26.3939 46.248 26.6412 45.9858C26.8039 45.8133 26.9665 45.6339 27.1357 45.4683C27.2203 45.3855 27.3179 45.3165 27.409 45.2337C27.9555 44.7645 28.502 44.2884 29.0421 43.8192C29.6797 43.2672 30.3239 42.722 30.955 42.1769C26.4915 47.0553 22.0281 51.9475 17.6036 56.8673C17.5841 56.888 17.5711 56.9087 17.5451 56.9294C17.5386 56.9432 17.5256 56.9501 17.5191 56.9639C17.5321 56.957 17.5386 56.9432 17.5516 56.9363C18.8008 55.646 20.0436 54.335 21.2798 53.024C22.0541 52.2028 22.8219 51.3748 23.5831 50.5606C24.0451 50.0707 24.5005 49.567 24.9625 49.0771C25.5806 48.4216 26.1792 47.7453 26.7973 47.0898C28.0336 45.7788 29.2438 44.4402 30.48 43.1292C31.0786 42.4943 31.6577 41.8802 32.2498 41.2523C32.2628 41.2385 32.3149 41.1902 32.3409 41.1764C32.3734 41.2799 32.4385 41.3489 32.4645 41.4455C32.4905 41.5352 32.497 41.6456 32.5166 41.7422C32.5621 41.9837 32.6012 42.2321 32.6402 42.4736C32.8744 44.6265 33.2063 47.7178 33.2388 47.9662C33.3494 48.8011 33.4665 49.6429 33.5771 50.4778C33.8374 52.3891 35.1127 60.0276 35.3469 60.552C35.4575 60.8073 35.6787 61.0626 35.9585 61.0902C36.2383 61.1178 36.5636 60.8142 36.5961 60.5175C36.6417 60.1311 36.4986 59.7516 36.4986 59.3652C36.4986 58.4061 36.4986 57.4469 36.4986 56.4878C36.4986 56.1911 36.4986 55.8944 36.492 55.5977C36.479 55.0664 36.453 54.5282 36.414 53.9969C36.3359 52.9205 36.1797 51.8716 36.0496 50.8021C36.0171 50.533 35.8739 48.8218 35.8674 48.5803C37.4615 51.8854 40.6432 58.5096 40.6432 58.5096C40.7148 58.62 40.9815 58.6131 41.2613 58.4889C41.5606 58.3578 41.7493 58.137 41.6973 58.0059C41.6973 58.0059 41.6973 58.0059 41.6973 57.999C40.4285 54.6524 39.1662 51.2989 37.8714 47.973C38.7173 49.1461 39.5566 50.3536 40.396 51.5611C40.448 51.6439 40.5066 51.706 40.5521 51.7888C40.6042 51.8716 40.6237 51.9613 40.6627 52.0648C41.1637 53.3621 41.7233 54.6317 42.2698 55.8392C41.5997 54.6041 41.0076 53.2793 40.4545 51.913C40.4545 51.9061 40.448 51.9061 40.448 51.9199C40.7929 52.8446 41.1247 53.7692 41.5021 54.6662C41.8729 55.5563 42.3024 56.4119 42.7708 57.1985C42.9921 57.578 43.2328 57.9714 43.5126 58.344C43.7078 58.5993 43.955 58.8615 44.1893 59.0823C44.417 59.2893 44.8334 59.4825 45.2238 59.3721C45.4515 59.31 45.6142 59.1651 45.7508 58.965C45.8809 58.7718 45.959 58.5165 45.946 58.2198C45.9265 57.93 45.8679 57.6747 45.7768 57.4262C46.0306 57.3089 46.2909 57.1778 46.5316 57.0536C46.5641 57.0398 46.6097 57.026 46.6357 56.9984C46.1347 55.8668 45.6077 54.749 45.1132 53.6105C44.6187 52.4788 44.0851 51.361 43.5907 50.2225C43.0896 49.084 42.5691 47.9662 42.0681 46.8345C41.5606 45.7098 41.0206 44.5989 40.5261 43.4742C40.7213 43.5501 40.936 43.6053 41.1247 43.6881C43.3694 48.6079 45.6272 53.5208 47.937 58.3785C47.9435 58.3923 47.9565 58.3923 47.9435 58.3785C45.8094 53.5208 43.6427 48.6562 41.5086 43.8192C43.9225 44.661 46.3494 45.489 48.7829 46.317C48.7959 46.317 48.7959 46.3101 48.7829 46.3101C47.5596 45.834 46.3234 45.3924 45.0937 44.9301C43.8639 44.4678 42.6342 44.0055 41.3914 43.557C41.3914 43.5501 41.3849 43.5501 41.3784 43.5432C41.2548 43.2327 41.0987 42.9221 40.9815 42.6323C42.0681 43.005 43.1872 43.3776 44.2803 43.7364C44.4365 43.7847 44.5927 43.8468 44.7488 43.8951C46.3429 44.4057 47.9305 44.9301 49.5441 45.3924C49.8629 45.4821 50.1752 45.6063 50.4876 45.7098C51.1122 45.9168 51.7368 46.1445 52.3549 46.3584C52.973 46.5792 53.5912 46.8 54.1963 47.0346C54.6517 47.214 55.1137 47.3796 55.5561 47.5797C55.6928 47.6625 55.8749 47.7729 55.8749 47.7729C55.901 47.7799 55.9335 47.7867 55.966 47.7798C56.2914 47.766 56.7208 47.1588 56.955 46.3377C57.2153 45.4407 57.1437 44.5644 56.8054 44.4609C56.8054 44.4609 56.6102 44.4264 56.5972 44.4195C56.6752 44.0262 56.6362 43.7157 56.4215 43.6467C56.402 43.6398 51.2293 41.8802 48.7113 41.0384C48.3469 40.9142 47.9825 40.7969 47.6117 40.6727C46.1802 40.1966 44.7553 39.7205 43.3174 39.2513C43.4735 39.2513 43.6297 39.2444 43.7924 39.2444C44.0721 39.341 46.0696 40.0172 46.6878 40.2242C47.7223 40.5692 48.7243 40.8935 49.7393 41.2385C50.7088 41.5697 52.6737 42.2459 52.6868 42.2459C52.6868 42.2459 52.7193 42.2597 52.7518 42.239C52.8299 42.1976 52.921 42.0803 52.9665 41.9285C53.0121 41.756 53.0056 41.5904 52.9665 41.5145C52.9665 41.5145 52.9535 41.48 52.9145 41.4662C52.8885 41.4593 52.8689 41.4524 52.8494 41.4455C52.5696 41.342 52.2964 41.2385 52.0231 41.135C51.0601 40.79 50.1037 40.4519 49.1537 40.1C48.5226 39.8654 47.885 39.6377 47.2473 39.41C47.0196 39.3341 46.7919 39.2444 46.5706 39.1616C52.8169 38.9339 59.5121 38.4164 56.942 37.9609ZM15.502 34.1245C15.1312 34.0348 14.7733 33.8899 14.4285 33.7726C14.5261 33.7795 14.6172 33.8278 14.7148 33.8554C14.9034 33.9175 15.0986 33.9796 15.3003 34.0348C15.3914 34.0624 15.4955 34.0831 15.5736 34.1245C15.5606 34.1521 15.5281 34.1314 15.502 34.1245ZM31.7553 19.9033C31.7748 19.7446 31.7878 19.5721 31.8009 19.4134C31.8269 19.1788 31.8594 18.958 31.8789 18.7441C31.97 19.3306 32.0351 19.9378 32.1327 20.5243C32.1587 20.6899 32.1912 20.9038 32.1978 21.1108C32.0676 20.821 31.931 20.5105 31.7943 20.2069C31.7748 20.1586 31.7423 20.1103 31.7423 20.0758C31.7293 20.0206 31.7488 19.9654 31.7553 19.9033ZM31.5796 21.4006C31.5926 21.2833 31.6187 21.1108 31.6317 21.0004C31.8139 21.3937 32.0026 21.8077 32.1847 22.2148C32.2108 22.2769 32.2498 22.3252 32.2628 22.3804C32.2758 22.4425 32.2693 22.5184 32.2758 22.5874C32.2888 22.7806 32.2953 22.9876 32.3084 23.2015C32.0871 22.7047 31.8464 22.1596 31.6122 21.6421C31.5731 21.5524 31.5666 21.5248 31.5796 21.4006ZM31.3324 15.1767C31.2998 15.5217 31.2543 15.8943 31.2218 16.2393C31.1697 16.7499 31.1177 17.2536 31.0721 17.7366C31.1827 16.8534 31.2803 15.9564 31.3974 15.087C31.4365 15.2526 31.404 15.4665 31.3844 15.6597C31.3064 16.6395 31.1957 17.6538 31.1047 18.6268C31.0591 18.5302 31.0136 18.4404 30.968 18.3369C30.955 18.3093 30.9355 18.261 30.929 18.2334C30.9225 18.1713 30.942 18.0885 30.955 18.0126C31.0786 16.9086 31.2088 15.7425 31.3324 14.673C31.3844 14.8179 31.3454 15.0042 31.3324 15.1767ZM29.4975 16.8258C29.4715 16.5843 29.439 16.3566 29.413 16.1151C29.8554 17.0673 30.2783 18.0333 30.7208 18.9856C30.7013 19.1443 30.6817 19.303 30.6687 19.4686C30.2718 18.5923 29.8944 17.709 29.4975 16.8258ZM30.5776 20.2138C30.5646 20.2966 30.5516 20.3863 30.5451 20.476C30.2718 19.8412 30.0246 19.1995 29.7513 18.5509C29.7318 18.5095 29.7058 18.4681 29.6927 18.4267C29.6667 18.33 29.6797 18.2196 29.6537 18.1299C29.9725 18.82 30.2653 19.5238 30.5776 20.2138ZM29.0746 16.7775C29.1917 17.0259 29.2958 17.2881 29.4065 17.5365C29.413 17.6124 29.426 17.6745 29.426 17.7573C29.3089 17.4882 29.1982 17.2053 29.0811 16.9431C29.0876 16.8741 29.0681 16.8327 29.0746 16.7775ZM29.2178 15.6735C29.2373 15.8943 29.2633 16.1013 29.2828 16.3152C29.1592 16.053 29.0486 15.7701 28.925 15.5079C28.9055 15.294 28.8794 15.087 28.8599 14.88C28.9835 15.1422 29.0941 15.4182 29.2178 15.6735ZM28.7298 13.7898C28.7103 13.5827 28.6842 13.3895 28.6647 13.1825C28.8013 13.4723 28.9185 13.776 29.0486 14.0727C29.0681 14.2383 29.0811 14.397 29.1006 14.5695C28.977 14.3142 28.8599 14.0451 28.7298 13.7898ZM29.2048 14.4453C29.478 15.087 29.7578 15.7218 30.0051 16.3911C29.9855 16.4118 29.9855 16.3773 29.979 16.3704C29.914 16.2807 29.8619 16.1565 29.8099 16.0461C29.6537 15.7356 29.5041 15.4251 29.3479 15.1008C29.3154 15.0387 29.2698 14.9766 29.2568 14.9145C29.2373 14.8524 29.2373 14.7627 29.2308 14.6868C29.2308 14.604 29.2113 14.5281 29.2048 14.4453ZM30.6752 20.4553C30.7403 20.5726 30.7858 20.7037 30.8444 20.821C30.8444 20.9314 30.8184 21.0211 30.8119 21.1246C30.7533 21.0004 30.7078 20.8693 30.6492 20.7451C30.6557 20.6416 30.6752 20.5588 30.6752 20.4553ZM30.8119 19.7998C30.7988 19.7722 30.7728 19.7377 30.7663 19.7101C30.7598 19.6549 30.7858 19.5445 30.7923 19.4755C30.8054 19.3858 30.8119 19.2961 30.8249 19.2271C30.8899 19.3444 30.9355 19.4755 31.0006 19.5928C30.981 19.7584 30.955 19.9102 30.942 20.0827C30.8899 19.9999 30.8509 19.8964 30.8119 19.7998ZM23.3033 3.92945C23.2903 3.90185 23.2773 3.84665 23.2578 3.81215C23.2448 3.77765 23.2188 3.74315 23.2773 3.72935C23.2968 3.72245 23.3033 3.75695 23.3099 3.77075C23.3619 3.89495 23.414 4.03295 23.466 4.16406C23.8694 5.20598 24.2923 6.2893 24.7022 7.34502C24.2338 6.2203 23.7718 5.06108 23.3033 3.92945ZM24.7998 5.95809C24.6307 5.55789 24.455 5.14388 24.2728 4.71607C24.1362 4.39866 23.967 3.98465 23.8109 3.63275C23.8109 3.61205 23.7913 3.57754 23.7848 3.54994C23.7588 3.47404 23.7523 3.49474 23.8109 3.47404C23.8499 3.50854 23.8564 3.57064 23.8759 3.61895C24.3574 4.72987 24.8584 5.86149 25.3529 6.97931C26.0361 8.53185 26.7258 10.0775 27.4155 11.6438C27.5586 11.9681 27.7148 12.32 27.8709 12.665C27.8904 12.7133 27.9295 12.7616 27.936 12.803C27.949 12.8444 27.9425 12.8996 27.949 12.9479C27.962 13.079 27.988 13.2308 28.001 13.3688C26.9145 10.9262 25.8669 8.44214 24.7998 5.95809ZM28.1312 7.51062C28.1572 7.57963 28.1637 7.67623 28.1767 7.76593C28.1702 7.57963 28.1377 7.38642 28.1182 7.20012C28.0336 6.4342 27.9555 5.69589 27.8839 4.90927C27.8579 4.65397 27.8709 4.35726 28.0076 4.13646C28.1182 3.95705 28.3459 3.77765 28.5541 3.78455C28.9315 3.79835 29.2438 4.30206 29.3609 4.62637C29.439 4.81957 29.5171 5.03347 29.5756 5.24048C29.6342 5.44748 29.6797 5.65449 29.7448 5.86839C29.992 6.73091 30.1872 7.62103 30.3629 8.52495C30.5386 9.42886 30.7078 10.3811 30.8509 11.3264C30.981 12.1682 31.0981 12.9686 31.2283 13.8243C31.2413 13.9485 31.2738 14.0727 31.2738 14.19C31.2738 14.2659 31.2543 14.3487 31.2478 14.4315C31.1177 15.5976 30.9615 16.8534 30.8314 18.0126C30.3304 16.881 29.8034 15.6804 29.2893 14.5212C29.2568 14.4453 29.2113 14.3625 29.1917 14.2935C29.1592 14.1831 29.1592 14.0451 29.1397 13.914C29.0291 13.0238 28.925 12.1475 28.8144 11.2505C28.6777 10.1948 28.5606 9.17356 28.4305 8.11094C28.437 8.35244 28.476 8.59395 28.5021 8.83545C28.6907 10.526 28.8599 12.2372 29.0421 13.9485C28.9315 13.707 28.8144 13.4516 28.7038 13.1963C28.6907 13.1618 28.6647 13.1204 28.6582 13.0928C28.6452 13.0445 28.6452 12.9755 28.6387 12.9134C28.5476 12.0578 28.4695 11.1539 28.3849 10.3052C28.2938 9.35986 28.1962 8.43524 28.1312 7.51062ZM25.8084 14.3694C25.8604 14.466 25.9255 14.6523 25.9645 14.7489C26.8364 16.9776 27.7017 19.2064 28.5866 21.4351C28.7038 21.7249 28.8209 22.0354 28.938 22.339C28.9575 22.3804 28.977 22.4218 28.99 22.4632C29.0096 22.5529 29.0031 22.6288 29.0161 22.7323C27.9425 19.9378 26.8884 17.2053 25.8344 14.4453C25.8279 14.4246 25.8214 14.4108 25.8084 14.3832C25.8018 14.3694 25.7823 14.328 25.8084 14.3694ZM27.2528 36.4843C27.3504 36.3808 27.448 36.2566 27.5521 36.1531C27.6302 36.1807 27.7148 36.2014 27.7863 36.229C27.8059 36.2359 27.7668 36.2704 27.7538 36.2773C27.6432 36.4015 27.5066 36.5464 27.3829 36.6637C27.3179 36.6361 27.2463 36.6085 27.1682 36.5878C27.1682 36.5533 27.2203 36.5188 27.2528 36.4843ZM27.0316 36.4774C27.0186 36.4912 27.0056 36.5188 26.986 36.5188C26.96 36.505 27.0056 36.4843 27.0186 36.4705C27.1227 36.3532 27.2463 36.2152 27.3504 36.1048C27.2658 36.2014 27.1422 36.3601 27.0316 36.4774ZM25.7953 14.328C25.7758 14.3349 25.7693 14.2659 25.7563 14.2452C25.7498 14.2452 25.7498 14.2383 25.7498 14.2314C25.7693 14.259 25.7758 14.3004 25.7953 14.328ZM25.7368 14.1969C25.7433 14.2038 25.7433 14.2107 25.7498 14.2176C25.7498 14.2314 25.7368 14.2038 25.7368 14.1969ZM25.7368 14.1831C25.7303 14.1969 25.7238 14.1762 25.7238 14.1624C25.7303 14.1693 25.7303 14.1762 25.7368 14.1831ZM25.7043 14.1072C25.7043 14.121 25.6912 14.0934 25.6912 14.0865C25.6977 14.0865 25.7043 14.1003 25.7043 14.1072ZM25.6847 14.052C25.6912 14.0589 25.6912 14.0658 25.6977 14.0727C25.6912 14.0865 25.6782 14.0589 25.6847 14.052ZM25.6847 14.0382C25.6782 14.052 25.6717 14.0244 25.6717 14.0175C25.6717 14.0244 25.6782 14.0313 25.6847 14.0382ZM25.6522 13.9623C25.6522 13.9761 25.6392 13.9554 25.6392 13.9416C25.6457 13.9485 25.6457 13.9554 25.6522 13.9623ZM25.6652 13.9899C25.6652 14.0037 25.6522 13.9761 25.6522 13.9692C25.6587 13.9761 25.6587 13.983 25.6652 13.9899ZM26.3484 20.5726C26.7063 21.3661 26.9795 22.2079 27.3049 23.0359C27.1292 22.6495 26.9275 22.27 26.7583 21.8767C26.5891 21.4696 26.4395 21.0556 26.2768 20.6485C25.9515 19.8343 25.6327 19.0063 25.3139 18.192C25.6717 18.9787 25.997 19.7791 26.3484 20.5726ZM25.4765 21.2971C25.6717 21.7111 25.8344 22.1458 26.0101 22.5736C26.1857 23.0014 26.3614 23.4224 26.5306 23.8571C25.8864 22.7185 25.2553 21.5386 24.6372 20.3587C24.5331 20.1586 24.429 19.9654 24.3249 19.7653C24.2208 19.5652 24.1362 19.3513 24.0516 19.1374C23.3749 17.4192 22.6982 15.7011 22.0346 13.9347C22.0346 13.9071 22.0671 13.9692 22.0736 13.983C22.4445 14.7696 22.8154 15.57 23.1927 16.3566C23.5831 17.1777 23.9475 18.0057 24.3314 18.82C24.7218 19.648 25.0926 20.476 25.4765 21.2971ZM21.6637 4.39176C21.8979 4.99207 22.1257 5.61309 22.3599 6.2134C22.3924 6.3031 22.4185 6.3928 22.4705 6.4687C22.2493 5.75109 22.002 5.05418 21.7548 4.35726L21.7873 4.34346C22.4315 5.86839 23.0561 7.41402 23.6807 8.95965C23.5831 9.00106 23.479 9.04246 23.3879 9.09766C23.1472 8.51115 22.9195 7.93843 22.6852 7.35192C22.6071 7.15872 22.5356 6.95861 22.464 6.75851C22.3144 6.3652 22.1452 5.99949 21.9825 5.61309C21.8264 5.24738 21.6832 4.86097 21.6507 4.39176H21.6637ZM21.41 4.48836L21.4295 4.48146C22.002 5.93739 22.5941 7.40022 23.1797 8.86305C23.1992 8.91135 23.2448 9.00796 23.2643 9.08386C23.2643 9.07696 23.2838 9.11836 23.2838 9.11836C23.2838 9.14596 23.2773 9.13906 23.2578 9.14596C23.2318 9.15976 23.2253 9.14596 23.2123 9.11146C23.1797 9.04246 23.1472 8.93205 23.1342 8.88375C22.5746 7.40712 21.9825 5.95119 21.41 4.48836ZM20.3299 13.3757C20.3624 13.4033 20.3689 13.4516 20.3949 13.4861C20.5381 13.7622 20.6942 14.0451 20.8179 14.3556C20.9545 14.7075 21.0976 15.0663 21.2213 15.432C20.909 14.7627 20.6292 14.0589 20.3299 13.3757ZM20.8829 14.466C20.8829 14.4384 20.8894 14.466 20.8959 14.466C21.2668 15.2043 21.6442 15.9564 22.0216 16.6947C22.0866 16.8189 22.1582 16.9362 22.2103 17.0673C23.414 20.1379 24.6242 23.2498 25.932 26.2238C26.0361 26.4653 26.1532 26.6999 26.2573 26.9552C26.2573 26.9621 26.2898 26.9828 26.2638 26.9897C26.2378 26.9759 26.1987 26.9621 26.1662 26.9483C24.3444 22.8496 22.5941 18.6751 20.8829 14.466ZM21.8459 28.2938C22.0476 28.3767 22.2493 28.4733 22.451 28.5768C23.6157 29.1564 24.8194 29.7291 26.0035 30.3087L24.9885 31.0056C24.8714 30.9504 24.7478 30.8883 24.6372 30.8262C24.2338 30.6123 23.7978 30.4191 23.3749 30.2259C23.0886 30.1017 22.8089 29.9637 22.5226 29.8326C21.6832 29.4393 20.8309 29.0184 20.0566 28.563C19.8484 28.5975 19.6532 28.5423 19.484 28.4802C18.9895 28.3008 18.5341 28.0316 18.0916 27.7832C18.0526 27.7625 18.0201 27.7418 17.981 27.7142C17.5776 27.4865 17.1612 27.2588 16.7448 27.038C16.5886 26.9552 16.439 26.8724 16.2698 26.8103C16.2698 26.8034 16.2698 26.8034 16.2763 26.8034C17.968 27.1691 19.6142 27.5831 21.2148 28.0523C21.423 28.1144 21.6312 28.211 21.8459 28.2938ZM25.6847 32.1303C25.5351 32.0889 25.3919 32.013 25.2423 31.9509C25.1252 31.9026 25.0081 31.8543 24.8909 31.806C24.917 31.7922 24.9365 31.7784 24.9625 31.7715C25.2163 31.8819 25.457 31.9992 25.6847 32.1303ZM17.7793 25.2509C17.8314 25.2578 17.8899 25.2923 17.9485 25.3199C18.007 25.3475 18.0721 25.3613 18.1177 25.3889C18.1502 25.4096 18.1892 25.451 18.2218 25.4786C18.3194 25.5683 18.4365 25.6718 18.5341 25.7546C18.2022 25.6166 17.8574 25.4303 17.5126 25.2785C17.6036 25.2716 17.6882 25.2371 17.7793 25.2509ZM14.6627 24.7886C14.9425 24.9266 15.2288 25.0715 15.5085 25.2026C16.3544 25.5959 17.1872 26.0375 18.0461 26.4377C16.6472 26.1272 15.2092 25.8512 13.7713 25.5614C13.6737 25.5407 13.5696 25.5338 13.4915 25.4993C13.4525 25.4855 13.4135 25.451 13.3744 25.4234L16.3544 25.6718C16.3544 25.6718 14.7733 24.8783 12.9515 24.0848C13.0881 24.1331 13.2248 24.1745 13.3549 24.2159C13.5176 24.2642 13.6802 24.2918 13.8234 24.3677C14.1096 24.5057 14.3764 24.6506 14.6627 24.7886ZM11.4029 22.2286C12.1707 22.5184 12.9385 22.8013 13.6802 23.0773C13.5826 23.0566 13.4785 23.029 13.3614 22.9945C13.0491 22.9048 12.7303 22.8013 12.4245 22.7047C12.4505 22.6909 12.418 22.7047 12.457 22.7047C12.3334 22.6702 12.2878 22.6495 12.1642 22.6288C12.0406 22.6081 11.9104 22.6012 11.7933 22.5598C11.6957 22.5322 11.5981 22.4632 11.494 22.4149C11.442 22.3873 11.3899 22.3735 11.3379 22.3528C11.1947 22.2838 11.0581 22.2079 10.8954 22.132C10.7848 22.0837 10.6612 22.0492 10.5896 21.9664C10.8759 21.994 11.1752 22.1458 11.4029 22.2286ZM16.2243 28.1558C16.4715 28.3076 16.7513 28.4664 17.005 28.6182C16.4845 28.3905 15.964 28.1489 15.4435 27.9074C13.8819 27.1898 12.3008 26.486 10.7198 25.7822C10.8239 25.7822 10.9215 25.8098 11.0256 25.8305H11.0321L12.1187 26.0789C12.3008 26.1755 12.5025 26.279 12.7042 26.3411C12.8539 26.3894 13.0296 26.4032 13.1987 26.4032C13.3549 26.4032 13.5176 26.4101 13.6412 26.4584L14.8514 27.3278L14.9815 27.3899L17.6101 28.563L20.5055 29.9706C19.0481 29.3427 17.5711 28.7286 16.1202 28.0868C16.1592 28.1075 16.1917 28.1351 16.2243 28.1558ZM18.0201 33.1929C18.1242 33.2067 18.2283 33.2482 18.3324 33.2827C18.6382 33.3793 18.9635 33.4828 19.2758 33.5794C19.2628 33.5932 19.2563 33.5863 19.2433 33.5794C19.0351 33.5311 18.8269 33.4621 18.6187 33.4C18.4039 33.3448 18.2087 33.2619 18.0201 33.1929ZM18.6772 33.4345C20.2908 33.9313 21.9044 34.4143 23.5116 34.9111C23.5311 34.918 23.4985 34.9387 23.4985 34.9456C23.4335 35.0146 23.3359 35.0905 23.2643 35.1595C21.7353 34.5868 20.1997 34.0279 18.6772 33.4345C18.6707 33.4414 18.6707 33.4345 18.6772 33.4345ZM20.3038 35.9047C20.8634 36.0634 21.41 36.2359 21.9695 36.3877C21.9435 36.4291 21.911 36.4567 21.8784 36.4774C21.3709 36.2842 20.8114 36.0979 20.3038 35.9047ZM23.0496 37.3468C21.1497 38.9684 19.2563 40.5899 17.3629 42.2183C17.3499 42.2252 17.3499 42.2252 17.3564 42.2114C17.981 41.5697 18.5926 40.9142 19.2433 40.2932C19.3474 40.1897 19.445 40.0724 19.5556 39.9689C19.6597 39.8654 19.7703 39.7619 19.8679 39.6515C20.2648 39.203 20.6942 38.7821 21.1041 38.3474C21.41 38.023 21.7353 37.7125 22.0476 37.3882C22.1517 37.2778 22.2558 37.1743 22.3729 37.0777C22.6006 37.1605 22.8349 37.2433 23.0626 37.3261C23.0756 37.3261 23.0496 37.3399 23.0496 37.3468ZM23.4075 37.0294C23.1667 36.9397 22.926 36.85 22.6787 36.7672C22.6852 36.7189 22.7633 36.6844 22.7893 36.6361C23.0626 36.712 23.3229 36.7948 23.5961 36.8707C23.5311 36.9259 23.479 36.988 23.4075 37.0294ZM22.8999 32.8548C20.7593 32.1372 18.5991 31.4334 16.4845 30.702C19.3344 31.6266 22.2103 32.5305 25.0341 33.4828C25.0015 33.5311 24.969 33.538 24.917 33.5242C24.7868 33.4897 24.6437 33.4345 24.5136 33.3931C23.9735 33.2206 23.427 33.0342 22.8999 32.8548ZM24.0321 35.4424C24.0321 35.4079 24.0646 35.3872 24.0906 35.3665C24.1557 35.3044 24.2273 35.2354 24.2923 35.1664C24.2923 35.1595 24.3053 35.1595 24.3053 35.1526C24.6307 35.2423 24.943 35.3458 25.2618 35.4424C25.1447 35.5459 25.0211 35.6494 24.9039 35.7529C24.6112 35.6563 24.3249 35.539 24.0321 35.4424ZM24.442 37.4089C24.5201 37.333 24.5981 37.264 24.6827 37.195C24.7933 37.2295 24.9039 37.264 25.0146 37.2985C24.9495 37.3813 24.8844 37.4641 24.8129 37.5331C24.6892 37.4986 24.5656 37.4434 24.442 37.4089ZM13.2833 55.7288C13.8624 55.2044 14.461 54.6731 15.0466 54.1418C17.0441 52.327 19.0286 50.4709 21.0196 48.6424C20.8699 48.8977 20.6942 49.1461 20.5251 49.4014C20.499 49.4359 20.4795 49.4842 20.46 49.5118C20.4275 49.5532 20.3624 49.5946 20.3169 49.636C19.6207 50.2432 18.9049 50.8918 18.2153 51.5059C18.3259 51.4369 18.43 51.3541 18.5341 51.2782C18.0981 51.6853 17.6557 52.0786 17.1937 52.465C15.8209 53.6243 14.4285 54.7835 13.0556 55.9427C13.1076 55.8668 13.1987 55.8047 13.2833 55.7288ZM14.1747 55.1975C13.5826 55.7219 12.9775 56.2739 12.3854 56.8052C12.3659 56.819 12.3529 56.8397 12.3334 56.8535C12.3334 56.819 12.3269 56.7845 12.3204 56.7431C12.3399 56.7155 12.3594 56.6948 12.3789 56.6741C12.4245 56.6327 12.47 56.612 12.5221 56.5844C12.5611 56.5568 12.6001 56.5154 12.6392 56.4809C13.2313 55.9772 13.8559 55.4597 14.4415 54.9491C14.3634 55.0388 14.2658 55.1147 14.1747 55.1975ZM14.474 54.9284C14.4285 54.9629 14.487 54.9215 14.474 54.9284V54.9284ZM18.3909 51.8164C17.9094 52.258 17.4019 52.6927 16.9009 53.1344C16.2373 53.714 15.5671 54.3005 14.8904 54.8663C14.962 54.7835 15.0466 54.7214 15.1312 54.6524C15.3849 54.4385 15.6387 54.2246 15.8794 54.0038C16.2047 53.7071 16.5301 53.4104 16.8554 53.1068C17.1807 52.8101 17.493 52.4926 17.8314 52.2166C18.1697 51.9337 18.508 51.6508 18.8594 51.3817C18.7293 51.5404 18.5536 51.6715 18.3909 51.8164ZM18.3454 51.7267C18.3649 51.6922 18.4039 51.6577 18.4365 51.6301C18.6642 51.4162 18.8984 51.1885 19.1522 50.9815C19.3994 50.7745 19.6467 50.5675 19.8874 50.3605C19.8809 50.4226 19.8159 50.4502 19.7638 50.4985C19.3018 50.8918 18.8073 51.3196 18.3454 51.7267ZM19.6922 52.1131C19.7833 51.9613 19.8874 51.8164 19.9915 51.6577C20.0241 51.6094 20.0566 51.5473 20.0891 51.5059C20.1282 51.4645 20.1737 51.4369 20.2193 51.4024C20.5055 51.1609 20.8048 50.8987 21.0846 50.6503C20.6487 51.1402 20.1542 51.6232 19.6922 52.1131ZM20.7268 43.4052C20.6877 43.4397 20.6162 43.5294 20.6031 43.5294C20.5966 43.5294 20.6617 43.4604 20.6747 43.4466C20.8504 43.2465 21.0391 43.0464 21.2017 42.8531C21.2993 42.7358 21.4165 42.6392 21.5076 42.5219C21.8979 42.0734 22.3209 41.6387 22.7243 41.1833C23.2188 40.6244 23.7458 40.0655 24.2468 39.5135C24.3509 39.4031 24.455 39.2927 24.5526 39.1754C24.6502 39.065 24.7543 38.9546 24.8584 38.8373C25.0081 38.6648 25.1577 38.5061 25.3139 38.3405C25.3659 38.2853 25.405 38.2163 25.47 38.1818C25.4895 38.1956 25.5156 38.2025 25.5416 38.2094C25.2618 38.5613 24.956 38.8925 24.6697 39.2444C24.9885 38.9132 25.2943 38.5613 25.6197 38.237C25.6912 38.2646 25.7628 38.2922 25.8409 38.3129C25.5286 38.6786 25.1902 39.0098 24.8714 39.3755C24.8454 39.4031 24.8259 39.4238 24.7998 39.4514C24.7803 39.479 24.7673 39.5135 24.7478 39.5342C24.7088 39.5756 24.6567 39.617 24.6177 39.6584C23.3164 40.9142 22.0216 42.1424 20.7268 43.4052ZM26.3224 35.8288C26.2378 35.9392 26.1142 36.0565 26.0166 36.1669C25.9775 36.16 25.9515 36.1462 25.919 36.1324C26.0491 36.0082 26.1922 35.8978 26.3289 35.7736C26.3354 35.7736 26.3354 35.7805 26.3419 35.7805C26.3614 35.7943 26.3289 35.815 26.3224 35.8288ZM26.3744 37.7332C26.3744 37.7608 26.3484 37.7815 26.3289 37.8022C26.2703 37.8712 26.1922 37.9402 26.1272 38.0093C26.0491 37.9885 25.9775 37.9609 25.9125 37.9264C25.8864 37.9195 25.9255 37.9057 25.9255 37.8988C25.984 37.8298 26.0686 37.7332 26.1337 37.6642C26.2248 37.678 26.2898 37.7194 26.3744 37.7332ZM25.971 37.609C25.9905 37.6159 26.0166 37.6228 26.0361 37.6297C25.9645 37.7263 25.8864 37.816 25.8084 37.8988C25.7823 37.8919 25.7693 37.8781 25.7433 37.8781C25.7368 37.8505 25.7758 37.8298 25.7953 37.8091C25.8539 37.7539 25.9125 37.6711 25.971 37.609ZM23.7523 46.5654C23.6937 46.6413 23.6157 46.6965 23.5441 46.7655C23.3294 46.9587 23.1016 47.1588 22.8869 47.3589C22.926 47.283 22.9845 47.2071 23.0366 47.1312C23.0561 47.1036 23.0691 47.0691 23.0821 47.0484C23.1277 47.0001 23.1927 46.9587 23.2513 46.9242C23.414 46.8069 23.5961 46.6896 23.7523 46.5654ZM26.3484 44.7507C25.0341 45.8409 23.7133 46.9656 22.3989 48.0628C22.4965 47.9179 22.5811 47.7799 22.7113 47.6625C23.1407 47.2692 23.5831 46.8621 24.0126 46.455C24.1687 46.3101 24.3249 46.1583 24.494 46.0341C25.2032 45.5373 25.906 45.0267 26.6021 44.523C26.5241 44.6058 26.4395 44.6817 26.3484 44.7507ZM26.8039 34.1245C26.446 34.0141 26.0881 33.9037 25.7433 33.7864C25.7173 33.7795 25.7693 33.745 25.7823 33.7312C26.1402 33.8416 26.4915 33.9658 26.8494 34.0762C26.8364 34.1038 26.8169 34.1107 26.8039 34.1245ZM26.8364 31.737C26.8234 31.737 26.7648 31.7094 26.7193 31.6956C26.4135 31.5921 26.1142 31.4817 25.8214 31.3644C26.1532 31.2057 26.4915 31.047 26.7713 30.9021C26.8624 31.1091 26.96 31.323 27.0511 31.53C27.0316 31.5783 26.9925 31.599 26.9535 31.6404C26.921 31.6749 26.8754 31.737 26.8364 31.737ZM26.8754 43.419C26.8689 43.4052 26.8884 43.3983 26.8949 43.3914C27.0056 43.2879 27.1227 43.1844 27.2398 43.0809C27.5781 42.7841 27.936 42.4736 28.2938 42.1907C28.2223 42.2735 28.1377 42.3494 28.0596 42.4184C28.925 41.6525 29.8164 40.8452 30.6947 40.0586C30.8184 40.1069 30.942 40.1483 31.0656 40.1897C29.6797 41.273 28.2678 42.3356 26.8754 43.419ZM31.7553 39.5273C31.6382 39.6515 31.5081 39.8033 31.3779 39.9206C31.2478 39.8792 31.1307 39.8309 31.0071 39.7895C31.1567 39.6446 31.3194 39.5066 31.469 39.3686C31.5796 39.3962 31.6837 39.4376 31.8009 39.4652C31.8074 39.4928 31.7683 39.5066 31.7553 39.5273ZM31.5016 22.8082C31.482 22.7599 31.4495 22.6978 31.4495 22.6633C31.443 22.6081 31.4625 22.546 31.469 22.4839C31.4755 22.408 31.482 22.3528 31.4885 22.2907C31.7878 22.9531 32.0741 23.6294 32.3734 24.2918C32.3864 24.5264 32.3995 24.761 32.4125 24.9956C32.1067 24.278 31.8074 23.5466 31.5016 22.8082ZM34.8069 43.695C34.8134 43.9296 34.8199 44.1642 34.8264 44.4057C34.475 43.6881 34.1302 42.9566 33.7788 42.239C33.8244 42.2873 33.8699 42.3494 33.909 42.4115C34.2018 42.8324 34.5141 43.2672 34.8069 43.695ZM33.8114 40.1345C33.8504 40.2587 33.8959 40.3622 33.935 40.4864C33.8374 40.3553 33.7398 40.2242 33.6552 40.0862C33.7073 40.1 33.7528 40.1207 33.8114 40.1345ZM33.1022 23.8709C33.2063 24.0848 33.2973 24.3125 33.408 24.5264C33.4145 24.6023 33.4145 24.6782 33.421 24.7541C33.3169 24.5195 33.2193 24.2711 33.1087 24.0365C33.1152 23.9675 33.1022 23.9261 33.1022 23.8709ZM33.2518 25.3268C33.2258 25.2647 33.1802 25.2026 33.1672 25.1336C33.1542 25.0715 33.1607 24.9749 33.1542 24.8921C33.1412 24.6989 33.1347 24.4781 33.1217 24.2642C33.1802 24.3884 33.2778 24.6092 33.3494 24.761C33.3819 24.8231 33.421 24.8921 33.4275 24.9611C33.4405 25.0508 33.434 25.1888 33.4405 25.2992C33.4405 25.3337 33.4535 25.382 33.447 25.4027C33.434 25.4579 33.3754 25.4855 33.3299 25.52C33.3104 25.4648 33.2843 25.3958 33.2518 25.3268ZM33.3494 41.6318C33.3819 41.6525 33.4015 41.6939 33.4275 41.7215C33.447 41.756 33.486 41.7836 33.4991 41.825C33.5121 41.8595 33.5251 41.9078 33.5381 41.9423C33.5771 42.0458 33.6292 42.17 33.6617 42.2804C33.5511 42.0734 33.46 41.8457 33.3494 41.6318ZM34.2343 45.9927C34.1562 45.8271 33.9805 45.3303 33.7723 44.7093C33.7268 44.4816 33.6942 44.2539 33.6552 44.0262C34.0131 44.7231 34.3644 45.5304 34.7353 46.2618C34.7873 46.3653 34.8459 46.4757 34.8849 46.5861C34.8849 46.593 34.8849 46.593 34.8849 46.5999C34.9045 46.6965 34.8979 46.8276 34.8979 46.938C34.8979 47.0829 34.9045 47.2278 34.911 47.3727C34.6117 46.7793 34.3449 46.2273 34.2343 45.9927ZM42.9921 55.3493C43.1027 55.508 43.2198 55.6805 43.3304 55.8461C43.6362 56.2808 43.9485 56.7086 44.2478 57.1571C44.3975 57.3779 44.5536 57.6057 44.6447 57.8748C44.6382 57.9024 44.5992 57.8403 44.5796 57.8196C44.2608 57.4538 43.955 57.0605 43.6752 56.6396C43.3759 56.1842 43.1287 55.6874 42.8684 55.2044C42.9205 55.2458 42.953 55.2941 42.9921 55.3493ZM38.8149 37.8091C39.3354 37.954 39.8559 38.0989 40.3764 38.237L40.3114 38.2991C39.8104 38.1334 39.3094 37.9678 38.8149 37.8091ZM39.6087 40.4726C39.394 40.4105 39.1792 40.3415 38.9645 40.2794C38.8799 40.0931 38.7888 39.9206 38.7043 39.7343C38.9255 39.8102 39.1467 39.8792 39.3744 39.9413C39.4525 40.1207 39.5306 40.2932 39.6087 40.4726ZM39.6867 36.9397C39.6867 36.9466 39.7128 36.9535 39.6867 36.9535C39.1857 36.781 38.6912 36.6154 38.1837 36.4498C38.1317 36.3601 38.0992 36.2497 38.0471 36.16C38.1187 36.1738 38.1837 36.2221 38.2553 36.2497C38.7238 36.4774 39.2118 36.712 39.6867 36.9397ZM38.6587 34.228C38.5221 34.3591 38.3854 34.4902 38.2423 34.6144C37.8649 34.435 37.5006 34.2418 37.1232 34.0624C37.0061 33.7795 36.8759 33.4966 36.7523 33.2206C36.8174 33.1377 36.8955 33.0825 36.967 33.0135C37.6762 33.2827 38.3594 33.5725 39.0686 33.8347C38.9385 33.9727 38.7954 34.0969 38.6587 34.228ZM37.7153 36.2842C37.5591 36.229 37.4095 36.1738 37.2533 36.1255C37.3249 36.0358 37.4095 35.9599 37.494 35.884C37.5201 35.884 37.5266 35.8978 37.5526 35.9047C37.5982 36.0289 37.6632 36.1531 37.7153 36.2842ZM37.1102 35.6908C37.0646 35.746 37.0061 35.8012 36.9475 35.8564C36.928 35.8702 36.915 35.8978 36.8889 35.8978C36.8434 35.7667 36.7848 35.6494 36.7393 35.5252C36.8759 35.5735 36.9865 35.6425 37.1102 35.6908ZM39.7193 33.2344C39.0036 32.9721 38.2878 32.7237 37.5721 32.4615C37.5461 32.4546 37.5916 32.427 37.6047 32.4132C37.6307 32.3925 37.6502 32.3649 37.6762 32.3442C38.3854 32.6133 39.0816 32.8893 39.7908 33.1516C39.7908 33.1791 39.7388 33.2068 39.7193 33.2344ZM42.3869 33.9934C43.8769 34.5454 46.7333 35.5942 48.2493 36.1255C48.3014 36.1462 48.3469 36.1669 48.399 36.1876C48.4445 36.2014 48.5096 36.2083 48.5291 36.2566C48.4901 36.298 48.386 36.2911 48.3274 36.2704C48.2818 36.2566 48.2428 36.2221 48.2233 36.2014C46.7073 35.6425 43.8639 34.5868 42.3869 33.9934C42.3739 34.0003 42.3739 33.9934 42.3869 33.9934ZM47.7483 36.1669C47.8069 36.1876 47.8654 36.2014 47.9175 36.2221C48.0736 36.2842 48.2428 36.3532 48.4055 36.4153C48.438 36.4291 48.4836 36.436 48.5031 36.4705C47.911 36.2497 45.972 35.5528 45.3799 35.332C43.6232 34.6765 41.8599 34.021 40.0836 33.3655C40.1032 33.3379 40.1292 33.3172 40.1487 33.2965C42.2308 34.09 45.6727 35.3665 47.7483 36.1669ZM52.4785 21.9664C52.3679 22.0768 52.2313 22.1596 52.1012 22.27C51.2098 22.9807 50.3314 23.726 49.4595 24.4574C47.4685 26.141 45.5296 27.9005 43.6037 29.667C42.6732 30.5226 41.7428 31.3782 40.8059 32.2338C40.7798 32.2614 40.7538 32.289 40.7148 32.2959C40.0056 32.0406 39.3029 31.7715 38.5871 31.5162C38.5676 31.4955 38.6067 31.4748 38.6132 31.4679C38.7108 31.3644 38.8409 31.2609 38.945 31.1574C39.3159 30.8055 39.7063 30.4467 40.0836 30.0948C40.3374 29.8602 40.5977 29.6187 40.8449 29.3841C40.975 29.2668 41.0922 29.1357 41.2223 29.0253C41.8729 28.4595 42.5366 27.8867 43.2003 27.3278C43.3304 27.2174 43.4931 27.1346 43.6492 27.038C46.4991 25.2647 49.4986 23.6225 52.4785 21.9664ZM53.5326 20.4346C52.5436 21.0142 51.5156 21.5455 50.5136 22.1044C50.3704 22.1803 50.2338 22.27 50.0907 22.3459C49.2383 22.822 48.3729 23.305 47.5336 23.8088C47.5791 23.7536 47.6377 23.726 47.6898 23.6846C48.5356 23.0704 49.4595 22.5115 50.3965 21.9802C50.6437 21.8353 50.9105 21.7111 51.1642 21.5731C51.418 21.4351 51.6848 21.3109 51.945 21.1867C52.4655 20.9245 52.9991 20.6761 53.5261 20.4277C53.5586 20.4277 53.5326 20.4277 53.5326 20.4346ZM55.5236 16.9431C55.6082 16.9224 55.6928 16.9017 55.7774 16.8879C55.953 16.8603 56.1287 16.8534 56.3044 16.8948C56.3434 16.9017 56.3759 16.9155 56.415 16.9224C56.454 16.9293 56.4996 16.9293 56.5321 16.9431C56.5972 16.9638 56.6752 17.0328 56.7273 17.088C56.8509 17.2053 56.942 17.3295 57.0331 17.4744C57.0787 17.5503 57.1242 17.64 57.1372 17.7366C57.1567 17.847 57.1372 17.9919 57.1177 18.0954C57.0071 18.7165 56.5061 18.9925 56.0636 19.2685C56.0246 19.2961 55.9921 19.3168 55.953 19.3444C55.914 19.3651 55.8554 19.3927 55.8359 19.4065C55.7708 19.4479 55.6732 19.5031 55.6537 19.5169C55.6017 19.5031 55.5431 19.4686 55.4715 19.4893C55.5366 19.4548 55.6928 19.3789 55.7643 19.3444C56.1547 19.1236 56.5061 18.8545 56.8314 18.5716C56.9615 18.4404 57.0591 18.2058 57.0591 17.9367C57.0591 17.6469 56.8965 17.4261 56.7468 17.2605C56.6948 17.2053 56.6427 17.1363 56.5842 17.1018C56.5061 17.0535 56.402 17.0121 56.3109 16.9914C56.0506 16.9293 55.7383 16.9845 55.4846 17.0397C54.9836 17.1432 54.5021 17.2881 54.0401 17.4399C53.4025 17.6469 52.7974 17.8815 52.2248 18.0954C53.1943 17.6538 54.3654 17.2329 55.5236 16.9431ZM50.5006 20.3725C50.5266 20.3518 50.6502 20.2483 50.6502 20.2483C50.6372 20.2276 50.6047 20.1862 50.5526 20.1172C50.93 19.8619 51.3074 19.6066 51.7303 19.4065C52.1532 19.2064 52.6152 19.0546 53.0771 18.8821C53.7538 18.6199 54.4435 18.3852 55.1787 18.1782C55.3479 18.1299 55.5106 18.0747 55.6928 18.0402C55.7708 18.0264 55.8554 18.0126 55.94 18.0126C55.9595 18.0195 55.94 18.0333 55.9335 18.0402C55.7773 18.1644 55.5691 18.2748 55.3805 18.3783C54.9771 18.6061 54.5671 18.82 54.1377 19.027C53.923 19.1305 53.6953 19.2133 53.474 19.3099C53.2528 19.4065 53.0316 19.4962 52.8104 19.5928C52.1662 19.8826 50.9886 20.4829 50.891 20.545C50.416 20.7934 49.954 21.0625 49.5051 21.3316C49.6612 21.1591 49.8694 20.9797 50.0842 20.7865C50.2013 20.6623 50.3509 20.5105 50.5006 20.3725ZM37.2598 29.1288C37.429 28.9701 37.6112 28.8045 37.7478 28.6734C38.418 28.0592 39.0751 27.4589 39.7323 26.8724C39.9015 26.7206 40.0706 26.5757 40.2333 26.4239C40.7213 25.9685 41.1963 25.4924 41.6777 25.0301C42.9725 23.7881 44.2413 22.5667 45.5491 21.3316C46.1998 20.7175 46.8504 20.0965 47.4946 19.4893C48.4705 18.5923 49.4465 17.6538 50.468 16.7844C50.8194 16.4877 51.1772 16.191 51.5546 15.9495C51.0016 16.9569 50.2013 17.7435 49.3554 18.475C49.1863 18.6199 49.0301 18.7786 48.8674 18.9304C48.2493 19.4962 47.6442 20.0551 47.0196 20.614C47.0001 20.6347 46.974 20.6485 46.9545 20.6692C46.6162 20.9797 46.2518 21.2971 45.907 21.6145C45.2498 22.2148 44.5731 22.7944 43.9225 23.3948C43.2718 24.002 42.6212 24.6023 41.964 25.2026C41.6387 25.4993 41.3069 25.8029 40.9815 26.0996C40.3309 26.6999 39.6737 27.3071 39.0231 27.9074C38.0471 28.8114 37.0256 29.667 36.0366 30.564C35.9976 30.5433 35.8479 30.5226 35.8154 30.4881C35.7958 30.4605 35.7958 30.4812 35.8154 30.4605C35.8349 30.4329 35.8869 30.3915 35.9065 30.3777C36.3619 29.9637 36.8174 29.5428 37.2598 29.1288ZM36.6027 33.8002C36.492 33.7519 36.3944 33.6967 36.2838 33.6484C36.3359 33.5863 36.401 33.5449 36.453 33.4828C36.4595 33.4828 36.466 33.4828 36.466 33.4897C36.5051 33.5932 36.5571 33.6898 36.6027 33.8002ZM37.2598 27.521C36.7783 28.0316 36.3164 28.5423 35.8284 29.0598C35.8219 29.0667 35.7958 29.0874 35.7828 29.1081C35.7633 29.1288 35.7633 29.1495 35.7373 29.1357C35.7243 29.1288 35.7113 29.0874 35.7178 29.0667C35.7178 29.0736 35.7633 29.0253 35.7698 29.0184C36.7783 27.9902 37.7738 26.9276 38.7758 25.8995C38.2943 26.4101 37.7738 26.9828 37.2598 27.521ZM35.1712 25.0784C35.1712 25.0094 35.1582 24.9266 35.1712 24.8645C35.1777 24.8231 35.2558 24.7748 35.3079 24.7265C35.4445 24.5954 35.5876 24.4505 35.7243 24.3332C36.2903 23.8088 36.8499 23.2843 37.403 22.7599C37.5916 22.5874 37.7868 22.4149 37.969 22.2424C38.0666 22.1527 38.1577 22.0699 38.2488 21.9802C38.7108 21.5524 39.1857 21.1108 39.6477 20.683C38.919 21.5179 38.1642 22.3528 37.416 23.1946C36.8564 23.8226 36.2969 24.4505 35.7438 25.0922C35.5616 25.2992 35.3794 25.5131 35.1842 25.7063C35.1842 25.52 35.1712 25.2854 35.1712 25.0784ZM35.2168 27.8867C35.2233 27.8315 35.3599 27.7142 35.425 27.6452C35.9195 27.107 36.401 26.5343 36.8824 25.9961C37.0906 25.7615 37.2923 25.52 37.5006 25.2785C37.8389 24.8921 38.1968 24.4919 38.5351 24.1055C39.0166 23.5466 39.5111 23.0083 39.9925 22.4563C40.0576 22.3735 40.1357 22.3045 40.2008 22.2217C40.7473 21.5869 41.3524 21.0073 41.925 20.4001C42.2113 20.0965 42.5106 19.8067 42.8034 19.4962C43.6622 18.5854 44.5536 17.7021 45.4385 16.812C45.5882 16.6671 45.7378 16.5222 45.8875 16.3773C46.3364 15.9495 46.7788 15.501 47.2473 15.0801C47.5596 14.7972 47.8719 14.5212 48.1842 14.2452C48.5031 13.9692 48.8219 13.6932 49.1472 13.4309C49.1537 13.424 49.1602 13.4309 49.1537 13.4309C47.4685 15.3216 45.7248 17.157 44.0071 19.0201C43.5776 19.4893 43.1482 19.9447 42.7123 20.407C42.6407 20.4829 42.5626 20.5519 42.4911 20.6278C42.452 20.6692 42.426 20.7175 42.3935 20.752C40.3374 22.9324 38.2683 25.1267 36.2123 27.3071C35.991 27.5348 35.7698 27.7625 35.5551 27.9902C35.5031 28.0454 35.451 28.1075 35.3924 28.1627C35.3729 28.1765 35.3599 28.2041 35.3339 28.1972C35.3014 28.0937 35.2298 28.0247 35.2233 27.8936V27.8867H35.2168ZM35.6527 40.8866L36.1602 41.6594C35.9976 41.5973 35.8349 41.5421 35.6722 41.48C35.6592 41.2868 35.6592 41.0867 35.6527 40.8866ZM38.3269 51.6715C38.3204 51.6991 38.3009 51.6301 38.2878 51.6094C38.0861 51.2092 37.8844 50.7814 37.6892 50.3743C37.481 49.9327 37.2663 49.4911 37.0581 49.0564C36.6417 48.1732 36.2058 47.2968 35.7893 46.4274C35.7828 45.972 35.7633 45.5235 35.7568 45.0612C36.6352 47.2416 37.481 49.4497 38.3269 51.6715ZM39.3939 48.3802C39.1142 48.0007 38.8474 47.6004 38.5806 47.2071C37.7933 46.0548 36.9996 44.9163 36.2058 43.764C36.1407 43.6674 36.0886 43.5087 36.0366 43.3845C35.939 43.1292 35.8414 42.8807 35.7438 42.6185C35.7243 42.5702 35.6917 42.5081 35.6852 42.4667C35.6722 42.3632 35.6852 42.2459 35.6787 42.1355C35.6722 42.0251 35.6722 41.9147 35.6657 41.8112C35.9195 41.9009 36.1667 41.9906 36.4205 42.0734L38.6587 45.5097C38.919 46.4757 39.1402 47.4348 39.3939 48.3802C39.4005 48.3871 39.4005 48.3871 39.407 48.3871C39.407 48.394 39.3939 48.3871 39.3939 48.3802ZM39.1792 40.7279C39.1662 40.7141 39.1662 40.6934 39.1532 40.6796C39.1532 40.6727 39.1597 40.6796 39.1597 40.6796C39.3224 40.7279 39.5046 40.7762 39.6802 40.8245C39.7258 40.8383 39.8039 40.8521 39.8104 40.9211C39.5957 40.859 39.394 40.79 39.1792 40.7279ZM42.5691 52.679C41.99 51.8923 41.3914 51.0919 40.8059 50.2846C40.7668 50.2294 40.7083 50.1742 40.6822 50.1259C40.6497 50.0638 40.6367 49.9741 40.6107 49.9051C40.3504 49.1944 40.1097 48.4699 39.8754 47.7247L42.5691 52.679ZM40.9555 43.419C40.7603 43.3638 40.5456 43.2741 40.3504 43.2051C40.2138 42.9083 40.0706 42.6116 39.934 42.308C40.1422 42.377 40.3374 42.4529 40.5391 42.5081C40.6757 42.8117 40.8059 43.1223 40.9555 43.419ZM56.1873 45.1164C56.2328 45.0681 56.2783 45.0681 56.3174 45.0681C56.3434 45.1647 56.3434 45.3234 56.3239 45.4407C56.3109 45.5511 56.2783 45.6891 56.2003 45.7167C56.1417 45.7374 56.0311 45.696 55.9335 45.6684C54.6712 45.3303 53.409 44.9508 52.1727 44.5851C51.1642 44.2953 50.1752 43.9986 49.1732 43.7088C46.5121 42.936 43.8574 42.1355 41.1963 41.342C40.9425 41.2661 40.6562 41.1902 40.3894 41.1005C40.3829 41.0936 40.3699 41.0936 40.3569 41.0867C40.2853 41.0522 40.2008 41.0729 40.1877 40.9763C40.1943 40.9763 40.1942 40.9763 40.1942 40.9832C40.5261 41.0729 40.8514 41.1764 41.1767 41.2661C42.1592 41.5352 43.1482 41.825 44.1437 42.1079C45.4645 42.4805 46.7984 42.8393 48.1257 43.1982C49.453 43.557 50.7738 43.9296 52.0947 44.3022C52.42 44.3988 52.7388 44.5023 53.0641 44.5989C53.5586 44.7438 54.0531 44.8749 54.5606 45.006C54.7298 45.0474 54.899 45.0888 55.0551 45.144C55.3739 45.2544 55.6797 45.3717 55.9921 45.4752C56.0311 45.4407 56.0571 45.3924 56.0506 45.3441C56.0441 45.2682 55.9595 45.2406 55.8815 45.2199C55.9856 45.2406 56.0897 45.1992 56.1873 45.1164ZM55.8099 45.1923C55.8229 45.1992 55.8359 45.2061 55.8554 45.213C55.8619 45.213 55.8619 45.213 55.8684 45.213C55.8489 45.2061 55.8294 45.2061 55.8099 45.1992V45.1923ZM53.7538 44.5299C53.8709 44.5644 53.9425 44.592 54.0271 44.6196C54.6062 44.8128 55.1983 44.9991 55.7839 45.1923C55.6797 45.1854 55.5822 45.1716 55.4781 45.144C55.413 45.1233 55.3414 45.0888 55.2763 45.0612C54.8079 44.8818 54.3329 44.7231 53.8384 44.5644C53.962 44.6127 54.0922 44.661 54.2158 44.7093C54.0922 44.6886 53.9685 44.6472 53.8449 44.6058C52.9991 44.3367 52.1337 44.0538 51.2879 43.764C50.3184 43.4328 49.3424 43.1292 48.3729 42.791C50.1817 43.3638 51.9645 43.9434 53.7538 44.5299ZM43.7273 41.3144C43.8509 41.3558 43.981 41.4041 44.1047 41.4524C44.7228 41.687 45.3734 41.9147 46.0046 42.1286C48.0736 42.8186 50.1492 43.4811 52.1923 44.1849C48.1257 43.005 44.0721 41.8043 40.0251 40.5968C39.986 40.5692 39.986 40.514 39.9665 40.4726C39.908 40.3484 39.8429 40.2173 39.7908 40.0793C40.3179 40.2449 40.8449 40.4036 41.3654 40.5761C42.1592 40.8245 42.94 41.0591 43.7273 41.3144ZM45.5426 38.5337C45.5361 38.4302 45.4971 38.3267 45.4385 38.2439C48.3534 38.1542 53.3114 38.023 54.3069 38.1266C55.3414 38.2301 49.0431 38.4302 45.5426 38.5337Z" fill="white"/>
</svg>
