<svg xmlns="http://www.w3.org/2000/svg" width="23" height="23" viewBox="0 0 23 23">
  <g id="Group_10823" data-name="Group 10823" transform="translate(-4330 -1432)">
    <g id="Group_10819" data-name="Group 10819" transform="translate(4330 1432)">
      <g id="Rectangle_2633" data-name="Rectangle 2633" fill="none" stroke="#ff6a39" stroke-width="2">
        <rect width="23" height="23" rx="6" stroke="none"/>
        <rect x="1" y="1" width="21" height="21" rx="5" fill="none"/>
      </g>
      <g id="Rectangle_2634" data-name="Rectangle 2634" transform="translate(7.016 8.018)" fill="none" stroke="#ff6a39" stroke-width="2">
        <rect width="8.77" height="8.77" rx="4" stroke="none"/>
        <rect x="1" y="1" width="6.77" height="6.77" rx="3" fill="none"/>
      </g>
      <g id="Rectangle_2635" data-name="Rectangle 2635" transform="translate(14.953 3.859)" fill="none" stroke="#ff6a39" stroke-width="2">
        <rect width="3.508" height="3.508" rx="1.754" stroke="none"/>
        <rect x="1" y="1" width="1.508" height="1.508" rx="0.754" fill="none"/>
      </g>
    </g>
  </g>
</svg>
