<?xml version="1.0" encoding="utf-8"?>
<!-- Generator: Adobe Illustrator 24.2.0, SVG Export Plug-In . SVG Version: 6.00 Build 0)  -->
<svg version="1.1" id="Layer_1" xmlns="http://www.w3.org/2000/svg" xmlns:xlink="http://www.w3.org/1999/xlink" x="0px" y="0px"
	 viewBox="0 0 155.3 167.3" style="enable-background:new 0 0 155.3 167.3;" xml:space="preserve">
<style type="text/css">
	.st0{clip-path:url(#SVGID_2_);}
	.st1{fill:#717A80;}
	.st2{fill:#727B81;}
	.st3{fill:#737C82;}
	.st4{fill:#747C83;}
	.st5{fill:#757D84;}
	.st6{fill:#767E85;}
	.st7{fill:#777F86;}
	.st8{fill:#787F87;}
	.st9{fill:#798088;}
	.st10{fill:#7A8189;}
	.st11{fill:#7B828A;}
	.st12{fill:#7C838B;}
	.st13{fill:#7C838D;}
	.st14{fill:#7D848E;}
	.st15{fill:#7E858F;}
	.st16{fill:#7F8690;}
	.st17{fill:#808791;}
	.st18{fill:#818792;}
	.st19{fill:#53595E;}
	.st20{fill:#54595E;}
	.st21{fill:#54595F;}
	.st22{fill:#555A61;}
	.st23{fill:#565B62;}
	.st24{fill:#575B63;}
	.st25{fill:#575B66;}
	.st26{fill:#5B6267;}
	.st27{fill:#5C6368;}
	.st28{fill:#5D6369;}
	.st29{clip-path:url(#SVGID_4_);}
	.st30{fill:#828A93;}
	.st31{fill:#838A94;}
	.st32{fill:#858A96;}
	.st33{fill:#868997;}
	.st34{fill:#5B626E;}
	.st35{fill:#5B626F;}
	.st36{clip-path:url(#SVGID_6_);}
	.st37{fill:#828893;}
	.st38{fill:#838994;}
	.st39{fill:#848A95;}
	.st40{fill:#868B97;}
	.st41{fill:#878C98;}
	.st42{fill:#646A74;}
	.st43{fill:#656A75;}
	.st44{fill:#666B77;}
	.st45{fill:#666C78;}
	.st46{fill:#676C79;}
	.st47{fill:#686D7A;}
	.st48{fill:#696E7C;}
	.st49{fill:#6A6F7D;}
	.st50{fill:#6A6F7E;}
	.st51{fill:#6B717F;}
	.st52{clip-path:url(#SVGID_8_);}
	.st53{fill:#878998;}
	.st54{fill:#696F7C;}
	.st55{clip-path:url(#SVGID_10_);}
	.st56{fill:#949BA4;}
	.st57{fill:#939AA3;}
	.st58{fill:#9299A2;}
	.st59{fill:#9198A1;}
	.st60{fill:#9097A1;}
	.st61{fill:#8F96A0;}
	.st62{fill:#8E959F;}
	.st63{fill:#8E949E;}
	.st64{fill:#8D929D;}
	.st65{fill:#8C919C;}
	.st66{fill:#8B909B;}
	.st67{fill:#8A8F9B;}
	.st68{fill:#898E9A;}
	.st69{fill:#888D99;}
	.st70{fill:#878B98;}
	.st71{fill:#8B8B8B;}
	.st72{fill:#424242;}
	.st73{fill:#353535;}
	.st74{fill:#63686E;}
	.st75{fill:#E4E4E4;}
	.st76{fill:#7C848F;}
	.st77{fill:#7A838E;}
	.st78{fill:#79828D;}
	.st79{fill:#78818C;}
	.st80{fill:#777F8C;}
	.st81{fill:#757E8A;}
	.st82{fill:#747D89;}
	.st83{fill:#747C88;}
	.st84{fill:#737987;}
	.st85{fill:#727885;}
	.st86{fill:#717784;}
	.st87{fill:#6F7584;}
	.st88{fill:#6E7483;}
	.st89{fill:#6D7382;}
	.st90{fill:#6C7181;}
	.st91{fill:#5A6266;}
	.st92{fill:#494E58;}
	.st93{fill:#6C7281;}
	.st94{fill:#6C6E81;}
	.st95{fill:#4F5358;}
	.st96{fill:#C9C9C9;}
	.st97{fill:#626974;}
	.st98{fill:#616873;}
	.st99{fill:#606772;}
	.st100{fill:#5F6672;}
	.st101{fill:#5E656F;}
	.st102{fill:#5D646E;}
	.st103{fill:#5D636D;}
	.st104{fill:#5C616C;}
	.st105{fill:#5B606A;}
	.st106{fill:#5A5F6A;}
	.st107{fill:#595E6A;}
	.st108{fill:#585D69;}
	.st109{fill:#575C68;}
	.st110{fill:#565B67;}
	.st111{fill:#565A67;}
	.st112{fill:#636A79;}
	.st113{fill:#626879;}
	.st114{fill:#616777;}
	.st115{fill:#5F6676;}
	.st116{fill:#5E6475;}
	.st117{fill:#5E6375;}
	.st118{fill:#5E6175;}
	.st119{fill:#545A64;}
	.st120{fill:#535964;}
	.st121{fill:#525862;}
	.st122{fill:#515761;}
	.st123{fill:#51575F;}
	.st124{fill:#50545E;}
	.st125{fill:#50545D;}
	.st126{fill:#4F535C;}
	.st127{fill:#555B67;}
	.st128{fill:#444951;}
	.st129{fill:#444950;}
	.st130{fill:#434850;}
	.st131{clip-path:url(#SVGID_12_);}
	.st132{clip-path:url(#SVGID_14_);}
	.st133{fill:#899199;}
	.st134{fill:#899099;}
	.st135{fill:#888F99;}
	.st136{fill:#888D98;}
	.st137{fill:#6E7882;}
	.st138{fill:#6E7782;}
	.st139{fill:#6D7582;}
	.st140{fill:#6D7381;}
	.st141{clip-path:url(#SVGID_16_);}
	.st142{fill:#8E969E;}
	.st143{fill:#8D959D;}
	.st144{fill:#8C949D;}
	.st145{fill:#8C939C;}
	.st146{fill:#8B929B;}
	.st147{fill:#8A909B;}
	.st148{fill:#898F9A;}
	.st149{fill:#898E99;}
	.st150{clip-path:url(#SVGID_18_);}
	.st151{fill:#878E98;}
	.st152{clip-path:url(#SVGID_20_);}
	.st153{fill:#A4A8B1;}
	.st154{fill:#A4A7B1;}
	.st155{fill:#A4A5B1;}
	.st156{fill:#A7ADB4;}
	.st157{fill:#A6ABB4;}
	.st158{fill:#A5AAB3;}
	.st159{fill:#A5A9B2;}
	.st160{fill:#A4A9B2;}
	.st161{fill:#EFEFEF;}
	.st162{fill:#A9ADB6;}
	.st163{fill:#A8ACB5;}
	.st164{fill:#A7ABB4;}
	.st165{fill:#A6AAB4;}
	.st166{fill:#A5A9B3;}
	.st167{fill:#4B505A;}
	.st168{fill:#67727D;}
	.st169{fill:#66707B;}
	.st170{fill:#646F7B;}
	.st171{fill:#646E7A;}
	.st172{fill:#636D79;}
	.st173{fill:#626A79;}
	.st174{fill:#89919A;}
	.st175{fill:#8F949F;}
	.st176{fill:#636A75;}
	.st177{clip-path:url(#SVGID_22_);}
	.st178{fill:#9499A5;}
	.st179{clip-path:url(#SVGID_24_);}
	.st180{fill:url(#SVGID_25_);}
	.st181{fill:url(#SVGID_26_);}
	.st182{fill:url(#SVGID_27_);}
	.st183{fill:url(#SVGID_28_);}
	.st184{fill:url(#SVGID_29_);}
	.st185{fill:url(#SVGID_30_);}
	.st186{fill:url(#SVGID_31_);}
	.st187{fill:#5E6775;}
	.st188{fill:#616877;}
	.st189{fill:#616776;}
	.st190{fill:#4D525B;}
	.st191{fill:#4D515B;}
	.st192{fill:#4C505B;}
	.st193{clip-path:url(#SVGID_33_);}
	.st194{fill:#A8ABB5;}
	.st195{fill:#A8A9B5;}
	.st196{clip-path:url(#SVGID_35_);}
	.st197{fill:url(#SVGID_36_);}
	.st198{fill:url(#SVGID_37_);}
	.st199{fill:url(#SVGID_38_);}
	.st200{fill:#BEC1C8;}
	.st201{fill:url(#SVGID_39_);}
	.st202{fill:#BABEC5;}
	.st203{fill:#BABDC5;}
	.st204{fill:#A3A5B0;}
	.st205{fill:#A2A6B0;}
	.st206{fill:#9FA6AE;}
	.st207{fill:#A0A6AE;}
	.st208{fill:#9398A3;}
	.st209{fill:#9397A3;}
	.st210{fill:#9395A3;}
	.st211{fill:#F6F6F6;}
	.st212{fill:#979CA6;}
	.st213{fill:#A2A4B0;}
	.st214{fill:#F8F8F8;}
	.st215{fill:#9EA3AD;}
	.st216{fill:#747E88;}
	.st217{fill:#737D87;}
	.st218{fill:#727C87;}
	.st219{fill:#727A85;}
	.st220{fill:#717984;}
	.st221{fill:#4F5761;}
	.st222{fill:#4E5561;}
	.st223{fill:#4E535F;}
	.st224{fill:#4E525E;}
	.st225{fill:#4C525E;}
	.st226{fill:#3F434A;}
	.st227{fill:#3E424A;}
	.st228{fill:#3E4249;}
	.st229{fill:#7A818E;}
	.st230{fill:#7A7F8E;}
	.st231{fill:#4B505E;}
	.st232{fill:#7F8592;}
</style>
<g>
	<g>
		<defs>
			<path id="SVGID_1_" d="M57.3,81.9L57.2,82c-0.5,0.6-1.2,1.1-1.9,1.5c-0.6,0.3-1.3,0.4-2,0.4c-0.3,0-0.7,0-1-0.1l2.3-4.1
				c1.6-2.2,2.1-5,1.3-7.6c-0.6-1.7-1.6-1.9-2-1.9h-0.1c-6.4-1.8-12.4-5-17.3-9.5c-0.8-0.7-1.5-1.4-2.2-2.2
				c-0.7-0.7-1.6-1.7-2.3-2.5c-1.7-2-3.2-4.1-4.5-6.4c-3.8-6.5-6.1-13.7-6.7-21.2l-0.2-1.9l0.9-0.6l19.4,0.6L41,28.5
				c0,0-0.1,4.9,2.6,7.9c0.6,0.7,1.4,1.2,2.3,1.6c1.2,0.5,2.5,0.8,3.8,0.8l0.9,3.8c-1.6-0.1-3.2-0.4-4.7-0.9c-1.8-0.5-3.5-1.6-4.8-3
				c-2.1-2.4-3.3-5.4-3.5-8.6H24.4c0.5,4.1,1.5,8,3,11.8c1.2,3,2.7,5.8,4.5,8.4c0.7,1.1,1.5,2.1,2.3,3.1s1.5,1.7,2.2,2.5
				c4.9,5.2,11.2,9,18.1,10.9c0.3,0.1,0.6,0.1,0.8,0.2c1.8,0.7,3.1,2.1,3.7,3.9C60.3,74.8,59.6,78.8,57.3,81.9"/>
		</defs>
		<clipPath id="SVGID_2_">
			<use xlink:href="#SVGID_1_"  style="overflow:visible;"/>
		</clipPath>
		<g class="st0">
			<polyline class="st1" points="59.8,84 53.4,26.1 60.4,26.1 60.4,84 59.8,84 			"/>
			<polyline class="st1" points="57.6,84 51.2,26.1 53.4,26.1 59.8,84 57.6,84 			"/>
			<polyline class="st2" points="55.4,84 49,26.1 51.2,26.1 57.6,84 55.4,84 			"/>
			<polyline class="st3" points="53.2,84 46.8,26.1 49,26.1 55.4,84 53.2,84 			"/>
			<polyline class="st4" points="51,84 44.6,26.1 46.8,26.1 53.2,84 51,84 			"/>
			<polygon class="st5" points="48.8,84 42.4,26.1 44.6,26.1 51,84 			"/>
			<polygon class="st6" points="46.5,84 40.2,26.1 42.4,26.1 48.8,84 			"/>
			<polyline class="st7" points="44.3,84 38,26.1 40.2,26.1 46.5,84 44.3,84 			"/>
			<polyline class="st8" points="42.1,84 35.8,26.1 38,26.1 44.3,84 42.1,84 			"/>
			<polyline class="st9" points="39.9,84 33.6,26.1 35.8,26.1 42.1,84 39.9,84 			"/>
			<polyline class="st10" points="37.7,84 31.4,26.1 33.6,26.1 39.9,84 37.7,84 			"/>
			<polyline class="st11" points="35.5,84 29.1,26.1 31.4,26.1 37.7,84 35.5,84 			"/>
			<polyline class="st12" points="33.3,84 26.9,26.1 29.1,26.1 35.5,84 33.3,84 			"/>
			<polyline class="st13" points="31.1,84 24.7,26.1 26.9,26.1 33.3,84 31.1,84 			"/>
			<polyline class="st14" points="28.9,84 22.5,26.1 24.7,26.1 31.1,84 28.9,84 			"/>
			<polygon class="st15" points="26.7,84 20.8,30 20.8,26.1 22.5,26.1 28.9,84 			"/>
			<polygon class="st16" points="24.5,84 20.8,50.1 20.8,30 26.7,84 			"/>
			<polygon class="st17" points="22.3,84 20.8,70.2 20.8,50.1 24.5,84 			"/>
			<polygon class="st18" points="20.8,70.2 22.3,84 20.8,84 			"/>
		</g>
	</g>
	<polyline class="st19" points="38.4,29.5 38.4,29.5 38.4,29.6 38.4,29.5 	"/>
	<polyline class="st20" points="38.4,29.5 36.1,29.5 36.2,30.1 37.7,30.1 38.4,29.6 38.4,29.5 	"/>
	<polyline class="st21" points="36.1,29.5 33.9,29.5 34,30.1 36.2,30.1 36.1,29.5 	"/>
	<polyline class="st22" points="33.9,29.5 31.7,29.5 31.8,30.1 34,30.1 33.9,29.5 	"/>
	<polyline class="st23" points="31.7,29.5 29.5,29.5 29.6,30.1 31.8,30.1 31.7,29.5 	"/>
	<polyline class="st24" points="29.5,29.5 27.3,29.5 27.4,30.1 29.6,30.1 29.5,29.5 	"/>
	<path class="st25" d="M27.3,29.5h-1.9l0.1,0.6h1.9L27.3,29.5"/>
	<path class="st26" d="M56.4,82.8l-0.2,0.1c-0.3,0.1-0.6,0.3-1,0.3v0.3l0,0C55.7,83.3,56,83.1,56.4,82.8"/>
	<path class="st27" d="M55.3,83.3c-0.3,0.1-0.7,0.1-1,0.1l0,0c-0.3,0-0.7,0-1-0.1l0,0l-0.2,0.1v0.6h0.2c0.7,0,1.4-0.2,2-0.4
		L55.3,83.3"/>
	<path class="st28" d="M53.1,83.4l-0.8,0.5c0.3,0.1,0.5,0.1,0.8,0.1L53.1,83.4"/>
	<g>
		<defs>
			<path id="SVGID_3_" d="M58.2,81.5c-0.5,0.6-1.2,1.1-1.9,1.5c-0.6,0.3-1.3,0.4-2,0.4c-0.3,0-0.7,0-1-0.1l2.3-4.1
				c1.6-2.2,2-5,1.3-7.6c-0.6-1.7-1.6-1.9-2-1.9h-0.1c-6.4-1.8-12.3-5-17.3-9.5c-0.8-0.7-1.5-1.4-2.2-2.2s-1.5-1.7-2.3-2.5
				c-1.7-2-3.2-4.1-4.5-6.4c-3.8-6.5-6.1-13.7-6.7-21.2l-0.2-1.9H42l-0.1,1.8c0,0-0.1,4.9,2.6,7.9c0.6,0.7,1.4,1.2,2.3,1.6
				c1.2,0.5,2.5,0.8,3.8,0.8l-0.1,3.5c-1.3,0-2.5-0.2-3.7-0.6c-1.8-0.5-3.5-1.5-4.8-2.9c-2.1-2.4-3.3-5.4-3.5-8.6H25.4
				c0.5,4.1,1.5,8,3,11.8c1.2,3,2.7,5.8,4.5,8.4c0.7,1.1,1.5,2.1,2.3,3.1c0.8,1,1.5,1.7,2.2,2.5c4.9,5.2,11.2,9,18.1,10.9
				c0.3,0.1,0.6,0.1,0.8,0.2c1.8,0.7,3.1,2.1,3.7,3.9C61.3,74.3,60.6,78.4,58.2,81.5"/>
		</defs>
		<clipPath id="SVGID_4_">
			<use xlink:href="#SVGID_3_"  style="overflow:visible;"/>
		</clipPath>
		<g class="st29">
			<polyline class="st30" points="48.1,83.4 35.3,64.2 60.1,47.5 61.4,49.3 61.4,83.4 48.1,83.4 			"/>
			<polyline class="st30" points="35.3,64.2 28.9,54.7 53.7,38 60.1,47.5 35.3,64.2 			"/>
			<polyline class="st31" points="28.9,54.7 22.4,45.1 47.3,28.4 53.7,38 28.9,54.7 			"/>
			<polyline class="st32" points="22.4,45.1 21.7,44 21.7,31.8 30.2,26.1 45.7,26.1 47.3,28.4 22.4,45.1 			"/>
			<polyline class="st33" points="30.2,26.1 21.7,31.8 21.7,26.1 30.2,26.1 			"/>
		</g>
	</g>
	<path class="st34" d="M57.4,69.3c1.4,4.5,1,9.5-1.2,13.7c0.7-0.3,1.4-0.8,1.9-1.4c1.4-1.8,2.3-3.9,2.5-6.2
		c-0.6-0.9-1.1-1.9-1.6-2.8l0,0C58.5,71.4,57.9,70.4,57.4,69.3"/>
	<path class="st34" d="M49.8,40.6l-1.3,0.9c0.5,0.1,0.9,0.1,1.4,0.2C49.9,41.3,49.9,40.9,49.8,40.6"/>
	<path class="st35" d="M46.9,37.4v3.7c0.5,0.2,1.1,0.3,1.6,0.4l1.3-0.9c-0.1-0.8-0.2-1.7-0.3-2.5C48.6,38,47.8,37.8,46.9,37.4"/>
	<g>
		<defs>
			<path id="SVGID_5_" d="M133.3,26.6l-0.2,1.9c-0.5,6.7-2.4,13.3-5.6,19.2c-0.6,1.2-1.3,2.3-2,3.4c-0.6,1.1-1.4,2.1-2.2,3.2
				c-1.2,1.6-2.6,3.2-4,4.6c-5.3,5.4-12,9.3-19.3,11.4H100c-0.3,0-1.4,0.2-2,1.9c-0.6,2.2-0.4,4.5,0.6,6.6c0.2,0.4,0.4,0.7,0.7,1
				l3.7,3.5l-1.3,0.6c-0.3,0.1-0.7,0.1-1,0.1c-0.5,0-1.1-0.1-1.6-0.2c-0.5-0.2-0.9-0.4-1.3-0.7c-0.4-0.3-0.7-0.6-1-0.9
				c-2.4-3.1-3.1-7.2-2-11c0.6-1.9,2-3.4,3.9-4l0.5-0.1c7.9-2.2,14.9-6.8,20.1-13.1c1.5-1.8,2.8-3.7,4-5.7c0.8-1.3,1.5-2.7,2.2-4.2
				c0.8-1.6,1.4-3.3,2-5c0.9-2.9,1.6-5.8,1.9-8.8h-13.1c-0.2,3.2-1.4,6.2-3.5,8.6c-1.3,1.4-3,2.5-4.9,3c-1.2,0.3-2.4,0.5-3.6,0.5
				l-0.1-3.5c1.3,0,2.5-0.3,3.7-0.7c0.9-0.4,1.7-1,2.4-1.7c2.8-3,2.6-7.9,2.6-7.9l-0.1-1.8l1.3-0.6L133.3,26.6"/>
		</defs>
		<clipPath id="SVGID_6_">
			<use xlink:href="#SVGID_5_"  style="overflow:visible;"/>
		</clipPath>
		<g class="st36">
			<polyline class="st1" points="94.4,26.1 94.4,84 93.6,84 93.6,26.1 94.4,26.1 			"/>
			<polyline class="st1" points="96.1,26.1 96.1,84 94.4,84 94.4,26.1 96.1,26.1 			"/>
			<polyline class="st2" points="97.7,26.1 97.7,84 96.1,84 96.1,26.1 97.7,26.1 			"/>
			<polyline class="st3" points="99.3,26.1 99.3,84 97.7,84 97.7,26.1 99.3,26.1 			"/>
			<polyline class="st4" points="100.9,26.1 100.9,84 99.3,84 99.3,26.1 100.9,26.1 			"/>
			<polyline class="st5" points="102.5,26.1 102.5,84 100.9,84 100.9,26.1 102.5,26.1 			"/>
			<polyline class="st6" points="104.2,26.1 104.2,84 102.5,84 102.5,26.1 104.2,26.1 			"/>
			<polyline class="st7" points="105.8,26.1 105.8,84 104.2,84 104.2,26.1 105.8,26.1 			"/>
			<polyline class="st8" points="107.4,26.1 107.4,84 105.8,84 105.8,26.1 107.4,26.1 			"/>
			<polyline class="st9" points="109,26.1 109,84 107.4,84 107.4,26.1 109,26.1 			"/>
			<polyline class="st10" points="110.6,26.1 110.6,84 109,84 109,26.1 110.6,26.1 			"/>
			<rect x="110.6" y="26.1" class="st11" width="1.6" height="57.9"/>
			<rect x="112.3" y="26.1" class="st12" width="1.6" height="57.9"/>
			<rect x="113.9" y="26.1" class="st13" width="1.6" height="57.9"/>
			<polyline class="st14" points="117.1,26.1 117.1,84 115.5,84 115.5,26.1 117.1,26.1 			"/>
			<polyline class="st15" points="118.7,26.1 118.7,84 117.1,84 117.1,26.1 118.7,26.1 			"/>
			<polyline class="st16" points="120.3,26.1 120.3,84 118.7,84 118.7,26.1 120.3,26.1 			"/>
			<polyline class="st17" points="122,26.1 122,84 120.3,84 120.3,26.1 122,26.1 			"/>
			<polyline class="st18" points="123.6,26.1 123.6,84 122,84 122,26.1 123.6,26.1 			"/>
			<polyline class="st37" points="125.2,26.1 125.2,84 123.6,84 123.6,26.1 125.2,26.1 			"/>
			<polyline class="st38" points="126.8,26.1 126.8,84 125.2,84 125.2,26.1 126.8,26.1 			"/>
			<polyline class="st39" points="128.4,26.1 128.4,84 126.8,84 126.8,26.1 128.4,26.1 			"/>
			<polyline class="st32" points="130,26.1 130,84 128.4,84 128.4,26.1 130,26.1 			"/>
			<polyline class="st40" points="131.7,26.1 131.7,84 130,84 130,26.1 131.7,26.1 			"/>
			<rect x="131.7" y="26.1" class="st41" width="1.6" height="57.9"/>
		</g>
	</g>
	<polyline class="st42" points="116.5,28.5 116.5,30.1 117.1,30.1 117.1,28.5 116.5,28.5 	"/>
	<polyline class="st43" points="117.1,28.5 117.1,30.1 118.7,30.1 118.7,28.6 117.1,28.5 	"/>
	<polyline class="st44" points="118.7,28.6 118.7,30.1 120.3,30.1 120.3,29.5 119.3,29.5 119.3,28.6 118.7,28.6 	"/>
	<polyline class="st45" points="122,29.5 120.3,29.5 120.3,30.1 122,30.1 122,29.5 	"/>
	<polyline class="st46" points="123.6,29.5 122,29.5 122,30.1 123.6,30.1 123.6,29.5 	"/>
	<polyline class="st47" points="125.2,29.5 123.6,29.5 123.6,30.1 125.2,30.1 125.2,29.5 	"/>
	<polyline class="st48" points="126.8,29.5 125.2,29.5 125.2,30.1 126.8,30.1 126.8,29.5 	"/>
	<polyline class="st49" points="126.9,29.1 126.9,29.5 126.8,29.5 126.8,30.1 128.4,30.1 128.4,29.5 126.9,29.5 126.9,29.1 	"/>
	<polyline class="st50" points="130,29.5 128.4,29.5 128.4,30.1 129.5,30.1 130,29.8 130,29.5 	"/>
	<polyline class="st51" points="130.7,29.5 130,29.5 130,29.8 130.7,29.5 	"/>
	<g>
		<defs>
			<path id="SVGID_7_" d="M134.6,26.1l-0.2,1.9c-0.5,6.7-2.4,13.3-5.5,19.2c-0.6,1.2-1.3,2.3-2,3.4c-0.6,1.1-1.4,2.1-2.2,3.2
				c-1.2,1.6-2.6,3.2-4,4.6c-5.3,5.4-11.9,9.3-19.2,11.3h-0.1c-0.3,0-1.4,0.2-1.9,1.9c-0.6,2.2-0.4,4.5,0.6,6.6
				c0.2,0.4,0.4,0.7,0.7,1l2.4,4.1c-0.3,0.1-0.7,0.1-1,0.1c-0.5,0-1-0.1-1.5-0.2c-0.5-0.2-1-0.4-1.4-0.7c-0.4-0.3-0.7-0.6-1-0.9
				c-2.4-3.1-3.1-7.2-2-11c0.6-1.9,2-3.4,3.9-4l0.5-0.1c7.9-2.2,14.9-6.8,20.1-13.1c1.5-1.8,2.8-3.7,4-5.7c0.8-1.3,1.6-2.7,2.2-4.1
				c0.7-1.6,1.4-3.3,2-5c0.9-2.9,1.6-5.8,1.9-8.8h-13.1c-0.2,3.2-1.4,6.2-3.5,8.6c-1.3,1.4-3,2.5-4.9,3c-1.2,0.3-2.4,0.5-3.6,0.5
				l-0.1-3.5c1.3,0,2.5-0.3,3.7-0.8c0.9-0.4,1.7-1,2.4-1.7c2.8-3,2.6-7.9,2.6-7.9l-0.1-1.8L134.6,26.1"/>
		</defs>
		<clipPath id="SVGID_8_">
			<use xlink:href="#SVGID_7_"  style="overflow:visible;"/>
		</clipPath>
		<g class="st52">
			<polyline class="st30" points="96.2,26.1 96.2,83.4 95,83.4 95,26.1 96.2,26.1 			"/>
			<polyline class="st30" points="103.9,26.1 103.9,83.4 96.2,83.4 96.2,26.1 103.9,26.1 			"/>
			<polyline class="st31" points="111.6,26.1 111.6,83.4 103.9,83.4 103.9,26.1 111.6,26.1 			"/>
			<rect x="111.6" y="26.1" class="st32" width="7.7" height="57.3"/>
			<polyline class="st33" points="126.9,26.1 126.9,83.4 119.3,83.4 119.3,26.1 126.9,26.1 			"/>
			<polyline class="st53" points="134.6,26.1 134.6,83.4 126.9,83.4 126.9,26.1 134.6,26.1 			"/>
		</g>
	</g>
	<path class="st34" d="M96.2,73.7l-0.6,0.9c0.1,1,0.2,2.1,0.6,3.1V73.7"/>
	<path class="st34" d="M100.1,66.5c-0.2,0.1-0.4,0.1-0.5,0.2c-1,2.4-2.1,4.8-3.4,7.1v3.9c0.4,1.4,1,2.7,2,3.8c0.3,0.3,0.6,0.6,1,0.9
		C96.1,75.8,98.6,69.4,100.1,66.5"/>
	<path class="st54" d="M109.3,37.4L109.3,37.4l-0.3,0.1l-0.4,0.1c-0.7,0.2-1.5,0.4-2.2,0.5c-0.1,1.1-0.3,2.3-0.4,3.5
		c1.1,0,2.3-0.2,3.4-0.5L109.3,37.4"/>
	<g>
		<defs>
			<path id="SVGID_9_" d="M107.3,23.8c0,1.5,0,3-0.1,4.6c0,0.7,0,1.3-0.1,2.1c-0.6,11-2.6,21.8-6,32.2C96.5,76.1,89,86.9,78,86.9
				c-19.8,0-28-34.4-29.2-57.4v-1.1c0-1.6-0.1-3.1-0.1-4.6H107.3"/>
		</defs>
		<clipPath id="SVGID_10_">
			<use xlink:href="#SVGID_9_"  style="overflow:visible;"/>
		</clipPath>
		<g class="st55">
			<polyline class="st56" points="50.4,23.8 50.4,86.9 48.6,86.9 48.6,23.8 50.4,23.8 			"/>
			<polyline class="st57" points="52.1,23.8 52.1,86.9 50.4,86.9 50.4,23.8 52.1,23.8 			"/>
			<polyline class="st58" points="53.8,23.8 53.8,86.9 52.1,86.9 52.1,23.8 53.8,23.8 			"/>
			<polyline class="st59" points="55.5,23.8 55.5,86.9 53.8,86.9 53.8,23.8 55.5,23.8 			"/>
			<polyline class="st60" points="57.3,23.8 57.3,86.9 55.5,86.9 55.5,23.8 57.3,23.8 			"/>
			<polyline class="st61" points="59,23.8 59,86.9 57.3,86.9 57.3,23.8 59,23.8 			"/>
			<polyline class="st62" points="60.7,23.8 60.7,86.9 59,86.9 59,23.8 60.7,23.8 			"/>
			<polyline class="st63" points="62.4,23.8 62.4,86.9 60.7,86.9 60.7,23.8 62.4,23.8 			"/>
			<polyline class="st64" points="64.2,23.8 64.2,86.9 62.4,86.9 62.4,23.8 64.2,23.8 			"/>
			<polyline class="st65" points="65.9,23.8 65.9,86.9 64.2,86.9 64.2,23.8 65.9,23.8 			"/>
			<polyline class="st66" points="67.6,23.8 67.6,86.9 65.9,86.9 65.9,23.8 67.6,23.8 			"/>
			<polyline class="st67" points="69.3,23.8 69.3,86.9 67.6,86.9 67.6,23.8 69.3,23.8 			"/>
			<polyline class="st68" points="71.1,23.8 71.1,86.9 69.3,86.9 69.3,23.8 71.1,23.8 			"/>
			<polyline class="st69" points="72.8,23.8 72.8,86.9 71.1,86.9 71.1,23.8 72.8,23.8 			"/>
			<polyline class="st41" points="74.5,23.8 74.5,86.9 72.8,86.9 72.8,23.8 74.5,23.8 			"/>
			<polyline class="st41" points="85.4,23.8 85.4,86.9 74.5,86.9 74.5,23.8 85.4,23.8 			"/>
			<polyline class="st70" points="96.4,23.8 96.4,86.9 85.4,86.9 85.4,23.8 96.4,23.8 			"/>
			<polyline class="st53" points="107.3,23.8 107.3,86.9 96.4,86.9 96.4,23.8 107.3,23.8 			"/>
		</g>
	</g>
	<path class="st71" d="M86.9,54.9c0,1.2-0.1,2.4-0.2,3.6c-0.1,0-0.5,0.8-0.7,0.9l0,0h-10h-3.9c-0.3-0.9-0.6-1.7-0.8-2.6l0.7-0.9
		c1.6-1.1,3.1-2.3,4.6-3.7c0.9-0.8,1.8-1.7,2.6-2.6c0.9-1.1,1.4-2.4,1.4-3.8c0-0.8-0.2-1.7-0.7-2.4c-0.5-0.5-1.1-0.9-1.9-0.9
		c-0.5,0-1.1,0.1-1.6,0.3l-0.6,2.7l-0.7,0.9l0,0c-1.1,0-2.2-0.3-3.1-0.3c0.1-1.8,0.2-3.7,0.3-5.5c0-0.1,0.7-0.7,0.7-0.9
		c1.9-0.7,3.9-1,6-1c2.8,0,4.5,0.6,5.8,1.7c1.2,1.1,1.9,2.7,1.9,4.3c-0.1,2-1,3.9-2.4,5.4c-1.3,1.6-2.7,3-4.4,4.1
		c-0.4,0.4-0.8,0.7-1.2,0.9C80.9,55.2,85,54.9,86.9,54.9L86.9,54.9L86.9,54.9"/>
	<path class="st72" d="M86.9,54.9L86.9,54.9c-1.8,0-5.9,0.2-8.1,0.3h-0.4V55c0.8-0.6,1.4-1,2.3-1.7c1.3-1,2.5-2.1,3.7-3.3
		c1.4-1.4,2.2-3.3,2.3-5.4c0-1.6-0.7-3.2-2-4.3c-1.3-1.1-2.9-1.7-5.8-1.7c-2,0-4,0.3-6,1c0,0.1-0.7,0.8-0.7,0.9
		c-0.1,1.7,0.4,2.9,0.4,4.6c0.6,0,1.1,0.6,1.6,0.9c0.2,0.2,0.5,0.3,0.8,0.3l0,0l0.7-0.9l0.6-2.7l0.1-0.3v-0.1l0.1-0.2
		c0.6-0.4,1.3-0.5,2-0.5c0.7,0,1.4,0.3,1.9,0.9c0.5,0.7,0.7,1.5,0.7,2.4c-0.1,1.8-0.9,3.4-2.2,4.7c-0.8,0.9-1.7,1.8-2.6,2.6
		c-1.4,1.3-3,2.5-4.6,3.7l-0.7,0.9c0.2,0.8,1.3,1.1,1.5,1.8h3.9c2.1,0,7.4,0.9,9.2,0.9l0,0c0.2-0.1,0.6-0.9,0.7-0.9
		c0.1-1.2,0.2-2.4,0.2-3.6l0,0"/>
	<path class="st73" d="M76.5,42.9L76.5,42.9c-0.2,0.1-0.3,0.1-0.5,0.2c-0.1,0.1-0.1,0.2-0.1,0.3l-0.7,3.1l0,0l0.7-0.9L76.5,42.9"/>
	<path class="st73" d="M86.9,54.9l-0.7,0.9l0,0c0,1.2,0,2.4-0.1,3.7l0,0c0.2-0.1,0.6-0.9,0.7-0.9C86.8,57.3,86.9,56.1,86.9,54.9
		L86.9,54.9"/>
	<path class="st74" d="M86.2,55.8L86.2,55.8c-1.9,0-6.4,0.2-8.5,0.3v-0.1l1.1-0.8c0.4-0.3,0.8-0.6,1.2-0.9c1.6-1.2,3.1-2.6,4.4-4.1
		c1-1.3,1.6-2.9,1.7-4.5c0-1.6-0.7-3.2-1.9-4.2c-1.3-1.1-2.9-1.7-5.8-1.7c-2,0-4.1,0.3-6,1c-0.1,1.8-0.2,3.6-0.3,5.5
		c1,0.1,2.1,0.3,3.1,0.3l0,0l0.7-3.1c0-0.1,0.1-0.2,0.1-0.3c0.2-0.1,0.3-0.2,0.5-0.2c0.5-0.2,1-0.3,1.6-0.3c0.7,0,1.4,0.3,1.9,0.9
		c0.5,0.7,0.7,1.5,0.7,2.4c-0.1,1.4-0.6,2.7-1.4,3.8c-1,1.3-2.1,2.4-3.3,3.4c-1.4,1.3-3,2.5-4.6,3.7c0.2,0.9,0.5,1.8,0.8,2.6h3.9h10
		l0,0c0.1-1.2,0.2-2.4,0.2-3.6l0,0"/>
	<path class="st75" d="M87,84.2L87,84.2l-0.5,0.3l0,0L87,84.2"/>
	<path class="st76" d="M48.7,26.6L48.7,26.6c0,0.6,0,1.1,0,1.7v1.1c0.3,5,0.8,9.9,1.6,14.8V29.1c-0.7,0.1-1.2,0.2-1.6,0.3v-1.1
		C48.7,27.8,48.7,27.2,48.7,26.6"/>
	<path class="st77" d="M50.6,29.1h-0.1v15.2c0.5,2.9,1.1,5.9,1.7,8.8v-8.7c-0.8-4.9-1.3-9.9-1.6-14.9C50.6,29.3,50.6,29.2,50.6,29.1
		"/>
	<path class="st78" d="M52.1,44.3V53c0.5,2.2,1.1,4.4,1.7,6.5V53C53.1,50.1,52.6,47.2,52.1,44.3"/>
	<path class="st79" d="M53.8,53v6.4c0.5,1.8,1.1,3.5,1.7,5.1v-5.1C54.9,57.4,54.3,55.2,53.8,53"/>
	<path class="st80" d="M55.5,59.5v5.1c0.5,1.5,1.1,2.9,1.7,4.2v-4.2C56.6,63,56.1,61.3,55.5,59.5"/>
	<path class="st81" d="M57.3,64.7v4.2c0.5,1.2,1.1,2.4,1.7,3.5v-3.5C58.4,67.6,57.8,66.1,57.3,64.7"/>
	<path class="st82" d="M59,68.9v3.5c0.6,1,1.1,2,1.7,3v-3C60.1,71.3,59.5,70.1,59,68.9"/>
	<path class="st83" d="M60.7,72.4v3c0.6,0.9,1.1,1.7,1.7,2.5v-2.5C61.8,74.5,61.3,73.5,60.7,72.4"/>
	<path class="st84" d="M62.4,75.4v2.5c0.6,0.7,1.1,1.4,1.7,2.1v-2.1C63.5,77.1,62.9,76.3,62.4,75.4"/>
	<path class="st85" d="M64.2,77.9V80c0.6,0.6,1.1,1.2,1.7,1.8V80C65.3,79.4,64.7,78.7,64.2,77.9"/>
	<path class="st86" d="M65.9,80v1.8c0.6,0.5,1.1,1,1.7,1.5v-1.5C67,81.2,66.5,80.7,65.9,80"/>
	<path class="st87" d="M67.6,81.8v1.5c0.6,0.4,1.1,0.8,1.7,1.2v-1.2C68.8,82.8,68.2,82.3,67.6,81.8"/>
	<path class="st88" d="M69.3,83.3v1.2l0.1,0.1h1.6v-0.1C70.5,84.1,69.9,83.7,69.3,83.3"/>
	<path class="st89" d="M71.1,84.4L71.1,84.4l0.1,0.1L71.1,84.4"/>
	<path class="st90" d="M87,84.2L86,84.5h0.5L87,84.2"/>
	<path class="st75" d="M94.4,76.6c-1.9,3-4.5,5.6-7.5,7.6l0,0C89.9,82.2,92.5,79.6,94.4,76.6L94.4,76.6 M101,62.8
		c-0.5,1.3-0.9,2.6-1.4,3.9l0,0C100,65.4,100.5,64.1,101,62.8 M101,62.8L101,62.8"/>
	<path class="st91" d="M94.4,76.5L94.4,76.5L94.4,76.5L94.4,76.5L94.4,76.5"/>
	<path class="st91" d="M95.6,74.7c-0.4,0.6-0.8,1.3-1.2,1.9l0,0C94.9,75.9,95.3,75.3,95.6,74.7L95.6,74.7"/>
	<path class="st92" d="M96.2,73.7l-0.6,0.9l0,0L96.2,73.7L96.2,73.7"/>
	<path class="st92" d="M99.6,66.7L99.6,66.7c-0.9,2.3-2,4.6-3.2,6.8V70l0,0v3.5l-0.2,0.3l0,0C97.5,71.4,98.6,69.1,99.6,66.7"/>
	<path class="st79" d="M55.5,28.6l-1.2,0.1c0.3,1.8,0.7,3.7,1.2,5.8V28.6"/>
	<path class="st80" d="M57.3,28.5l-1.7,0.1v5.8c0.5,2.2,1.1,4.5,1.7,6.9V28.5"/>
	<path class="st81" d="M58,31.1L58,31.1 M59,28.5h-1.7v12.8c0.5,1.9,1.1,3.8,1.7,5.8v-9.3c-0.5-2.2-0.8-4.5-1-6.7h1V28.5"/>
	<path class="st82" d="M59,37.8v9.4c0.5,1.6,1.1,3.3,1.7,5v-7.5C60,42.4,59.4,40.1,59,37.8 M60.7,28.4H59v2.6h1.7V28.4"/>
	<path class="st83" d="M60.7,44.6v7.5c0.5,1.5,1.1,2.9,1.7,4.3v-7.1C61.8,47.8,61.2,46.2,60.7,44.6 M62.4,28.4h-1.7V31h1.7V28.4"/>
	<path class="st84" d="M62.4,49.4v7.2c0.6,1.3,1.1,2.5,1.7,3.8V53C63.5,51.8,62.9,50.6,62.4,49.4 M64.1,28.3h-1.7V31h1.3
		c-0.1,1.2-0.2,2.5-0.2,3.7c0,2.7,0.2,5.4,0.6,8.1L64.1,28.3"/>
	<path class="st85" d="M64.2,53v7.3c0.6,1.1,1.1,2.3,1.7,3.4v-7.9C65.3,54.8,64.7,53.9,64.2,53 M65.9,28.3h-1.7v14.4
		c0.4,2.7,1,5.4,1.7,8.1V28.3"/>
	<path class="st86" d="M65.9,55.8v7.9c0.6,1,1.1,2,1.7,3V58C67,57.3,66.4,56.6,65.9,55.8 M66.3,28.4h-0.5v22.6
		c0.6,2.2,1.2,4.1,1.7,5.5V39.5C66.8,34.5,66.5,30.3,66.3,28.4"/>
	<path class="st87" d="M67.6,39.5v16.9c0.6,1.7,1.1,2.7,1.1,2.7l0,0c-0.4-0.4-0.7-0.7-1.1-1.1v8.6c0.6,0.9,1.1,1.8,1.7,2.6v-21
		C68.6,45.2,68.1,42.2,67.6,39.5"/>
	<path class="st88" d="M69.3,48.3v21c0.6,0.8,1.1,1.6,1.7,2.4V54.4C70.4,52.4,69.8,50.4,69.3,48.3"/>
	<path class="st89" d="M71.1,54.4v17.3c0.6,0.7,1.1,1.4,1.7,2.1V59.4h-0.6c-0.3-0.9-0.6-1.7-0.8-2.6l0,0l0.4-0.5
		C71.5,55.7,71.3,55,71.1,54.4"/>
	<path class="st93" d="M73,59.4h-0.2v14.4c0.6,0.7,1.1,1.3,1.7,1.9V62.3C74,61.3,73.5,60.4,73,59.4"/>
	<path class="st93" d="M74.5,62.3v13.5c3.1,3.3,6.8,6,10.9,7.9V70.5C80.7,70.2,77.2,66.9,74.5,62.3"/>
	<path class="st90" d="M96.4,66.6c-3.9,2.8-7.3,3.9-10.3,3.9h-0.6v13.1c0.5,0.2,1,0.4,1.5,0.6l0,0c3-2,5.5-4.6,7.5-7.6l0,0l0,0
		c0.4-0.6,0.8-1.2,1.2-1.9l0,0l0.6-0.9l0,0l0.2-0.3L96.4,66.6"/>
	<path class="st94" d="M101.1,62.7c-1.5,1.4-3.1,2.7-4.7,3.9v6.9c1.2-2.2,2.3-4.5,3.2-6.8l0,0C100.1,65.3,100.6,64,101.1,62.7
		L101.1,62.7L101.1,62.7"/>
	<path class="st73" d="M71.7,56.2l-0.4,0.5l0.5-0.3L71.7,56.2"/>
	<path class="st95" d="M71.8,56.4l-0.5,0.3l0,0c0.2,0.9,0.5,1.8,0.8,2.6H73C72.6,58.4,72.2,57.4,71.8,56.4"/>
	<polyline class="st75" points="87,84.2 87,84.2 87,84.2 87,84.2 	"/>
	<polyline class="st96" points="87,84.2 87,84.2 87,84.2 87,84.2 87,84.2 	"/>
	<path class="st97" d="M52.1,29l-1.5,0.1c0,0.1,0,0.2,0,0.3c0.3,5,0.8,9.9,1.6,14.9L52.1,29"/>
	<path class="st98" d="M53.8,28.7L52.1,29v15.3c0.5,2.9,1,5.9,1.7,8.8V28.7"/>
	<path class="st99" d="M54.4,28.7h-0.6V53c0.5,2.2,1.1,4.3,1.7,6.5v-25C55.1,32.4,54.7,30.5,54.4,28.7"/>
	<path class="st100" d="M55.5,34.5v25c0.5,1.8,1.1,3.5,1.7,5.2V41.4C56.6,39,56,36.7,55.5,34.5"/>
	<path class="st101" d="M57.3,41.4v23.3c0.5,1.4,1.1,2.9,1.7,4.2V47.2C58.4,45.2,57.8,43.2,57.3,41.4"/>
	<path class="st102" d="M59,47.2v21.7c0.5,1.2,1.1,2.4,1.7,3.5V52.1C60.1,50.5,59.5,48.8,59,47.2"/>
	<path class="st103" d="M60.7,52.1v20.3c0.6,1,1.1,2,1.7,3V56.5C61.8,55.1,61.3,53.7,60.7,52.1"/>
	<path class="st104" d="M62.4,56.5v18.9c0.6,0.9,1.1,1.7,1.7,2.5V60.3C63.5,58.9,62.9,57.7,62.4,56.5"/>
	<path class="st105" d="M64.2,60.3v17.7c0.6,0.7,1.1,1.5,1.7,2.1V63.6C65.3,62.5,64.7,61.4,64.2,60.3"/>
	<path class="st106" d="M65.9,63.6V80c0.5,0.6,1.1,1.2,1.7,1.8V66.6C67,65.7,66.5,64.7,65.9,63.6"/>
	<path class="st107" d="M67.6,66.6v15.2c0.6,0.5,1.1,1,1.7,1.5V69.3C68.8,68.5,68.2,67.5,67.6,66.6"/>
	<path class="st108" d="M69.3,69.3v13.9c0.6,0.4,1.1,0.8,1.7,1.2V71.7C70.5,70.9,69.9,70.1,69.3,69.3"/>
	<path class="st109" d="M71.1,71.7v12.7l0.1,0.1h1.6V73.8C72.2,73.2,71.6,72.4,71.1,71.7"/>
	<path class="st110" d="M72.8,73.8v10.6h1.7v-8.7C73.9,75.1,73.3,74.4,72.8,73.8"/>
	<path class="st110" d="M74.5,75.8v8.7h10.9v-0.9C81.3,81.7,77.6,79,74.5,75.8"/>
	<path class="st111" d="M85.4,83.6v0.9H86l1-0.3l0,0C86.5,84,86,83.8,85.4,83.6"/>
	<path class="st112" d="M67.6,26.6h-1.2l-0.1,0.4c0,0,0,0.5,0.1,1.3h1.2V26.6"/>
	<path class="st113" d="M69.3,26.6h-1.7v1.7h1.7V26.6"/>
	<path class="st114" d="M71.1,26.6h-1.7v1.7h1.7V26.6"/>
	<path class="st115" d="M72.8,26.6h-1.7v1.7h1.7V26.6"/>
	<path class="st116" d="M74.1,23.8L74.1,23.8v2.9h-1.3v1.7h1.7v-1.7h-0.4L74.1,23.8"/>
	<path class="st116" d="M85.4,26.6H74.5v1.8c3.9,0,7.6,0.2,10.9,0.3L85.4,26.6"/>
	<path class="st117" d="M96.4,26.6H85.4v2.1c4.1,0.2,7.8,0.4,10.9,0.7V26.6"/>
	<path class="st118" d="M98.6,23.8L98.6,23.8v2.9h-2.3v2.8c4.9,0.4,8.6,0.8,10.7,1c0-0.7,0.1-1.4,0.1-2.1c0-0.7,0-1.2,0-1.7h-8.5
		V23.8"/>
	<path class="st119" d="M55.5,26.6H54c0.1,0.7,0.2,1.3,0.4,2.1l1.2-0.1V26.6"/>
	<path class="st120" d="M57.3,26.6h-1.7v2l1.7-0.1V26.6"/>
	<path class="st121" d="M59,26.6h-1.7v1.9H59L59,26.6"/>
	<path class="st122" d="M60.7,26.6H59v1.9h1.7L60.7,26.6"/>
	<path class="st123" d="M62.4,26.6h-1.7v1.8h1.7L62.4,26.6"/>
	<path class="st124" d="M64.2,26.6h-1.8v1.8h1.7L64.2,26.6"/>
	<path class="st125" d="M65.9,26.6h-1.7v1.7h1.7V26.6"/>
	<path class="st126" d="M66.4,26.6h-0.5v1.7h0.4c0-0.8-0.1-1.3-0.1-1.3L66.4,26.6"/>
	<path class="st109" d="M50.4,26.6h-1.7c0,0.6,0,1.1,0,1.7v1.1c0.4-0.1,0.9-0.2,1.6-0.3v-2.5"/>
	<path class="st127" d="M50.4,26.6L50.4,26.6v2.5h0.2v-0.7c0-0.6,0-1.2,0-1.7"/>
	<path class="st128" d="M52.1,26.6h-1.7c0,0.6,0,1.1,0,1.7v0.7l1.7-0.1V26.6"/>
	<path class="st129" d="M53.8,26.6h-1.7V29l1.7-0.1V26.6"/>
	<path class="st130" d="M54,26.6h-0.2v2.1h0.6C54.2,28,54.1,27.3,54,26.6"/>
	<g>
		<defs>
			<polyline id="SVGID_11_" points="110.9,22 110.5,23.7 109.6,26.6 46.3,26.6 45,22 110.9,22 			"/>
		</defs>
		<clipPath id="SVGID_12_">
			<use xlink:href="#SVGID_11_"  style="overflow:visible;"/>
		</clipPath>
		<g class="st131">
			<polyline class="st56" points="46.9,22 46.9,26.6 45,26.6 45,22 46.9,22 			"/>
			<polyline class="st57" points="48.9,22 48.9,26.6 46.9,26.6 46.9,22 48.9,22 			"/>
			<polyline class="st58" points="50.8,22 50.8,26.6 48.9,26.6 48.9,22 50.8,22 			"/>
			<polyline class="st59" points="52.7,22 52.7,26.6 50.8,26.6 50.8,22 52.7,22 			"/>
			<polyline class="st60" points="54.7,22 54.7,26.6 52.7,26.6 52.7,22 54.7,22 			"/>
			<polyline class="st61" points="56.6,22 56.6,26.6 54.7,26.6 54.7,22 56.6,22 			"/>
			<polyline class="st62" points="58.6,22 58.6,26.6 56.6,26.6 56.6,22 58.6,22 			"/>
			<polyline class="st63" points="60.5,22 60.5,26.6 58.6,26.6 58.6,22 60.5,22 			"/>
			<polyline class="st64" points="62.4,22 62.4,26.6 60.5,26.6 60.5,22 62.4,22 			"/>
			<polyline class="st65" points="64.4,22 64.4,26.6 62.4,26.6 62.4,22 64.4,22 			"/>
			<polyline class="st66" points="66.3,22 66.3,26.6 64.4,26.6 64.4,22 66.3,22 			"/>
			<polyline class="st67" points="68.2,22 68.2,26.6 66.3,26.6 66.3,22 68.2,22 			"/>
			<polyline class="st68" points="70.2,22 70.2,26.6 68.2,26.6 68.2,22 70.2,22 			"/>
			<polyline class="st69" points="72.1,22 72.1,26.6 70.2,26.6 70.2,22 72.1,22 			"/>
			<polyline class="st41" points="74.1,22 74.1,26.6 72.1,26.6 72.1,22 74.1,22 			"/>
			<polyline class="st41" points="86.4,22 86.4,26.6 74.1,26.6 74.1,22 86.4,22 			"/>
			<polyline class="st70" points="98.6,22 98.6,26.6 86.4,26.6 86.4,22 98.6,22 			"/>
			<polyline class="st53" points="110.9,22 110.9,26.6 98.6,26.6 98.6,22 110.9,22 			"/>
		</g>
	</g>
	<path class="st41" d="M87.8,88.9l-0.5,0.5c-0.8,0.6-1.5,1.4-2.1,2.1c-0.5,0.5-0.8,1.1-0.9,1.8c0,1.9-0.2,3.8-0.7,5.6
		c-0.2,0.6-0.4,1.3-0.7,1.8l-0.1,0.2c-0.1,0.2-0.2,0.5-0.3,0.7c-1.1,2.2-2.7,3.5-4.5,3.5c-1,0-1.9-0.4-2.6-1.1
		c-0.9-0.9-1.7-1.9-2.2-3.1c-1.1-2.4-1.6-5-1.6-7.7c0-1.6-3.5-4.4-3.5-4.4v-0.1l1.3-4.3h17.1l0.7,2.2l0.5,1.6L87.8,88.9L87.8,88.9"
		/>
	<g>
		<defs>
			<polyline id="SVGID_13_" points="87.8,88.8 68.1,88.8 69.5,84.5 86.4,84.5 87.1,86.7 87.6,88.2 87.8,88.8 			"/>
		</defs>
		<clipPath id="SVGID_14_">
			<use xlink:href="#SVGID_13_"  style="overflow:visible;"/>
		</clipPath>
		<g class="st132">
			<polyline class="st133" points="68.2,84.5 68.2,88.8 68.1,88.8 68.1,84.5 68.2,84.5 			"/>
			<polyline class="st133" points="69.9,84.5 69.9,88.8 68.2,88.8 68.2,84.5 69.9,84.5 			"/>
			<polyline class="st134" points="71.7,84.5 71.7,88.8 69.9,88.8 69.9,84.5 71.7,84.5 			"/>
			<polyline class="st135" points="73.4,84.5 73.4,88.8 71.7,88.8 71.7,84.5 73.4,84.5 			"/>
			<polyline class="st136" points="75.1,84.5 75.1,88.8 73.4,88.8 73.4,84.5 75.1,84.5 			"/>
			<polyline class="st41" points="76.8,84.5 76.8,88.8 75.1,88.8 75.1,84.5 76.8,84.5 			"/>
			<polyline class="st41" points="80.5,84.5 80.5,88.8 76.8,88.8 76.8,84.5 80.5,84.5 			"/>
			<polyline class="st70" points="84.1,84.5 84.1,88.8 80.5,88.8 80.5,84.5 84.1,84.5 			"/>
			<polyline class="st53" points="87.8,84.5 87.8,88.8 84.1,88.8 84.1,84.5 87.8,84.5 			"/>
		</g>
	</g>
	<polyline class="st75" points="69.5,84.5 68.1,88.9 68.1,88.9 68.1,88.8 68.2,88.5 69.5,84.5 69.5,84.5 	"/>
	<polyline class="st108" points="71.1,84.5 69.5,84.5 69.5,84.5 69.5,84.5 69.5,84.5 69.9,84.5 71.1,84.5 	"/>
	<path class="st75" d="M72.3,98.4c0.2,0.9,0.5,1.7,0.9,2.5l0,0C72.8,100.1,72.5,99.3,72.3,98.4 M71.6,93.5L71.6,93.5 M71.6,93.5
		L71.6,93.5 M71.6,93.5L71.6,93.5 M71.6,93.5L71.6,93.5 M71.6,93.5L71.6,93.5 M71.6,93.5L71.6,93.5 M71.6,93.5L71.6,93.5"/>
	<path class="st93" d="M71.7,84.5L71.7,84.5v4.3h-1.7l0,0h-1.7l0,0h-0.1v0.1c0,0,3.5,2.8,3.5,4.4l0,0l0,0l0,0l0,0l0,0l0,0l0,0l0,0
		l0,0c0,1.7,0.2,3.3,0.6,5c0.2,0.9,0.5,1.7,0.9,2.5H77C73.5,100,76.2,90,76.1,90l0,0c0,0-2.8-0.2-3-0.9c-0.2-0.2-0.3-0.4-0.4-0.6h-1
		L71.7,84.5"/>
	<polyline class="st137" points="68.2,88.5 68.1,88.8 68.2,88.8 68.2,88.5 	"/>
	<polyline class="st137" points="69.9,84.5 69.5,84.5 69.5,84.5 68.2,88.5 68.2,88.8 69.9,88.8 69.9,84.5 	"/>
	<polyline class="st138" points="71.7,84.5 71.2,84.5 71.1,84.5 69.9,84.5 69.9,88.8 71.7,88.8 71.7,84.5 	"/>
	<path class="st139" d="M73.4,84.5h-1.7v4.3h1c-0.4-0.7,0-1.3,0.7-1.8V84.5"/>
	<path class="st140" d="M75.1,84.5h-1.7V87c0.5-0.3,1.1-0.6,1.7-0.8V84.5"/>
	<path class="st93" d="M76.8,84.5h-1.7v1.7c0.6-0.2,1.2-0.4,1.7-0.5V84.5"/>
	<path class="st93" d="M80.5,84.5h-3.6v1.2c1.2-0.3,2.4-0.5,3.7-0.7L80.5,84.5"/>
	<path class="st90" d="M84.1,84.5h-3.7v0.6c1.3-0.2,2.6-0.3,3.7-0.4V84.5"/>
	<path class="st94" d="M86.4,84.5h-2.3v0.2C85.5,84.5,86.4,84.5,86.4,84.5"/>
	<g>
		<defs>
			<polyline id="SVGID_15_" points="83.9,105.1 72,105.1 73.1,100.9 78.8,100.9 78.8,100.9 82.8,100.9 83.1,102 83.7,104.5 
				83.9,105.1 			"/>
		</defs>
		<clipPath id="SVGID_16_">
			<use xlink:href="#SVGID_15_"  style="overflow:visible;"/>
		</clipPath>
		<g class="st141">
			<polyline class="st142" points="72.5,100.9 72.6,105.1 72,105.1 72,100.9 72.5,100.9 			"/>
			<polyline class="st142" points="73.3,100.9 73.3,105.1 72.6,105.1 72.5,100.9 73.3,100.9 			"/>
			<polyline class="st143" points="74.1,100.9 74.1,105.1 73.3,105.1 73.3,100.9 74.1,100.9 			"/>
			<polyline class="st144" points="74.8,100.9 74.9,105.1 74.1,105.1 74.1,100.9 74.8,100.9 			"/>
			<polyline class="st145" points="75.6,100.9 75.7,105.1 74.9,105.1 74.8,100.9 75.6,100.9 			"/>
			<polyline class="st146" points="76.4,100.9 76.4,105.1 75.7,105.1 75.6,100.9 76.4,100.9 			"/>
			<polyline class="st147" points="77.1,100.9 77.2,105.1 76.4,105.1 76.4,100.9 77.1,100.9 			"/>
			<polyline class="st148" points="77.9,100.9 78,105.1 77.2,105.1 77.1,100.9 77.9,100.9 			"/>
			<polyline class="st149" points="78.7,100.9 78.7,105.1 78,105.1 77.9,100.9 78.7,100.9 			"/>
			<polyline class="st69" points="79.5,100.9 79.5,105.1 78.7,105.1 78.7,100.9 79.5,100.9 			"/>
			<polyline class="st41" points="80.2,100.9 80.3,105.1 79.5,105.1 79.5,100.9 80.2,100.9 			"/>
			<polyline class="st41" points="83.5,100.9 83.6,105.1 80.3,105.1 80.2,100.9 83.5,100.9 			"/>
			<polyline class="st70" points="83.6,105.1 83.5,100.9 83.9,100.9 83.9,105.1 83.6,105.1 			"/>
		</g>
	</g>
	<polyline class="st41" points="86.7,134.5 69.2,134.5 72,105.1 83.9,105.1 84,105.7 86.7,134.5 	"/>
	<g>
		<defs>
			<path id="SVGID_17_" d="M91.7,136.1c-1.6-0.1-3.3-0.2-5-0.3l0,0c-2.2-0.1-4.4-0.1-6.8-0.2h-5.3c-2.4,0-4.7,0.1-6.9,0.2l-3.6,0.2
				l0.4-1.6h26.7l0.1,0.4L91.7,136.1"/>
		</defs>
		<clipPath id="SVGID_18_">
			<use xlink:href="#SVGID_17_"  style="overflow:visible;"/>
		</clipPath>
		<g class="st150">
			<polyline class="st151" points="70.3,134.5 70.3,136.1 64.2,136.1 64.2,134.5 70.3,134.5 			"/>
			<polyline class="st41" points="76.3,134.5 76.3,136.1 70.3,136.1 70.3,134.5 76.3,134.5 			"/>
			<polyline class="st41" points="81.5,134.5 81.5,136.1 76.3,136.1 76.3,134.5 81.5,134.5 			"/>
			<polyline class="st70" points="86.6,134.5 86.6,136.1 81.5,136.1 81.5,134.5 86.6,134.5 			"/>
			<polyline class="st53" points="91.7,134.5 91.7,136.1 86.6,136.1 86.6,134.5 91.7,134.5 			"/>
		</g>
	</g>
	<g>
		<defs>
			<polyline id="SVGID_19_" points="108.5,139.8 108.5,145.3 47.4,145.3 47.4,139.8 108.5,139.8 			"/>
		</defs>
		<clipPath id="SVGID_20_">
			<use xlink:href="#SVGID_19_"  style="overflow:visible;"/>
		</clipPath>
		<g class="st152">
			<polyline class="st142" points="47.7,139.8 47.7,145.3 47.4,145.3 47.4,139.8 47.7,139.8 			"/>
			<polyline class="st142" points="50.4,139.8 50.4,145.3 47.7,145.3 47.7,139.8 50.4,139.8 			"/>
			<polyline class="st143" points="53,139.8 53,145.3 50.4,145.3 50.4,139.8 53,139.8 			"/>
			<polyline class="st144" points="55.7,139.8 55.7,145.3 53,145.3 53,139.8 55.7,139.8 			"/>
			<polyline class="st145" points="58.3,139.8 58.3,145.3 55.7,145.3 55.7,139.8 58.3,139.8 			"/>
			<polyline class="st146" points="61,139.8 61,145.3 58.3,145.3 58.3,139.8 61,139.8 			"/>
			<polyline class="st147" points="63.7,139.8 63.7,145.3 61,145.3 61,139.8 63.7,139.8 			"/>
			<polyline class="st148" points="66.4,139.8 66.4,145.3 63.7,145.3 63.7,139.8 66.4,139.8 			"/>
			<polyline class="st149" points="69,139.8 69,145.3 66.4,145.3 66.4,139.8 69,139.8 			"/>
			<polyline class="st69" points="71.7,139.8 71.7,145.3 69,145.3 69,139.8 71.7,139.8 			"/>
			<polyline class="st41" points="74.4,139.8 74.4,145.3 71.7,145.3 71.7,139.8 74.4,139.8 			"/>
			<polyline class="st41" points="85.8,139.8 85.8,145.3 74.4,145.3 74.4,139.8 85.8,139.8 			"/>
			<polyline class="st70" points="97.1,139.8 97.1,145.3 85.8,145.3 85.8,139.8 97.1,139.8 			"/>
			<polyline class="st53" points="108.5,139.8 108.5,145.3 97.1,145.3 97.1,139.8 108.5,139.8 			"/>
		</g>
	</g>
	<path class="st41" d="M108.5,139.8H47.4c0.4-1.6,7.2-3,16.8-3.7c3.2-0.2,6.7-0.4,10.5-0.4H78c4.9,0,9.6,0.2,13.7,0.5
		c4,0.2,7.9,0.7,11.8,1.5c0.9,0.2,1.8,0.4,2.6,0.7C107.6,138.7,108.4,139.3,108.5,139.8"/>
	<path class="st153" d="M84.1,87.7L84.1,87.7v1.1h-3.7v-0.1l0,0v0.1h-0.7c-1,0.2-2,0.3-3,0.3c1.6,0,6,0.3,9.5,0.3h1l0.5-0.5v-0.1
		h-3.7V87.7"/>
	<path class="st153" d="M80.5,88.7l-0.7,0.1h0.7V88.7"/>
	<path class="st154" d="M84.1,87.7c-1.2,0.4-2.4,0.7-3.7,0.9v0.1h3.7V87.7"/>
	<path class="st155" d="M87.1,86.7c-0.8,0.3-1.8,0.7-3,1.1v1.1h3.7l-0.2-0.5L87.1,86.7"/>
	<polyline class="st156" points="76.4,105 76,105.1 76,105.1 76.4,105.1 76.4,105 	"/>
	<polyline class="st157" points="77.2,105 76.4,105 76.4,105.1 77.2,105.1 77.2,105 	"/>
	<polyline class="st158" points="78,104.9 77.2,105 77.2,105.1 78,105.1 78,104.9 	"/>
	<polyline class="st159" points="78.7,104.9 78,104.9 78,105.1 78.7,105.1 78.7,104.9 	"/>
	<polyline class="st160" points="79.5,104.8 78.7,104.9 78.7,105.1 79.5,105.1 79.5,104.8 	"/>
	<polyline class="st153" points="80.3,104.8 79.5,104.8 79.5,105.1 80.3,105.1 80.3,104.8 	"/>
	<polyline class="st153" points="83.6,104.5 80.3,104.8 80.3,105.1 83.6,105.1 83.6,104.5 	"/>
	<polyline class="st154" points="83.7,104.5 83.6,104.5 83.6,105.1 83.9,105.1 83.7,104.5 	"/>
	<path class="st153" d="M83.9,105.1H76l8,0.6v-0.6"/>
	<polyline class="st155" points="91.3,134.5 87.5,134.5 91.4,134.9 91.3,134.5 	"/>
	<polyline class="st161" points="110.9,22 61.7,22 61.8,22 62.4,22 62.4,22.1 62.4,22 64.4,22 64.4,22.1 64.4,22 66.3,22 66.3,22.2 
		66.3,22 68.2,22 68.2,22.3 68.2,22 70.2,22 70.2,22.3 70.2,22 72.1,22 72.1,22.4 72.1,22 74.1,22 74.1,22.5 74.1,22 78,22 90.2,22 
		93.2,22 96.4,22 98.6,22 98.6,23.3 98.6,22 110.9,22 110.9,22 	"/>
	<polyline class="st162" points="62.4,22 61.8,22 62.4,22.1 62.4,22 	"/>
	<polyline class="st163" points="64.4,22 62.4,22 62.4,22.1 64.4,22.1 64.4,22 	"/>
	<polyline class="st164" points="66.3,22 64.4,22 64.4,22.1 66.3,22.2 66.3,22 	"/>
	<polyline class="st165" points="68.2,22 66.3,22 66.3,22.2 68.2,22.3 68.2,22 	"/>
	<polyline class="st166" points="70.2,22 68.2,22 68.2,22.3 70.2,22.3 70.2,22 	"/>
	<polyline class="st160" points="72.1,22 70.2,22 70.2,22.3 72.1,22.4 72.1,22 	"/>
	<polyline class="st153" points="74.1,22 72.1,22 72.1,22.4 74.1,22.5 74.1,22 	"/>
	<polyline class="st153" points="78,22 74.1,22 74.1,22.5 78,22.6 78,22 	"/>
	<path class="st154" d="M93.2,22h-3V23l3,0.1V22 M98.6,22h-2.2v1.2l2.2,0.1V22"/>
	<polyline class="st155" points="110.9,22 98.6,22 98.6,23.3 110.5,23.7 110.9,22 	"/>
	<polyline class="st167" points="77,100.9 73.1,100.9 73.1,100.9 73.3,100.9 73.3,101.2 73.3,101.2 73.3,100.9 74.1,100.9 
		74.1,102.6 74.1,102.6 74.1,100.9 74.8,100.9 74.9,103.6 74.9,103.6 74.8,100.9 75.6,100.9 75.6,103.8 75.6,103.8 75.6,100.9 
		76.4,100.9 76.4,103.2 76.4,103.2 76.4,100.9 77,100.9 77,100.9 	"/>
	<polyline class="st168" points="72.5,103.1 72,105.1 72.6,105.1 72.5,103.1 	"/>
	<polyline class="st168" points="73.3,100.9 73.1,100.9 73.1,100.9 72.5,103.1 72.6,105.1 73.3,105.1 73.3,101.2 73.3,100.9 	"/>
	<polyline class="st169" points="74.1,100.9 73.3,100.9 73.3,101.2 73.3,105.1 74.1,105.1 74.1,102.6 74.1,100.9 	"/>
	<polyline class="st170" points="74.8,100.9 74.1,100.9 74.1,102.6 74.1,105.1 74.9,105.1 74.9,103.6 74.8,100.9 	"/>
	<polyline class="st171" points="75.6,100.9 74.8,100.9 74.9,103.6 74.9,105.1 75.7,105.1 75.6,103.8 75.6,100.9 	"/>
	<polyline class="st172" points="76.4,100.9 75.6,100.9 75.6,103.8 75.7,105.1 75.8,105.1 76,105.1 76.4,103.4 76.4,103.2 
		76.4,100.9 	"/>
	<polyline class="st173" points="77,100.9 76.4,100.9 76.4,103.2 76.4,103.4 77,100.9 	"/>
	<polyline class="st174" points="76,105.1 75.8,105.1 76,105.1 76,105.1 	"/>
	<path class="st93" d="M75.8,105.1H72l-2.8,29.4h5.3l1.5-29.4H75.8"/>
	<path class="st175" d="M76,105.1L76,105.1"/>
	<polyline class="st77" points="48.9,22 48.3,22 48.9,23.3 48.9,22 	"/>
	<polyline class="st78" points="50.8,22 48.9,22 48.9,23.3 50.3,26.6 48.9,26.6 50.8,26.6 50.8,22 	"/>
	<polyline class="st79" points="52.7,22 50.8,22 50.8,26.6 52.7,26.6 52.7,22 	"/>
	<polyline class="st80" points="54.7,22 52.7,22 52.7,26.6 54.7,26.6 54.7,22 	"/>
	<path class="st81" d="M56.6,22h-1.9v4.6h1.9v-2.1C54.8,23.6,55.9,22.5,56.6,22L56.6,22"/>
	<path class="st82" d="M56.6,24.6v2.1h1.9v-1.3C57.9,25.2,57.2,24.9,56.6,24.6 M56.6,22.1L56.6,22.1L56.6,22.1L56.6,22.1"/>
	<path class="st83" d="M58.6,25.3v1.3h1.9v-0.9C59.7,25.5,59.1,25.4,58.6,25.3"/>
	<path class="st84" d="M60.5,25.7v0.9h1.9V26C61.7,25.9,61.1,25.8,60.5,25.7"/>
	<path class="st85" d="M62.4,26v0.7h1.9v-0.5L62.4,26"/>
	<path class="st86" d="M64.4,26.2v0.5h1.9v-0.3C65.6,26.3,65,26.2,64.4,26.2"/>
	<path class="st87" d="M66.3,26.3v0.3h1.9v-0.2L66.3,26.3"/>
	<path class="st88" d="M68.2,26.5v0.2h2v-0.1L68.2,26.5"/>
	<path class="st89" d="M70.3,26.6L70.3,26.6l1.9,0.1l0,0L70.3,26.6"/>
	<path class="st93" d="M72.1,26.6L72.1,26.6h1.5H72.1"/>
	<polyline class="st176" points="46.9,22 45,22 46.3,26.6 46.9,26.6 46.9,22 	"/>
	<polyline class="st97" points="48.3,22 46.9,22 46.9,26.6 48.9,26.6 48.9,23.3 48.3,22 	"/>
	<polyline class="st98" points="48.9,23.3 48.9,26.6 50.3,26.6 48.9,23.3 	"/>
	<g>
		<defs>
			<path id="SVGID_21_" d="M68.7,59.2c0,0-6.2-14.3-5-28.1H58C58,31.1,59.4,49.9,68.7,59.2"/>
		</defs>
		<clipPath id="SVGID_22_">
			<use xlink:href="#SVGID_21_"  style="overflow:visible;"/>
		</clipPath>
		<g class="st177">
			<path class="st178" d="M67.6,58L67.6,58c0.3,0.4,0.7,0.8,1.1,1.1l0,0C68.3,58.8,68,58.4,67.6,58"/>
		</g>
	</g>
	<g>
		<defs>
			<polyline id="SVGID_23_" points="58,31.1 68.7,31.1 68.7,59.2 58,59.2 58,31.1 			"/>
		</defs>
		<clipPath id="SVGID_24_">
			<use xlink:href="#SVGID_23_"  style="overflow:visible;"/>
		</clipPath>
		<g class="st179">
			
				<linearGradient id="SVGID_25_" gradientUnits="userSpaceOnUse" x1="-249.0105" y1="2047.4377" x2="-247.6974" y2="2047.4377" gradientTransform="matrix(8.13 0 0 8.13 2082.45 -16611.2207)">
				<stop  offset="0" style="stop-color:#7A828E"/>
				<stop  offset="1" style="stop-color:#99A0AA"/>
			</linearGradient>
			<path class="st180" d="M59,31.1h-1c0.2,2.3,0.6,4.5,1,6.7V31.1"/>
			
				<linearGradient id="SVGID_26_" gradientUnits="userSpaceOnUse" x1="-249.0105" y1="2047.8569" x2="-247.6974" y2="2047.8569" gradientTransform="matrix(8.13 0 0 8.13 2082.45 -16611.2207)">
				<stop  offset="0" style="stop-color:#79818D"/>
				<stop  offset="1" style="stop-color:#98A0A9"/>
			</linearGradient>
			<path class="st181" d="M60.7,31.1H59v6.7c0.5,2.3,1,4.6,1.7,6.8L60.7,31.1"/>
			
				<linearGradient id="SVGID_27_" gradientUnits="userSpaceOnUse" x1="-249.0105" y1="2048.1477" x2="-247.6974" y2="2048.1477" gradientTransform="matrix(8.13 0 0 8.13 2082.45 -16611.2207)">
				<stop  offset="0" style="stop-color:#79808C"/>
				<stop  offset="1" style="stop-color:#989FA8"/>
			</linearGradient>
			<path class="st182" d="M62.4,31.1h-1.7v13.6c0.5,1.6,1.1,3.2,1.7,4.7L62.4,31.1"/>
			
				<linearGradient id="SVGID_28_" gradientUnits="userSpaceOnUse" x1="-249.0105" y1="2048.3696" x2="-247.6974" y2="2048.3696" gradientTransform="matrix(8.13 0 0 8.13 2082.45 -16611.2207)">
				<stop  offset="0" style="stop-color:#787E8B"/>
				<stop  offset="1" style="stop-color:#979DA8"/>
			</linearGradient>
			<path class="st183" d="M63.7,31.1h-1.3v18.3c0.5,1.2,1.1,2.4,1.7,3.6V42.9c-0.4-2.7-0.6-5.4-0.6-8.1
				C63.5,33.5,63.5,32.3,63.7,31.1"/>
			
				<linearGradient id="SVGID_29_" gradientUnits="userSpaceOnUse" x1="-249.0105" y1="2049.2678" x2="-247.6974" y2="2049.2678" gradientTransform="matrix(8.13 0 0 8.13 2082.45 -16611.2207)">
				<stop  offset="0" style="stop-color:#777D89"/>
				<stop  offset="1" style="stop-color:#969CA6"/>
			</linearGradient>
			<path class="st184" d="M64.2,42.9V53c0.5,1,1.1,1.9,1.7,2.8v-4.9C65.2,48.3,64.6,45.6,64.2,42.9"/>
			
				<linearGradient id="SVGID_30_" gradientUnits="userSpaceOnUse" x1="-249.0105" y1="2049.9026" x2="-247.6974" y2="2049.9026" gradientTransform="matrix(8.13 0 0 8.13 2082.45 -16611.2207)">
				<stop  offset="0" style="stop-color:#767C88"/>
				<stop  offset="1" style="stop-color:#969BA5"/>
			</linearGradient>
			<path class="st185" d="M65.9,50.9v4.9c0.5,0.8,1.1,1.5,1.7,2.2v-1.6C67.1,55,66.5,53.1,65.9,50.9"/>
			
				<linearGradient id="SVGID_31_" gradientUnits="userSpaceOnUse" x1="-249.0105" y1="2050.311" x2="-247.6974" y2="2050.311" gradientTransform="matrix(8.13 0 0 8.13 2082.45 -16611.2207)">
				<stop  offset="0" style="stop-color:#747A88"/>
				<stop  offset="1" style="stop-color:#9499A5"/>
			</linearGradient>
			<path class="st186" d="M67.6,56.4V58c0.3,0.4,0.7,0.8,1.1,1.1l0,0C68.7,59.2,68.2,58.2,67.6,56.4"/>
		</g>
	</g>
	<path class="st187" d="M70.3,134.5h-1.1l-1.4,1.4l2.5-0.1V134.5"/>
	<path class="st116" d="M74.5,134.5h-4.3v1.3c1.4,0,2.9-0.1,4.4-0.1l0,0L74.5,134.5"/>
	<path class="st116" d="M74.7,135.7L74.7,135.7"/>
	<polyline class="st89" points="69.8,139.8 69.8,139.8 69.8,139.8 69.8,139.8 69.8,139.8 	"/>
	<path class="st93" d="M74.7,135.7L74.7,135.7"/>
	<path class="st173" d="M63.7,139.8c-0.4,0.1-3.9,1.5,0,2.9V139.8"/>
	<path class="st188" d="M63.7,139.8L63.7,139.8v2.9c0.9,0.3,1.7,0.5,2.6,0.7v-3.5H63.7"/>
	<path class="st189" d="M66.3,139.8v3.5c0.8,0.2,1.6,0.3,2.6,0.4v-3.9L66.3,139.8"/>
	<path class="st115" d="M69,139.8v3.9l0.8,0.1v-4.1L69,139.8"/>
	<polyline class="st190" points="66.4,139.8 63.7,139.8 63.7,139.8 66.4,139.8 66.4,139.8 	"/>
	<polyline class="st191" points="69,139.8 66.4,139.8 66.4,139.8 69,139.8 69,139.8 	"/>
	<polyline class="st192" points="69.8,139.8 69,139.8 69,139.8 69.8,139.8 69.8,139.8 	"/>
	<g>
		<defs>
			<path id="SVGID_32_" d="M88.4,66.2c0-0.1,0-0.3,0-0.4c0.2-4,0-34.7,0-34.7h16.3C104.7,31.1,105,63.7,88.4,66.2"/>
		</defs>
		<clipPath id="SVGID_33_">
			<use xlink:href="#SVGID_32_"  style="overflow:visible;"/>
		</clipPath>
		<g class="st193">
			<path class="st194" d="M88.4,31.1L88.4,31.1c0,0,0,0.4,0,1l0,0C88.4,31.4,88.4,31.1,88.4,31.1"/>
			<path class="st194" d="M96.4,61.8c-2,2.4-4.8,4-7.9,4.5l0,0C91.5,65.8,94.3,64.2,96.4,61.8L96.4,61.8"/>
			<path class="st195" d="M104.7,31.3c0,2.4-0.3,21.4-8.3,30.4l0,0C104.4,52.7,104.7,33.7,104.7,31.3L104.7,31.3"/>
			<path class="st195" d="M104.7,31.1v0.2l0,0V31.1"/>
		</g>
	</g>
	<g>
		<defs>
			<polyline id="SVGID_34_" points="88.4,31.1 104.7,31.1 104.7,66.2 88.4,66.2 88.4,31.1 			"/>
		</defs>
		<clipPath id="SVGID_35_">
			<use xlink:href="#SVGID_34_"  style="overflow:visible;"/>
		</clipPath>
		<g class="st196">
			
				<linearGradient id="SVGID_36_" gradientUnits="userSpaceOnUse" x1="-260.0927" y1="1989.3834" x2="-258.7796" y2="1989.3834" gradientTransform="matrix(12.38 0 0 12.38 3308.3801 -24579.9297)">
				<stop  offset="0" style="stop-color:#8B8F9C"/>
				<stop  offset="1" style="stop-color:#A8ABB5"/>
			</linearGradient>
			<path class="st197" d="M96.4,31.1h-7.9c0,0,0,0.4,0,1h5.8c0,6.9-0.6,24.8-5.8,33.7l0,0c0,0.1,0,0.3,0,0.4
				c3.1-0.5,5.9-2.1,7.9-4.5L96.4,31.1"/>
			
				<linearGradient id="SVGID_37_" gradientUnits="userSpaceOnUse" x1="-260.0927" y1="1989.2047" x2="-258.7796" y2="1989.2047" gradientTransform="matrix(12.38 0 0 12.38 3308.3801 -24579.9297)">
				<stop  offset="0" style="stop-color:#8B8D9C"/>
				<stop  offset="1" style="stop-color:#A8A9B5"/>
			</linearGradient>
			<path class="st198" d="M104.7,31.1h-8.3v30.7c8-9.1,8.3-28.1,8.3-30.5V31.1L104.7,31.1"/>
			
				<linearGradient id="SVGID_38_" gradientUnits="userSpaceOnUse" x1="-258.7806" y1="1987.9642" x2="-258.7806" y2="1987.9642" gradientTransform="matrix(12.38 0 0 12.38 3308.3801 -24579.9297)">
				<stop  offset="0" style="stop-color:#8B8D9C"/>
				<stop  offset="1" style="stop-color:#A8A9B5"/>
			</linearGradient>
			<path class="st199" d="M104.7,31.1L104.7,31.1"/>
		</g>
	</g>
	<path class="st154" d="M88.4,32h-0.6c0,0,0.3,30.7,0.1,34.7c0.2-0.3,0.4-0.7,0.6-1c0.1-1.2,0.1-4.6,0.1-8.8l0,0
		C88.6,48.1,88.5,35.6,88.4,32"/>
	<path class="st200" d="M88.4,32L88.4,32c0,3.5,0.1,16.1,0.1,24.9C88.6,48.1,88.5,35.6,88.4,32"/>
	
		<linearGradient id="SVGID_39_" gradientUnits="userSpaceOnUse" x1="-260.0927" y1="1989.402" x2="-258.7796" y2="1989.402" gradientTransform="matrix(12.38 0 0 12.38 3308.3801 -24579.9297)">
		<stop  offset="0" style="stop-color:#A7AAB4"/>
		<stop  offset="1" style="stop-color:#BEC1C8"/>
	</linearGradient>
	<path class="st201" d="M94.3,32h-5.8c0,3.5,0.1,16.1,0.1,24.9l0,0c0,4.2,0,7.6-0.1,8.8C93.7,56.8,94.2,38.9,94.3,32"/>
	<polyline class="st153" points="78,22.6 78,26.6 86.4,26.6 86.4,22.9 78,22.6 	"/>
	<polyline class="st154" points="86.4,22.9 86.4,26.6 90.2,26.6 90.2,23 86.4,22.9 	"/>
	<polyline class="st202" points="86.4,22 78,22 78,22.6 86.4,22.9 86.4,22 	"/>
	<polyline class="st203" points="90.2,22 86.4,22 86.4,22.9 90.2,23 90.2,22 	"/>
	<polyline class="st154" points="93.2,23.1 93.2,26.6 96.4,26.6 96.4,23.2 93.2,23.1 	"/>
	<polyline class="st203" points="96.4,22 93.2,22 93.2,23.1 96.4,23.2 96.4,22 	"/>
	<polyline class="st204" points="124.8,26.1 120.8,26.1 120.8,29.5 124.8,29.5 124.8,26.1 	"/>
	<path class="st204" d="M124.8,47.5L124.8,47.5c-0.4,0.7-0.8,1.3-1.2,1.9c-0.4,0.6-1.1,1.5-1.6,2.3l0,0c-0.4,0.5-0.8,1-1.2,1.5v5.1
		c1.4-1.5,2.8-3,4-4.6L124.8,47.5"/>
	<polyline class="st155" points="128.9,26.1 127,26.1 127,29.5 128.9,29.5 128.9,26.1 	"/>
	<path class="st155" d="M128.9,38.3L128.9,38.3l-0.5,1.5c-0.4,1.2-0.9,2.4-1.4,3.5v7.2c0.7-1.1,1.3-2.2,2-3.4V38.3"/>
	<polyline class="st205" points="33,26.1 30.2,26.1 28.5,27.2 28.5,29.5 33,29.5 33,26.1 	"/>
	<polyline class="st204" points="30.2,26.1 28.5,26.1 28.5,27.2 30.2,26.1 	"/>
	<path class="st206" d="M33,51.9l-1.8,1.2c0.6,0.8,1.2,1.6,1.8,2.3V51.9"/>
	<path class="st207" d="M28.5,41.4v7.8c0.8,1.4,1.7,2.7,2.6,4l1.8-1.2v-2.2l0,0C31.2,47.1,29.7,44.3,28.5,41.4"/>
	<polyline class="st205" points="37.5,26.1 35.3,26.1 35.3,29.5 37.5,29.5 37.5,26.1 	"/>
	<path class="st206" d="M35.3,52.9v5.2c0.7,0.7,1.5,1.5,2.2,2.2v-4.8l0,0C36.7,54.6,36,53.7,35.3,52.9"/>
	<path class="st206" d="M100,78.1c0,1.7,0.2,3.3,0.5,5c0.5,0.2,1,0.3,1.5,0.2c0.3,0,0.7,0,1-0.1l-2.3-4.1
		C100.5,78.9,100.2,78.5,100,78.1"/>
	<polyline class="st153" points="81.2,111.5 79.9,134.5 85.2,134.5 81.2,111.5 	"/>
	<polyline class="st153" points="77.6,111.5 77.6,134.5 78.4,134.5 77.6,111.5 	"/>
	<path class="st208" d="M81.5,134.5h-1.5v1.2h1.5V134.5"/>
	<path class="st209" d="M85.2,134.5h-3.7v1.2h2.8h1.5h0.8v-0.1l-1.4-1.2"/>
	<path class="st210" d="M86.6,135.7L86.6,135.7l0.1,0.1L86.6,135.7"/>
	<path class="st208" d="M84.2,135.7h1.5H84.2"/>
	<polyline class="st208" points="78.4,134.5 77.6,134.5 77.4,135.6 78.9,135.6 78.4,134.5 	"/>
	<path class="st211" d="M86.6,135.8L86.6,135.8 M79.9,135.6L79.9,135.6"/>
	<path class="st212" d="M79.9,135.6c1.6,0.6,2.9,1.7,3.9,3.1c2.8,0.3,6.5,0.6,11.2,0.8c-2.1-2.3-8.1-3.7-8.3-3.7l0,0l-6.6-0.2
		L79.9,135.6"/>
	<path class="st213" d="M86.7,135.8L86.7,135.8"/>
	<path class="st214" d="M78,135.6L78,135.6 M78,135.6L78,135.6"/>
	<path class="st208" d="M78.9,135.6L78.9,135.6"/>
	<path class="st208" d="M78,135.6h-0.6c0.7,0.6,1.2,1.4,1.6,2.3c0.7,0.2,1.5,0.3,2.5,0.5c-0.5-1.2-1.4-2.2-2.5-2.8L78,135.6"/>
	<polyline class="st208" points="79.3,139.8 79.3,139.8 79.3,139.8 79.3,139.8 	"/>
	<path class="st208" d="M81.7,139.8L81.7,139.8L81.7,139.8h-2.4v4.9l2.4,0.1V139.8"/>
	<path class="st215" d="M81.7,139.8h-2.4H81.7L81.7,139.8"/>
	<path class="st208" d="M85.8,139.8h-1.3v5.1h1.3V139.8"/>
	<path class="st209" d="M95.2,139.8h-9.5v5.2c2.8,0.1,6,0.2,9.5,0.2V139.8"/>
	<path class="st208" d="M106.2,138.3c-1.5,0.8-3.2,1.3-4.9,1.4c2.2,0,4.6,0.1,7.3,0.1C108.4,139.2,107.6,138.7,106.2,138.3
		L106.2,138.3"/>
	<path class="st210" d="M108.5,139.8h-8.1c0.6,0,7.5,1.3,8,3.4L108.5,139.8"/>
	<polyline class="st216" points="47.7,139.8 47.4,139.8 47.4,145.3 47.7,145.3 47.7,139.8 	"/>
	<polyline class="st216" points="50.4,139.8 47.7,139.8 47.7,145.3 50.4,145.3 50.4,139.8 	"/>
	<polyline class="st217" points="53,139.8 50.4,139.8 50.4,145.3 53,145.3 53,139.8 	"/>
	<polyline class="st218" points="55.7,139.8 53,139.8 53,145.3 55.7,145.3 55.7,139.8 	"/>
	<polyline class="st219" points="58.3,139.8 55.7,139.8 55.7,145.3 58.3,145.3 58.3,139.8 	"/>
	<polyline class="st220" points="58.9,139.8 58.3,139.8 58.3,145.3 58.9,145.3 58.9,139.8 	"/>
	<path class="st89" d="M69.8,143.9v1.4h1.9v-1.2L69.8,143.9"/>
	<path class="st93" d="M71.7,144.1v1.2h2.6v-1C73.4,144.2,72.5,144.2,71.7,144.1"/>
	<path class="st93" d="M74.4,144.3v1h5v-0.6C77.5,144.5,75.9,144.4,74.4,144.3"/>
	<polyline class="st221" points="58.9,139.8 58.9,139.8 58.9,145.3 61,145.3 61,139.8 58.9,139.8 	"/>
	<path class="st222" d="M61.1,139.8v5.5h2.6v-2.6c-3.9-1.3-0.4-2.7,0-2.9L61.1,139.8"/>
	<path class="st223" d="M63.7,142.7v2.6h2.6v-2C65.4,143.1,64.6,142.9,63.7,142.7 M63.7,139.8L63.7,139.8"/>
	<path class="st224" d="M66.3,143.3v2h2.6v-1.5C67.9,143.6,67,143.5,66.3,143.3"/>
	<path class="st225" d="M69,143.7v1.5h0.8v-1.4L69,143.7"/>
	<polyline class="st226" points="61,139.8 58.9,139.8 61,139.8 61,139.8 	"/>
	<polyline class="st227" points="63.7,139.8 61,139.8 61,139.8 63.7,139.8 63.7,139.8 	"/>
	<polyline class="st228" points="63.7,139.8 63.7,139.8 63.7,139.8 63.7,139.8 63.7,139.8 	"/>
	<path class="st93" d="M81.7,144.8v0.5h2.7v-0.4L81.7,144.8"/>
	<path class="st90" d="M95.2,145.2v0.1h1.9v-0.1L95.2,145.2"/>
	<path class="st94" d="M97.1,145.2L97.1,145.2l11.4,0.1C104.4,145.3,100.6,145.3,97.1,145.2"/>
	<path class="st229" d="M79.3,144.7v0.6h2.4v-0.5L79.3,144.7"/>
	<path class="st229" d="M84.5,144.9v0.4h1.3v-0.4L84.5,144.9"/>
	<path class="st230" d="M85.8,144.9v0.4h9.5v-0.1C91.7,145.2,88.6,145,85.8,144.9"/>
	<path class="st93" d="M67.8,135.9l-3.6,0.2l0,0c-9.7,0.7-16.4,2.1-16.8,3.7h11.5C58.9,138.3,67.8,135.8,67.8,135.9L67.8,135.9
		 M74.7,135.6c-2.9,0.5-4.8,3.9-4.8,4.1h9.5c0-0.6-0.1-1.2-0.4-1.8C75,137.1,74.6,136.1,74.7,135.6 M74.7,135.6
		c-2.4,0-4.7,0.1-6.9,0.2L74.7,135.6L74.7,135.6"/>
	<path class="st231" d="M74.7,135.7c-1.5,0-3,0-4.4,0.1l-2.5,0.1l0,0C70,135.8,72.3,135.7,74.7,135.7L74.7,135.7"/>
	<path class="st110" d="M74.7,135.7l-6.9,0.2l0,0c0,0-8.9,2.4-8.9,3.9h11C69.8,139.7,71.7,136.2,74.7,135.7L74.7,135.7"/>
	<path class="st93" d="M95,139.5c0.1,0.1,0.1,0.2,0.2,0.2h5.3l0.7-0.1C98.9,139.7,96.8,139.6,95,139.5 M81.4,138.4
		c0.2,0.4,0.3,0.9,0.3,1.3h2.7c-0.2-0.4-0.4-0.7-0.7-1L81.4,138.4"/>
	<path class="st232" d="M83.8,138.7c0.2,0.3,0.5,0.7,0.7,1h10.7c-0.1-0.1-0.1-0.2-0.2-0.2C90.3,139.3,86.6,139.1,83.8,138.7"/>
	<path class="st229" d="M79,137.9c0.2,0.6,0.4,1.2,0.4,1.8h2.4c0-0.5-0.1-0.9-0.3-1.3C80.5,138.3,79.7,138.1,79,137.9"/>
	<path class="st229" d="M101.2,139.7l-0.7,0.1h8C105.9,139.8,103.5,139.8,101.2,139.7"/>
	<polyline class="st75" points="82.9,100.7 82.9,100.7 82.9,100.7 	"/>
	<path class="st93" d="M85.2,91.4c-2,0.6-4,0.9-6.1,0.9h-0.3c1.6,0.9,5,4.5,1.7,8.2c-0.6,0.2-1.1,0.3-1.7,0.4h1.3v0.1l0,0v-0.1h2.5
		l0.1-0.2l0,0c0-0.1,0.1-0.2,0.1-0.4s0.1-0.3,0.2-0.4c0.1-0.2,0.2-0.7,0.3-1c0.5-1.8,0.8-3.7,0.8-5.6C84.4,92.6,84.7,92,85.2,91.4"
		/>
	<path class="st89" d="M79.5,100.9L79.5,100.9"/>
	<path class="st93" d="M80.2,100.9h-0.8H80.2L80.2,100.9"/>
	<path class="st93" d="M82.8,100.9h-2.5v0.1c0.8,0.1,1.5,0.3,2.2,0.6c0.2,0.1,0.4,0.2,0.6,0.4L82.8,100.9"/>
</g>
</svg>
