<svg width="18" height="12" viewBox="0 0 18 12" fill="none" xmlns="http://www.w3.org/2000/svg">
<path d="M12.375 6.75C11.475 6.75 10.0725 7.005 9 7.5C7.9275 6.9975 6.525 6.75 5.625 6.75C3.9975 6.75 0.75 7.56 0.75 9.1875V11.25H17.25V9.1875C17.25 7.56 14.0025 6.75 12.375 6.75ZM9.375 10.125H1.875V9.1875C1.875 8.7825 3.795 7.875 5.625 7.875C7.455 7.875 9.375 8.7825 9.375 9.1875V10.125ZM16.125 10.125H10.5V9.1875C10.5 8.8425 10.35 8.5425 10.11 8.2725C10.77 8.0475 11.58 7.875 12.375 7.875C14.205 7.875 16.125 8.7825 16.125 9.1875V10.125ZM5.625 6C7.0725 6 8.25 4.8225 8.25 3.375C8.25 1.9275 7.0725 0.75 5.625 0.75C4.1775 0.75 3 1.9275 3 3.375C3 4.8225 4.1775 6 5.625 6ZM5.625 1.875C6.45 1.875 7.125 2.55 7.125 3.375C7.125 4.2 6.45 4.875 5.625 4.875C4.8 4.875 4.125 4.2 4.125 3.375C4.125 2.55 4.8 1.875 5.625 1.875ZM12.375 6C13.8225 6 15 4.8225 15 3.375C15 1.9275 13.8225 0.75 12.375 0.75C10.9275 0.75 9.75 1.9275 9.75 3.375C9.75 4.8225 10.9275 6 12.375 6ZM12.375 1.875C13.2 1.875 13.875 2.55 13.875 3.375C13.875 4.2 13.2 4.875 12.375 4.875C11.55 4.875 10.875 4.2 10.875 3.375C10.875 2.55 11.55 1.875 12.375 1.875Z" fill="#00FA00"/>
</svg>
