<svg xmlns="http://www.w3.org/2000/svg" width="9.875" height="13.689" viewBox="0 0 9.875 13.689">
  <g id="noun_Location_3505554" transform="translate(0 -17)">
    <g id="Group_2543" data-name="Group 2543" transform="translate(0)">
      <path id="Path_1309" data-name="Path 1309" d="M55.426,52.68a2.746,2.746,0,1,1-2.746,2.746A2.749,2.749,0,0,1,55.426,52.68Zm0,.634a2.112,2.112,0,1,0,2.112,2.112A2.109,2.109,0,0,0,55.426,53.314Z" transform="translate(-50.489 -33.489)"/>
      <path id="Path_1310" data-name="Path 1310" d="M4.937.634a4.3,4.3,0,0,0-4.3,4.3c0,2.85,2.318,6.039,4.166,8.052a.175.175,0,0,0,.275,0c1.848-2.013,4.166-5.2,4.166-8.052a4.3,4.3,0,0,0-4.3-4.3Zm0-.634A4.939,4.939,0,0,1,9.875,4.937c0,3.035-2.372,6.343-4.344,8.49a.8.8,0,0,1-1.187,0C2.372,11.281,0,7.973,0,4.937A4.939,4.939,0,0,1,4.937,0Z" transform="translate(0 17)"/>
    </g>
  </g>
</svg>
