<svg viewBox="0 0 56 56" fill="none" xmlns="http://www.w3.org/2000/svg">
<rect width="56" height="56" rx="6" fill="url(#paint0_linear)"/>
<path d="M18.2331 12.0664L37.8194 31.6616L41.3087 28.1707L43.6294 30.4925L39.564 34.5598L44.798 39.7961C45.4399 40.4383 45.4399 41.4757 44.798 42.1179L43.6294 43.287C43.4771 43.4397 43.2963 43.5608 43.0972 43.6434C42.898 43.7261 42.6846 43.7686 42.469 43.7686C42.2535 43.7686 42.04 43.7261 41.8409 43.6434C41.6418 43.5608 41.4609 43.4397 41.3087 43.287L36.0089 38.0671L31.9929 42.1344L29.6722 39.8126L33.1615 36.3217L13.5752 16.7264V12.0664H18.2331ZM34.1819 24.5151L41.9835 16.71V12.0664H37.3256L29.524 19.8716L34.1819 24.5151ZM26.0347 32.7484L21.3768 28.0225L17.7394 31.6616L14.2501 28.1707L11.9293 30.4925L15.9947 34.5598L10.7608 39.8126C10.6082 39.9649 10.4871 40.1459 10.4045 40.3451C10.3219 40.5443 10.2794 40.7578 10.2794 40.9735C10.2794 41.1891 10.3219 41.4027 10.4045 41.6019C10.4871 41.8011 10.6082 41.982 10.7608 42.1344L11.9293 43.3035C12.5712 43.9457 13.6082 43.9457 14.2501 43.3035L19.5499 38.0671L23.5659 42.1344L25.8866 39.8126L22.3973 36.3217L26.0347 32.7484Z" fill="white"/>
<defs>
<linearGradient id="paint0_linear" x1="7.06604" y1="9.5" x2="49.9663" y2="51.5007" gradientUnits="userSpaceOnUse">
<stop stop-color="#F65654"/>
<stop offset="1" stop-color="#736CFF"/>
</linearGradient>
</defs>
</svg>
