<svg xmlns="http://www.w3.org/2000/svg" width="32.06" height="31.371" viewBox="0 0 32.06 31.371">
  <path id="my_matches_active" data-name="my matches active" d="M31.917,25.452l-2.068-2.024a.524.524,0,0,0-.731,0l-.669.654-3.923-3.839,2.737-2.678a.5.5,0,0,0,.112-.552A.519.519,0,0,0,26.9,16.7H22.76a.521.521,0,0,0-.366.149L22.243,17,20.906,15.69l5.322-5.208a.526.526,0,0,0,.082-.1L32,.764A.5.5,0,0,0,31.92.156.524.524,0,0,0,31.3.069l-9.308,5.06a.48.48,0,0,0-.114.085l-5.84,5.713L10.2,5.213a.5.5,0,0,0-.114-.085L.776.068a.526.526,0,0,0-.62.088A.5.5,0,0,0,.078.764l5.688,9.614a.473.473,0,0,0,.081.1L11.17,15.69,9.833,17l-.151-.148a.524.524,0,0,0-.366-.149H5.179a.518.518,0,0,0-.478.312.5.5,0,0,0,.112.552L7.55,20.243,3.627,24.082l-.668-.654a.524.524,0,0,0-.731,0L.16,25.452a.5.5,0,0,0,0,.715l5.171,5.06a.526.526,0,0,0,.732,0L8.131,29.2a.5.5,0,0,0,0-.715l-.669-.655,3.922-3.838,2.737,2.678a.523.523,0,0,0,.366.148.532.532,0,0,0,.2-.039A.507.507,0,0,0,15,26.314V22.267a.5.5,0,0,0-.151-.357l-.151-.149,1.337-1.308,1.337,1.309-.151.149a.5.5,0,0,0-.151.357v4.048a.506.506,0,0,0,.319.467.526.526,0,0,0,.564-.109l2.736-2.679,3.923,3.838-.668.655a.5.5,0,0,0,0,.715l2.068,2.024a.526.526,0,0,0,.732,0l5.171-5.06A.5.5,0,0,0,31.917,25.452ZM23.429,7.742l.731.715-5.322,5.208-.732-.715ZM6.731,27.118,4.359,24.8l.82-.8L7.55,26.315ZM8.282,25.6,5.91,23.279l.82-.8L9.1,24.8Zm1.551-1.518L7.462,21.761l.82-.8,2.371,2.321Zm4.136,1.012-7.542-7.38H9.1l4.868,4.763Zm-1.337-5.356-.731-.715,1.337-1.309.731.715ZM7.916,8.458l.731-.715,11.527,11.28-.731.715Zm10.19,16.636V22.477l4.869-4.763h2.674Zm3.317-1.815,2.371-2.321.82.8-2.372,2.321ZM22.975,24.8l2.371-2.321.82.8L23.794,25.6Zm1.551,1.518L26.9,23.995l.82.8-2.372,2.321Z" transform="translate(-0.008 -0.004)" fill="#dbdbdb"/>
</svg>
