<svg xmlns="http://www.w3.org/2000/svg" width="20.478" height="19.532" viewBox="0 0 20.478 19.532">
  <path id="Path_11853" data-name="Path 11853" d="M120.007,111.78H116.18a.584.584,0,0,0-.583.584v.554H114.6v-4.733a.583.583,0,0,0-.583-.584h-1.143v-.55a.584.584,0,0,0-.583-.584h-3.827a.584.584,0,0,0-.583.584v.565h-.98v-2.174a.584.584,0,0,0-.583-.584h-1.212v-.566a.584.584,0,0,0-.583-.584H100.7a.584.584,0,0,0-.583.584v2.3a.584.584,0,0,0,.583.584h3.827a.584.584,0,0,0,.583-.584v-.565h.629v4.348h-.629v-.566a.584.584,0,0,0-.583-.584H100.7a.584.584,0,0,0-.583.584v2.3a.584.584,0,0,0,.583.584h3.827a.584.584,0,0,0,.583-.584v-.565h1.212a.584.584,0,0,0,.583-.584v-2.174h.98v.565a.584.584,0,0,0,.583.584h3.827a.584.584,0,0,0,.583-.584v-.58h.559v9.462h-.559V117.6a.584.584,0,0,0-.583-.584h-3.827a.584.584,0,0,0-.583.584v.565h-.98v-2.174a.584.584,0,0,0-.583-.584h-1.212v-.566a.584.584,0,0,0-.583-.584H100.7a.584.584,0,0,0-.583.584v2.3a.584.584,0,0,0,.583.584h3.827a.584.584,0,0,0,.583-.584v-.565h.629v4.348h-.629v-.566a.584.584,0,0,0-.583-.584H100.7a.584.584,0,0,0-.583.584v2.3a.584.584,0,0,0,.583.584h3.827a.584.584,0,0,0,.583-.584v-.565h1.212a.584.584,0,0,0,.583-.584v-2.174h.98v.565a.584.584,0,0,0,.583.584h3.827a.584.584,0,0,0,.583-.584v-.5h1.143a.584.584,0,0,0,.583-.584v-4.728h.995v.577a.584.584,0,0,0,.583.584h3.827a.584.584,0,0,0,.583-.584v-2.3A.584.584,0,0,0,120.007,111.78Zm-16.067-5.774h-2.661v-1.131h2.661Zm0,5.515h-2.661V110.39h2.661Zm7.77-2.757h-2.661v-1.131h2.661Zm-7.77,7.794h-2.661v-1.131h2.661Zm0,5.515h-2.661v-1.131h2.661Zm7.77-2.757h-2.661v-1.131h2.661Zm7.714-5.239h-2.661v-1.131h2.661Z" transform="translate(-100.112 -103.708)" fill="#ff6a3a"/>
</svg>
