<svg viewBox="0 0 48 48" fill="none" xmlns="http://www.w3.org/2000/svg">
<rect width="48" height="48" fill="#BBF55A"/>
<path d="M32.1081 12H15.8919C13.7514 12 12 13.762 12 15.9156V26.3573C12 28.5109 13.7514 30.273 15.8919 30.273H21.7297L27.3405 35.8527C27.5676 36.0811 27.8595 36.0485 27.8595 35.7222L27.7297 30.273H32.1081C34.2486 30.273 36 28.5109 36 26.3573V15.9156C36 13.762 34.2486 12 32.1081 12ZM28.8649 23.5837H19.1351C18.7784 23.5837 18.4865 23.2901 18.4865 22.9311C18.4865 22.5722 18.7784 22.2785 19.1351 22.2785H28.8649C29.2216 22.2785 29.5135 22.5722 29.5135 22.9311C29.5135 23.2901 29.2216 23.5837 28.8649 23.5837ZM28.8649 19.9944H19.1351C18.7784 19.9944 18.4865 19.7007 18.4865 19.3418C18.4865 18.9829 18.7784 18.6892 19.1351 18.6892H28.8649C29.2216 18.6892 29.5135 18.9829 29.5135 19.3418C29.5135 19.7007 29.2216 19.9944 28.8649 19.9944Z" fill="black"/>
</svg>
