<svg width="101" height="52" viewBox="0 0 101 52" fill="none" xmlns="http://www.w3.org/2000/svg">
<path d="M48.8508 17.7188C48.8496 17.9098 48.8425 18.1 48.8295 18.2905C48.823 18.3845 48.8131 18.4783 48.8031 18.5721C48.7693 18.8901 48.8441 18.31 48.7948 18.6245C48.733 19.0189 48.6325 19.4064 48.5089 19.7856C48.4807 19.8721 48.4493 19.9576 48.4179 20.043C48.3993 20.0936 48.2823 20.38 48.4035 20.0933C48.3332 20.2595 48.254 20.4217 48.172 20.5822C47.9953 20.9281 47.7859 21.2565 47.5583 21.5709C47.3797 21.8177 47.7176 21.3737 47.5277 21.6116C47.4721 21.6813 47.414 21.749 47.3559 21.8167C47.2398 21.952 47.1167 22.0811 46.9914 22.2079C46.866 22.3347 46.7341 22.4548 46.6001 22.5725C46.5332 22.6313 46.4641 22.6878 46.395 22.7443C46.2918 22.8262 46.3022 22.8187 46.4262 22.7217C46.3785 22.7575 46.3305 22.7927 46.2821 22.8273C45.9916 23.0376 45.6829 23.2217 45.3657 23.3885C45.206 23.4725 45.0421 23.5478 44.8768 23.62C45.1615 23.4955 44.8775 23.615 44.8265 23.6345C44.713 23.6777 44.5977 23.716 44.4824 23.7537C44.1318 23.868 43.7713 23.9497 43.4081 24.0113C43.0942 24.0645 43.6733 23.9818 43.3557 24.0196C43.2621 24.0307 43.1681 24.0383 43.0741 24.0459C42.852 24.064 42.629 24.0681 42.4064 24.0667C42.2161 24.0655 42.0261 24.0537 41.8364 24.0383C41.7427 24.0307 41.6493 24.0196 41.5558 24.0084C41.8746 24.0463 41.5611 24.0052 41.5049 23.9957C41.1119 23.9291 40.7263 23.8241 40.3493 23.696C40.2633 23.6668 40.1783 23.6345 40.0934 23.6021C39.8045 23.4921 40.3276 23.7073 40.045 23.5838C39.8799 23.5115 39.7188 23.4305 39.5593 23.3466C39.2157 23.1659 38.89 22.9528 38.5785 22.7216C38.8242 22.904 38.5825 22.722 38.5405 22.6878C38.4715 22.6312 38.4045 22.5724 38.3375 22.5136C38.2036 22.3959 38.0759 22.2713 37.9507 22.1445C37.8253 22.0176 37.7067 21.8842 37.5906 21.749C37.5325 21.6813 37.4769 21.6116 37.4212 21.5418C37.6202 21.7911 37.3771 21.4749 37.3423 21.4256C37.1354 21.1324 36.9548 20.8214 36.7917 20.502C36.7507 20.4218 36.7126 20.3401 36.6745 20.2584C36.6514 20.2088 36.5348 19.9248 36.6523 20.2121C36.572 20.0155 36.5035 19.8143 36.4402 19.6116C36.33 19.2591 36.2526 18.897 36.1954 18.5324C36.2452 18.8498 36.1976 18.5352 36.1916 18.4786C36.1816 18.3846 36.1751 18.2903 36.1687 18.196C36.1534 17.9734 36.1521 17.75 36.1562 17.527C36.1598 17.3373 36.1739 17.1479 36.1916 16.959C36.1969 16.9028 36.2413 16.5865 36.1954 16.9053C36.2086 16.8131 36.2253 16.7216 36.242 16.6301C36.3134 16.2386 36.423 15.8549 36.5554 15.4801C36.5856 15.3945 36.619 15.31 36.6523 15.2256C36.5386 15.5136 36.6519 15.2296 36.6746 15.1793C36.7487 15.0152 36.8316 14.8551 36.9174 14.6969C37.0027 14.5391 37.0965 14.3861 37.1928 14.2349C37.2409 14.1594 37.2917 14.0858 37.3424 14.0122C37.3764 13.9628 37.6176 13.6438 37.4212 13.8959C37.6406 13.6144 37.8844 13.3528 38.1408 13.1053C38.2691 12.9814 38.4039 12.8644 38.5405 12.75C38.5817 12.7155 38.8225 12.5305 38.5785 12.716C38.6733 12.6439 38.7711 12.5757 38.8692 12.5081C39.165 12.3045 39.4783 12.1276 39.7998 11.9682C39.8807 11.9282 39.9629 11.891 40.0451 11.8539C40.3262 11.7269 39.806 11.949 40.0935 11.8355C40.2912 11.7574 40.4936 11.6915 40.6972 11.6305C40.8735 11.5778 41.0524 11.5348 41.232 11.4951C41.3225 11.4752 41.4138 11.4585 41.5049 11.4419C41.5604 11.4318 41.8748 11.3873 41.5559 11.4291C41.9646 11.3754 42.378 11.3628 42.7896 11.3757C42.9789 11.3816 43.1675 11.3981 43.3557 11.418C43.6737 11.4518 43.0936 11.377 43.4081 11.4263C43.4999 11.4407 43.5911 11.4585 43.6822 11.4763C44.0721 11.5523 44.4539 11.6664 44.8266 11.8032C44.8773 11.8218 45.1636 11.9389 44.8769 11.8176C44.96 11.8528 45.0419 11.891 45.1237 11.9291C45.2868 12.0051 45.4457 12.09 45.6029 12.1774C45.7595 12.2647 45.9113 12.3602 46.0612 12.4583C46.136 12.5072 46.2091 12.5588 46.2821 12.6104C46.3258 12.6413 46.5674 12.8264 46.3253 12.6378C46.6067 12.8571 46.8684 13.1009 47.1159 13.3573C47.2399 13.4856 47.3568 13.6204 47.4713 13.7571C47.5058 13.7982 47.6907 14.039 47.5052 13.795C47.5592 13.8662 47.6108 13.9392 47.6623 14.0122C47.8692 14.3053 48.0498 14.6163 48.2129 14.9356C48.254 15.0159 48.2921 15.0976 48.3302 15.1793C48.3533 15.2289 48.4698 15.5129 48.3523 15.2256C48.4212 15.394 48.4807 15.566 48.5371 15.7389C48.6515 16.0895 48.7332 16.45 48.7948 16.8133C48.8479 17.1271 48.7653 16.548 48.8031 16.8657C48.8142 16.9593 48.8218 17.0533 48.8295 17.1472C48.8449 17.3373 48.8496 17.5281 48.8508 17.7188C48.8549 18.3713 49.3923 18.9159 50.048 18.9159C50.6975 18.9159 51.2492 18.3714 51.2451 17.7188C51.2242 14.361 49.2488 11.1779 46.1681 9.78637C42.9475 8.33167 39.2019 8.93052 36.5783 11.2906C34.0547 13.5607 33.1297 17.3092 34.2163 20.5083C34.7429 22.0585 35.705 23.4698 36.9864 24.4929C38.3749 25.6015 39.9786 26.2363 41.7426 26.4237C44.1757 26.6823 46.6267 25.7661 48.4265 24.147C50.2274 22.5269 51.23 20.1255 51.245 17.7188C51.2491 17.0662 50.6974 16.5216 50.0479 16.5216C49.3923 16.5216 48.8549 17.0663 48.8508 17.7188Z" fill="#736CFF"/>
<path d="M51.1457 26.1608C51.3133 26.2677 51.4777 26.3788 51.6394 26.4947C51.6712 26.5174 51.934 26.7193 51.7134 26.5469C51.7915 26.6079 51.8676 26.6714 51.9436 26.735C52.2731 27.01 52.5787 27.3128 52.8672 27.6303C53.0004 27.777 53.1266 27.93 53.2502 28.0848C53.0757 27.8663 53.2789 28.1272 53.3022 28.159C53.3608 28.2392 53.4168 28.3212 53.4728 28.4032C53.7165 28.7601 53.9292 29.1372 54.1208 29.5243C54.1652 29.6141 54.2068 29.7053 54.2482 29.7965C54.3872 30.1018 54.1584 29.5691 54.2841 29.8807C54.3597 30.0681 54.426 30.259 54.4892 30.451C54.6278 30.8722 54.7287 31.305 54.8054 31.7414C54.8125 31.7822 54.8608 32.1247 54.8229 31.8337C54.8364 31.9374 54.8464 32.0413 54.8563 32.1454C54.8765 32.3555 54.8859 32.5664 54.8919 32.7773C54.895 32.8863 54.8943 32.9954 54.8943 33.1043C54.8943 34.9435 54.8943 36.7826 54.8943 38.6219C54.8943 38.8171 54.8943 39.0125 54.8943 39.2077C54.8943 39.2851 54.8918 39.3235 54.8881 39.4005C54.8725 39.719 54.938 39.1456 54.8823 39.4556C54.866 39.5467 54.8409 39.636 54.8159 39.725C54.8011 39.7778 54.6902 40.0658 54.8104 39.7817C54.74 39.9483 54.6465 40.104 54.5468 40.2542C54.3793 40.5063 54.7099 40.0652 54.5132 40.2946C54.4353 40.3853 54.3481 40.4674 54.2599 40.5478C54.0367 40.7515 54.4663 40.4064 54.2195 40.5815C54.146 40.6336 54.0679 40.6788 53.9901 40.7239C53.9117 40.7693 53.8292 40.8072 53.7471 40.8451C54.0239 40.7176 53.7458 40.833 53.6904 40.8505C53.6021 40.8784 53.5114 40.8977 53.421 40.917C53.1128 40.9826 53.6837 40.8969 53.3659 40.9227C53.3 40.928 53.2329 40.9289 53.1668 40.9289C53.0854 40.9289 53.0038 40.9289 52.9223 40.9289C51.6643 40.9289 50.4065 40.9289 49.1485 40.9289C44.8671 40.9289 40.5856 40.9289 36.3041 40.9289C34.9463 40.9289 33.5885 40.9289 32.2306 40.9289C32.1137 40.9289 31.9968 40.9289 31.8798 40.9289C31.8638 40.9289 31.8477 40.9289 31.8316 40.9289C31.7471 40.9289 31.7237 40.9268 31.6395 40.9227C31.321 40.9072 31.8944 40.9726 31.5845 40.917C31.4933 40.9006 31.4041 40.8756 31.3151 40.8505C31.2565 40.8331 31.1986 40.8138 31.1412 40.7927C31.2857 40.8578 31.2973 40.8626 31.1759 40.8071C31.012 40.7316 30.8595 40.6336 30.7127 40.5294C30.9567 40.7026 30.7227 40.5269 30.6794 40.4874C30.6131 40.427 30.5526 40.3606 30.4923 40.2945C30.2885 40.0712 30.6337 40.5009 30.4586 40.2541C30.4065 40.1806 30.3613 40.1025 30.3162 40.0246C30.2707 39.9462 30.2329 39.8638 30.195 39.7817C30.3273 40.0688 30.1825 39.7 30.1646 39.6362C30.1395 39.5466 30.123 39.455 30.1066 39.3636C30.1621 39.6728 30.1157 39.3667 30.1127 39.305C30.1108 39.265 30.1112 39.2245 30.1112 39.1844C30.1112 39.0946 30.1112 39.0047 30.1112 38.9149C30.1112 37.0485 30.1112 35.1823 30.1112 33.3159C30.1112 32.9947 30.1127 32.6746 30.1326 32.3537C30.1391 32.2488 30.1492 32.1441 30.1592 32.0396C30.1631 31.999 30.2091 31.6532 30.1679 31.9439C30.1969 31.7392 30.2361 31.5361 30.2787 31.334C30.3697 30.9019 30.4988 30.4785 30.6507 30.0641C30.6854 29.9694 30.7233 29.8759 30.761 29.7823C30.655 30.0446 30.7847 29.7358 30.8012 29.6996C30.8843 29.5173 30.9762 29.3391 31.071 29.1626C31.2753 28.7822 31.5119 28.4199 31.767 28.0717C31.963 27.804 31.6158 28.2588 31.8229 27.9999C31.8848 27.9224 31.9493 27.847 32.0137 27.7714C32.1425 27.6205 32.2785 27.4759 32.4165 27.3336C32.5546 27.1913 32.6994 27.0555 32.8463 26.9223C32.9198 26.8556 32.9954 26.7913 33.0709 26.727C33.1088 26.6948 33.4423 26.4326 33.2167 26.6048C33.4012 26.4639 33.593 26.3331 33.7875 26.2065C34.3332 25.8511 34.5588 25.1521 34.2169 24.5686C33.8993 24.0263 33.1265 23.7827 32.579 24.1392C29.5843 26.0892 27.7168 29.4168 27.7168 33.006C27.7168 34.7708 27.7168 36.5355 27.7168 38.3002C27.7168 39.3022 27.7412 40.2221 28.2058 41.1537C28.8783 42.502 30.3877 43.3234 31.866 43.3234C32.8652 43.3234 33.8644 43.3234 34.8635 43.3234C39.1023 43.3234 43.341 43.3234 47.5798 43.3234C49.1537 43.3234 50.7275 43.3234 52.3014 43.3234C52.5876 43.3234 52.8737 43.3234 53.1599 43.3234C54.899 43.3234 56.4138 42.2255 57.034 40.6205C57.3456 39.814 57.2887 38.9405 57.2887 38.0931C57.2887 37.019 57.2887 35.9448 57.2887 34.8707C57.2887 34.244 57.2887 33.6173 57.2887 32.9905C57.2887 31.1368 56.7852 29.303 55.8582 27.6999C55.0096 26.2323 53.779 25.0025 52.3542 24.0934C51.8035 23.742 51.0362 23.9766 50.7163 24.5229C50.3768 25.1023 50.5966 25.8104 51.1457 26.1608Z" fill="#736CFF"/>
<path d="M66.6488 24.9981C66.647 25.1851 66.6366 25.3704 66.6171 25.5564C66.6499 25.2432 66.6142 25.5473 66.6038 25.6048C66.5875 25.694 66.5663 25.7822 66.5451 25.8703C66.5031 26.0447 66.4465 26.2153 66.3854 26.3837C66.2821 26.6685 66.4911 26.1544 66.3675 26.4299C66.3193 26.5373 66.2643 26.6416 66.2083 26.7451C66.1249 26.8997 66.0289 27.0473 65.9293 27.1918C65.7599 27.4374 66.0879 26.9995 65.9015 27.232C65.8469 27.3002 65.7885 27.3654 65.7303 27.4305C65.6138 27.5608 65.487 27.6814 65.3572 27.7982C65.2923 27.8567 65.2243 27.9116 65.1563 27.9665C65.4003 27.7695 65.0903 28.0042 65.0396 28.038C64.8935 28.1357 64.7396 28.2212 64.5838 28.3022C64.5055 28.3429 64.425 28.3794 64.3446 28.4158C64.6223 28.2902 64.3477 28.4087 64.2957 28.4278C64.1272 28.4894 63.9541 28.5366 63.78 28.5788C63.6919 28.6001 63.6027 28.6165 63.5137 28.6328C63.3802 28.6539 63.3939 28.6528 63.5548 28.6298C63.4938 28.6368 63.4326 28.6426 63.3713 28.6474C63.1852 28.6635 62.9979 28.6634 62.8113 28.6581C62.7186 28.6554 62.6261 28.6474 62.5338 28.6395C62.2221 28.6126 62.79 28.683 62.4834 28.6328C62.3053 28.6037 62.1299 28.5594 61.9563 28.5104C61.8704 28.4861 61.7859 28.457 61.7015 28.4278C61.6457 28.408 61.5902 28.3872 61.5351 28.3653C61.6793 28.4281 61.6916 28.4328 61.572 28.3793C61.4116 28.3068 61.2573 28.2211 61.1059 28.1315C61.0305 28.0868 60.9575 28.038 60.8846 27.9894C60.8403 27.9598 60.6022 27.7809 60.8408 27.9666C60.5418 27.734 60.2776 27.459 60.0409 27.1638C60.2294 27.3989 60.0491 27.1646 60.0181 27.1197C59.9683 27.0475 59.9224 26.9725 59.8766 26.8977C59.7844 26.7473 59.7048 26.5895 59.6297 26.4299C59.501 26.1568 59.7203 26.6666 59.6117 26.3838C59.5796 26.3004 59.5523 26.2152 59.5249 26.1302C59.4604 25.9292 59.4148 25.7227 59.3771 25.5152C59.3213 25.2085 59.4031 25.7769 59.3704 25.4646C59.3607 25.372 59.3563 25.2791 59.3519 25.1862C59.343 24.9988 59.3501 24.8111 59.3625 24.6241C59.3663 24.5677 59.4074 24.2568 59.3624 24.5714C59.3753 24.4812 59.3933 24.3918 59.4113 24.3024C59.4528 24.0965 59.5134 23.895 59.5813 23.6964C59.5989 23.645 59.7138 23.365 59.5934 23.6473C59.6281 23.566 59.6673 23.4865 59.7064 23.4072C59.7844 23.2493 59.8751 23.0981 59.9697 22.9498C60.0169 22.8758 60.0679 22.8045 60.119 22.7333C59.9442 22.9771 60.116 22.74 60.1516 22.6972C60.2819 22.5404 60.4262 22.3957 60.575 22.2566C60.6389 22.197 60.7059 22.1408 60.7729 22.0848C60.8738 22.0037 60.8634 22.0115 60.7419 22.1082C60.7889 22.0736 60.8365 22.0399 60.8847 22.007C61.0531 21.8901 61.2317 21.7887 61.4133 21.6941C61.4917 21.6534 61.5721 21.617 61.6526 21.5807C61.3633 21.7114 61.727 21.5598 61.7858 21.5395C62.0129 21.4612 62.2475 21.4068 62.4834 21.3635C62.789 21.3075 62.2227 21.3898 62.5338 21.3569C62.657 21.3439 62.781 21.3392 62.9047 21.3356C63.1218 21.3294 63.3391 21.3438 63.5548 21.3666C63.2428 21.3337 63.5458 21.3694 63.6031 21.3799C63.7215 21.4016 63.8383 21.4311 63.9545 21.4617C64.0698 21.4919 64.1829 21.5298 64.2957 21.5685C64.3515 21.5883 64.4069 21.6092 64.462 21.6311C64.3178 21.5682 64.3055 21.5636 64.4251 21.6171C64.6122 21.7016 64.7912 21.8032 64.9659 21.911C65.0404 21.9569 65.1125 22.007 65.1843 22.057C65.2887 22.1339 65.2793 22.1248 65.1563 22.0299C65.202 22.0661 65.247 22.1031 65.2913 22.1409C65.4476 22.2718 65.5918 22.4165 65.7303 22.5659C65.8095 22.6514 65.8833 22.7418 65.9562 22.8327C65.7599 22.5878 65.9937 22.899 66.0275 22.9498C66.1411 23.1212 66.2389 23.3024 66.3298 23.4865C66.3542 23.536 66.4684 23.8129 66.3535 23.5295C66.3983 23.6399 66.4358 23.753 66.4722 23.8663C66.5368 24.0672 66.5824 24.2738 66.6201 24.4813C66.6411 24.6153 66.64 24.6016 66.6171 24.44C66.6241 24.5013 66.6299 24.5627 66.6347 24.6242C66.6453 24.7484 66.6476 24.8734 66.6488 24.9981C66.6549 25.6412 67.1789 26.178 67.8244 26.178C68.4606 26.178 69.0061 25.6413 68.9999 24.9981C68.9836 23.2794 68.2549 21.6026 66.9538 20.4721C65.5477 19.2503 63.7698 18.8105 61.9484 19.0732C60.2732 19.3147 58.7898 20.4251 57.8924 21.8326C56.9618 23.2921 56.7583 25.2031 57.2853 26.8426C57.7245 28.2091 58.6452 29.3526 59.8448 30.123C61.1016 30.9303 62.5967 31.1325 64.0489 30.923C66.901 30.5116 68.9732 27.8137 68.9999 24.9981C69.0061 24.3549 68.4606 23.8182 67.8244 23.8182C67.1789 23.8182 66.6549 24.355 66.6488 24.9981Z" fill="#736CFF"/>
<path d="M68.6636 32.1562C68.7415 32.2077 68.8183 32.2604 68.8945 32.3145C68.9261 32.3369 69.1695 32.5303 68.9627 32.362C69.1073 32.4797 69.2435 32.608 69.3763 32.7395C69.5092 32.871 69.6327 33.0123 69.7525 33.1563C69.7776 33.1866 69.9636 33.4376 69.8056 33.2208C69.8795 33.3223 69.9478 33.428 70.0153 33.5342C70.1168 33.6943 70.2066 33.8617 70.2924 34.031C70.3354 34.1161 70.3744 34.2033 70.4133 34.2905C70.302 34.0412 70.4282 34.3327 70.4424 34.3712C70.5098 34.5529 70.5638 34.7395 70.613 34.9272C70.6378 35.022 70.658 35.1179 70.6782 35.2138C70.6889 35.2647 70.752 35.6834 70.716 35.3958C70.821 36.2336 70.757 37.1155 70.757 37.9573C70.757 38.4584 70.757 38.9594 70.757 39.4604C70.757 39.6065 70.757 39.7527 70.757 39.8988C70.757 39.9317 70.757 39.9647 70.757 39.9976C70.757 40.0019 70.757 40.0063 70.757 40.0106C70.757 40.0714 70.7541 40.1321 70.7483 40.1925C70.7707 40.0337 70.7693 40.0189 70.7443 40.1484C70.7319 40.2057 70.6293 40.4724 70.7447 40.2005C70.7112 40.2794 70.6671 40.3529 70.6233 40.4259C70.4779 40.6685 70.7788 40.2498 70.593 40.4598C70.5552 40.5025 70.3436 40.6791 70.5702 40.5029C70.5036 40.5546 70.4305 40.5965 70.3579 40.638C70.1139 40.7774 70.5816 40.5624 70.3144 40.6526C70.2575 40.6718 69.9805 40.7175 70.2751 40.6801C70.2215 40.6869 70.15 40.689 70.0963 40.689C69.9745 40.689 69.8525 40.689 69.7307 40.689C66.5364 40.689 63.3421 40.689 60.1477 40.689C60.139 40.689 60.1303 40.689 60.1215 40.689C59.5101 40.689 59 41.2146 59 41.8445C59 42.4744 59.5101 43 60.1215 43C63.257 43 66.3924 43 69.5278 43C70.3182 43 71.1012 42.9658 71.7685 42.4469C72.5241 41.8596 73 40.9972 73 40.0049C73 39.7198 73 39.4347 73 39.1497C73 38.1983 73 37.2471 73 36.2957C73 34.8418 72.6465 33.422 71.8497 32.2094C71.3066 31.3829 70.61 30.6995 69.7958 30.161C69.2808 29.8203 68.5605 30.0494 68.2615 30.5754C67.9426 31.1359 68.1502 31.8166 68.6636 32.1562Z" fill="#736CFF"/>
</svg>
