<svg width="20" height="23" viewBox="0 0 20 23" fill="none" xmlns="http://www.w3.org/2000/svg">
<path d="M14.6758 0.40625H2.67578C1.57578 0.40625 0.675781 1.30625 0.675781 2.40625V16.4062H2.67578V2.40625H14.6758V0.40625ZM17.6758 4.40625H6.67578C5.57578 4.40625 4.67578 5.30625 4.67578 6.40625V20.4062C4.67578 21.5063 5.57578 22.4062 6.67578 22.4062H17.6758C18.7758 22.4062 19.6758 21.5063 19.6758 20.4062V6.40625C19.6758 5.30625 18.7758 4.40625 17.6758 4.40625ZM17.6758 20.4062H6.67578V6.40625H17.6758V20.4062Z" fill="#00A851"/>
</svg>
