<svg width="22" height="22" viewBox="0 0 22 22" fill="none" xmlns="http://www.w3.org/2000/svg">
<path d="M21.7071 20.2929C22.0976 20.6834 22.0976 21.3166 21.7071 21.7071C21.3166 22.0976 20.6834 22.0976 20.2929 21.7071L11 12.4142L1.70713 21.7071C1.31661 22.0976 0.683444 22.0976 0.29292 21.7071C-0.0976045 21.3166 -0.0976045 20.6834 0.29292 20.2929L9.5858 11L0.292893 1.70711C-0.0976309 1.31658 -0.0976312 0.683417 0.292893 0.292893C0.683417 -0.0976312 1.31658 -0.0976309 1.70711 0.292893L11 9.5858L20.2929 0.292893C20.6834 -0.0976309 21.3166 -0.0976312 21.7071 0.292893C22.0977 0.683417 22.0977 1.31658 21.7071 1.70711L12.4142 11L21.7071 20.2929Z" fill="var(--secondary-color)"/>
</svg>
