<svg width="280" height="814" viewBox="0 0 280 814" fill="none" xmlns="http://www.w3.org/2000/svg">
<circle cx="337.999" cy="470.855" r="327" fill="url(#paint0_radial)"/>
<path opacity="0.03" d="M64.348 217.23L234.078 324.099C244.895 330.909 258.015 332.39 270.081 328.163C282.147 323.935 291.473 314.59 295.68 302.518L362.857 109.572C368.04 94.6937 364.531 78.3408 353.717 66.8918C348.068 60.919 340.872 56.7523 332.899 54.8571C325.907 53.1952 318.544 53.3644 311.614 55.3468L170.457 95.7406C159.886 98.7677 153.763 109.793 156.79 120.364L166.529 154.399C167.979 159.474 171.388 163.769 176.01 166.332C180.631 168.895 186.078 169.516 191.153 168.066L270.77 145.283L238.492 237.983L104.431 153.575C99.9612 150.757 94.5583 149.836 89.4049 151.004C84.2516 152.171 79.7784 155.338 76.9689 159.81L58.1045 189.766C52.2516 199.081 55.0432 211.37 64.348 217.23Z" fill="#009900"/>
<path opacity="0.03" d="M68.7874 340.992L62.2772 382.657C60.2575 395.583 69.016 407.691 81.941 409.734C82.2328 409.78 111.223 414.618 144.413 428.127C172.917 439.724 210.648 460.333 228.557 492.687C233.255 501.151 234.367 509.491 232.179 519.699C229.845 530.574 223.86 542.761 214.389 555.923C195.067 582.77 168.814 603.288 161.218 608.935C147.96 618.801 140.872 635.142 142.731 651.576C144.585 668.001 155.135 682.357 170.269 689.034L319.243 754.705C324.996 757.247 331.528 757.386 337.394 755.107C343.259 752.828 347.973 748.319 350.516 742.566L367.524 703.979C372.809 691.991 367.374 677.991 355.385 672.707L266.575 633.551C274.153 625.184 281.01 616.732 287.113 608.247C335.061 541.625 326.153 488.466 310.239 455.614C309.209 453.489 308.109 451.363 306.962 449.284C282.893 405.788 240.601 371.143 181.265 346.312C137.593 328.042 100.021 321.857 95.8799 321.216C82.931 319.196 70.812 328.053 68.7874 340.992Z" fill="#009900"/>
<defs>
<radialGradient id="paint0_radial" cx="0" cy="0" r="1" gradientUnits="userSpaceOnUse" gradientTransform="translate(337.999 470.855) rotate(90) scale(327)">
<stop stop-color="#009900" stop-opacity="0.07"/>
<stop offset="1" stop-color="#009900" stop-opacity="0"/>
</radialGradient>
</defs>
</svg>
