<svg viewBox="0 0 10 16" fill="none" xmlns="http://www.w3.org/2000/svg">
<path d="M9.2625 13.7375L3.5375 8L9.2625 2.2625L7.5 0.5L0 8L7.5 15.5L9.2625 13.7375Z" fill="white" fill-opacity="0.87"/>
</svg>
