<svg viewBox="0 0 45 45" fill="none" xmlns="http://www.w3.org/2000/svg">
<circle cx="22.5" cy="22.5" r="22.5" fill="white" fill-opacity="0.12"/>
<circle cx="22.5" cy="22.5" r="22" stroke="white" stroke-opacity="0.2"/>
<mask id="mask0" mask-type="alpha" maskUnits="userSpaceOnUse" x="10" y="10" width="24" height="24">
<rect x="10" y="10" width="24" height="24" fill="#C4C4C4"/>
</mask>
<g mask="url(#mask0)">
</g>
<path d="M16 13.5138H21.1864V18.829H16V20.3428H21.4284C22.0964 20.3428 22.638 19.778 22.638 19.0813V16.9262H26.1833V26.8291H22.638V24.9187C22.638 24.222 22.0964 23.6572 21.4284 23.6572H16V25.171H21.1864V30.4862H16V32H21.4284C22.0964 32 22.638 31.4352 22.638 30.7385V28.3429H26.4252C27.0933 28.3429 27.6349 27.7781 27.6349 27.0814V22.6373H31V21.1235H27.6349V16.6739C27.6349 15.9772 27.0933 15.4124 26.4252 15.4124H22.638V13.2615C22.638 12.5648 22.0964 12 21.4284 12H16V13.5138Z" fill="#BBF55A"/>
</svg>
