<svg width="32" height="33" viewBox="0 0 32 33" fill="none" xmlns="http://www.w3.org/2000/svg">
<path d="M2.66699 4.19775H11.8873V11.9934H2.66699V14.2136H12.3174C13.5051 14.2136 14.4679 13.3852 14.4679 12.3634V9.20257H20.7706V23.7269H14.4679V20.925C14.4679 19.9032 13.5051 19.0748 12.3174 19.0748H2.66699V21.295H11.8873V29.0907H2.66699V31.3109H12.3174C13.5051 31.3109 14.4679 30.4825 14.4679 29.4607V25.9471H21.2007C22.3884 25.9471 23.3512 25.1188 23.3512 24.0969V17.5789H29.3337V15.3587H23.3512V8.83254C23.3512 7.81072 22.3884 6.98236 21.2007 6.98236H14.4679V3.82771C14.4679 2.80589 13.5051 1.97754 12.3174 1.97754H2.66699V4.19775Z" fill="var(--tertiary-color)"/>
</svg>
