<svg width="87" height="86" viewBox="0 0 87 86" fill="none" xmlns="http://www.w3.org/2000/svg">
<rect x="0.5" y="0.5" width="36" height="12" fill="#0B0824"/>
<rect x="0.5" y="0.5" width="36" height="12" fill="white" fill-opacity="0.09"/>
<rect x="0.5" y="0.5" width="36" height="12" stroke="#736CFF"/>
<rect x="0.5" y="26.5" width="36" height="12" fill="#0B0824"/>
<rect x="0.5" y="26.5" width="36" height="12" fill="white" fill-opacity="0.09"/>
<rect x="0.5" y="26.5" width="36" height="12" stroke="#736CFF"/>
<rect x="50.5" y="13.5" width="36" height="12" fill="#0B0824"/>
<rect x="50.5" y="13.5" width="36" height="12" fill="white" fill-opacity="0.09"/>
<rect x="50.5" y="13.5" width="36" height="12" stroke="#736CFF"/>
<path fill-rule="evenodd" clip-rule="evenodd" d="M68 6H37V7H68V13H69V6H68Z" fill="#736CFF"/>
<path fill-rule="evenodd" clip-rule="evenodd" d="M69 26H68V32H37V33H68H69V26Z" fill="#736CFF"/>
<rect x="0.5" y="47.5" width="36" height="12" fill="#0B0824"/>
<rect x="0.5" y="47.5" width="36" height="12" fill="white" fill-opacity="0.09"/>
<rect x="0.5" y="47.5" width="36" height="12" stroke="#736CFF"/>
<rect x="0.5" y="73.5" width="36" height="12" fill="#0B0824"/>
<rect x="0.5" y="73.5" width="36" height="12" fill="white" fill-opacity="0.09"/>
<rect x="0.5" y="73.5" width="36" height="12" stroke="#736CFF"/>
<rect x="50.5" y="60.5" width="36" height="12" fill="#0B0824"/>
<rect x="50.5" y="60.5" width="36" height="12" fill="white" fill-opacity="0.09"/>
<rect x="50.5" y="60.5" width="36" height="12" stroke="#736CFF"/>
<path fill-rule="evenodd" clip-rule="evenodd" d="M68 53H37V54H68V60H69V53H68Z" fill="#736CFF"/>
<path fill-rule="evenodd" clip-rule="evenodd" d="M69 73H68V79H37V80H68H69V73Z" fill="#736CFF"/>
</svg>
