<svg width="12" height="12" viewBox="0 0 12 12" fill="none" xmlns="http://www.w3.org/2000/svg">
<path d="M11.3337 5.33366H3.22033L6.94699 1.60699L6.00033 0.666992L0.666992 6.00033L6.00033 11.3337L6.94033 10.3937L3.22033 6.66699H11.3337V5.33366Z" fill="white"/>
</svg>
