<svg width="16" height="16" viewBox="0 0 16 16" fill="none" xmlns="http://www.w3.org/2000/svg">
<path d="M8.00052 10.1334C9.17873 10.1334 10.1339 9.17824 10.1339 8.00003C10.1339 6.82182 9.17873 5.8667 8.00052 5.8667C6.82231 5.8667 5.86719 6.82182 5.86719 8.00003C5.86719 9.17824 6.82231 10.1334 8.00052 10.1334Z" fill="white"/>
<path d="M6.00065 1.33325L4.78065 2.66659H2.66732C1.93398 2.66659 1.33398 3.26659 1.33398 3.99992V11.9999C1.33398 12.7333 1.93398 13.3333 2.66732 13.3333H13.334C14.0673 13.3333 14.6673 12.7333 14.6673 11.9999V3.99992C14.6673 3.26659 14.0673 2.66659 13.334 2.66659H11.2207L10.0007 1.33325H6.00065ZM8.00065 11.3333C6.16065 11.3333 4.66732 9.83992 4.66732 7.99992C4.66732 6.15992 6.16065 4.66659 8.00065 4.66659C9.84065 4.66659 11.334 6.15992 11.334 7.99992C11.334 9.83992 9.84065 11.3333 8.00065 11.3333Z" fill="white" fill-opacity="0.87"/>
</svg>
