<svg width="16" height="16" viewBox="0 0 16 16" fill="none" xmlns="http://www.w3.org/2000/svg">
<path d="M10.6393 6.85984L8.80602 9.21984L7.49935 7.6465L5.66602 9.99984H12.9993L10.6393 6.85984ZM1.99935 3.33317H0.666016V13.9998C0.666016 14.7332 1.26602 15.3332 1.99935 15.3332H12.666V13.9998H1.99935V3.33317ZM13.9993 0.666504H4.66602C3.93268 0.666504 3.33268 1.2665 3.33268 1.99984V11.3332C3.33268 12.0665 3.93268 12.6665 4.66602 12.6665H13.9993C14.7327 12.6665 15.3327 12.0665 15.3327 11.3332V1.99984C15.3327 1.2665 14.7327 0.666504 13.9993 0.666504ZM13.9993 11.3332H4.66602V1.99984H13.9993V11.3332Z" fill="#FB9469"/>
</svg>
