<svg viewBox="0 0 21 20" fill="none" xmlns="http://www.w3.org/2000/svg">
<path d="M19.6287 0.101251C19.4921 -0.0325433 19.2713 -0.0325433 19.1351 0.101251L14.6242 4.52266L12.9679 2.8992C12.8307 2.76472 12.6092 2.76506 12.473 2.90058C12.3365 3.03541 12.3372 3.25368 12.4744 3.38817L13.1765 4.07645L10.501 6.69922L7.82591 4.07714L8.52698 3.38989C8.66419 3.25541 8.66489 3.03748 8.52838 2.9023C8.39188 2.76678 8.17032 2.76644 8.03347 2.90092L7.08284 3.83265L6.37826 4.523L1.86626 0.100216C1.73011 -0.0332329 1.50925 -0.0335778 1.37275 0.100216L0.103253 1.34436C0.0371013 1.40919 0 1.49712 0 1.58885C0 1.68057 0.0371013 1.7685 0.103253 1.83333L4.61315 6.2537L3.91138 6.94164L2.96075 7.87337C2.82354 8.00785 2.82284 8.22579 2.95935 8.36096C3.0276 8.42889 3.11755 8.46268 3.20751 8.46268C3.29676 8.46268 3.38601 8.42924 3.45426 8.36234L4.15814 7.67233L6.83363 10.2944L2.64224 14.4024C2.60864 14.4351 2.58274 14.4748 2.56489 14.5189C2.56419 14.5203 2.56279 14.5213 2.56209 14.5231L0.624421 19.4603C0.574719 19.5865 0.60482 19.7297 0.700723 19.8262C0.767576 19.8938 0.858229 19.9297 0.950632 19.9297C0.990883 19.9297 1.03113 19.9228 1.06999 19.909L6.17946 18.08C6.18191 18.0793 6.18331 18.0769 6.18576 18.0762C6.23231 18.0583 6.27431 18.0327 6.30896 17.9983L10.5007 13.8893L14.6942 18.0003C14.698 18.0041 14.7033 18.0055 14.7075 18.009C14.7337 18.0327 14.7635 18.0521 14.7971 18.0672C14.8027 18.0696 14.8072 18.0738 14.8128 18.0758C14.8139 18.0762 14.8149 18.0772 14.816 18.0776L19.8534 19.9769C19.8947 19.9928 19.937 20 19.979 20C19.9811 19.9997 19.9836 20 19.986 20C20.1792 20 20.336 19.8455 20.336 19.6552C20.336 19.5897 20.3175 19.5283 20.2849 19.4759L18.4418 14.5282C18.439 14.5207 18.4337 14.5148 18.4302 14.5076C18.4229 14.4913 18.4141 14.4762 18.404 14.461C18.3945 14.4465 18.3847 14.4327 18.3732 14.42C18.3683 14.4144 18.3655 14.4075 18.3599 14.4024L14.1685 10.2944L16.8443 7.67199L17.5492 8.36303C17.6175 8.42992 17.7067 8.46337 17.796 8.46337C17.8859 8.46337 17.9759 8.42958 18.0442 8.36165C18.1807 8.22682 18.18 8.00854 18.0427 7.87406L16.3889 6.25302L20.8971 1.83402C20.9629 1.76919 21 1.68126 21 1.58954C21 1.49781 20.9636 1.40954 20.8974 1.34471L19.6287 0.101251ZM0.846328 1.58885L1.6195 0.830911L5.8823 5.00956L5.10912 5.76715L0.846328 1.58885ZM5.71044 17.5141L1.5551 19.0017L3.12875 14.9917H5.71044V17.5141ZM5.9159 14.302H3.73707L7.32959 10.781L8.41673 11.8465L5.9159 14.302ZM6.41046 16.9258V14.79L8.91305 12.3331L10.0044 13.4027L6.41046 16.9258ZM19.385 19.0621L15.2917 17.5186V14.992H17.8688L19.385 19.0621ZM17.265 14.3024H15.0859L9.15981 8.49337L7.5767 6.94164C7.4395 6.80716 7.21794 6.8075 7.08179 6.94302C6.94528 7.07785 6.94598 7.29612 7.08319 7.43061L8.66629 8.98234L14.5916 14.7907V16.9262L10.7478 13.1582C10.7478 13.1582 10.7475 13.1582 10.7475 13.1579L9.16086 11.603L7.57635 10.0503L4.65411 7.18612L5.35483 6.49922C5.35518 6.49888 5.35553 6.49888 5.35588 6.49853L6.62502 5.25439C6.62537 5.25404 6.62537 5.2537 6.62572 5.2537L7.32924 4.56404L10.2529 7.42957C10.2532 7.42992 10.2532 7.43061 10.2536 7.43095L13.4247 10.5396C13.425 10.5399 13.4257 10.5403 13.4264 10.5406L17.265 14.3024ZM13.6722 9.80787L12.5808 8.73786L13.9182 7.43061C14.0554 7.29647 14.0565 7.07819 13.9203 6.94302C13.7845 6.80785 13.563 6.80716 13.4254 6.94095L12.0845 8.2513L10.9974 7.18543L13.6722 4.56335L16.3473 7.18578L13.6722 9.80787ZM15.8933 5.76646L15.1559 5.0437L15.1205 5.00921L19.3819 0.83229L20.1544 1.58954L15.8933 5.76646Z" fill="#BBF55A"/>
</svg>
