<svg width="144" height="14" viewBox="0 0 144 14" fill="none" xmlns="http://www.w3.org/2000/svg">
<g id="GENG GAMER">
<path d="M0 6.98987C0 11.1635 3.23387 14 7.28699 14C9.55071 14 11.4479 13.0883 12.7415 11.7511V7.03039H6.05812V8.08394H11.5126V11.3054C10.7149 12.055 9.20576 12.9465 7.28699 12.9465C3.90221 12.9465 1.29355 10.4747 1.29355 6.98987C1.29355 3.46454 3.90221 1.05355 7.28699 1.05355C9.11952 1.05355 10.758 1.80318 11.7713 2.93777L12.6983 2.3097C11.3832 0.891463 9.6585 0 7.28699 0C3.23387 0 0 2.81621 0 6.98987Z" fill="#00FA00"/>
<path d="M17.1597 0.222865V13.7366H26.2793V12.6831H18.3886V7.3343H26.1283V6.28075H18.3886V1.27641H26.2793V0.222865H17.1597Z" fill="#00FA00"/>
<path d="M31.8513 2.06657L40.9061 13.7366H42.1135V0.222865H40.8846V11.7308L31.8729 0.222865H30.6224V13.7366H31.8513V2.06657Z" fill="#00FA00"/>
<path d="M46.4516 6.98987C46.4516 11.1635 49.6854 14 53.7386 14C56.0023 14 57.8995 13.0883 59.193 11.7511V7.03039H52.5097V8.08394H57.9641V11.3054C57.1665 12.055 55.6573 12.9465 53.7386 12.9465C50.3538 12.9465 47.7451 10.4747 47.7451 6.98987C47.7451 3.46454 50.3538 1.05355 53.7386 1.05355C55.5711 1.05355 57.2096 1.80318 58.2229 2.93777L59.1499 2.3097C57.8348 0.891463 56.1101 0 53.7386 0C49.6854 0 46.4516 2.81621 46.4516 6.98987Z" fill="#00FA00"/>
<path d="M69.9451 6.98987C69.9451 11.1635 73.179 14 77.2321 14C79.4958 14 81.393 13.0883 82.6866 11.7511V7.03039H76.0033V8.08394H81.4577V11.3054C80.66 12.055 79.1509 12.9465 77.2321 12.9465C73.8473 12.9465 71.2387 10.4747 71.2387 6.98987C71.2387 3.46454 73.8473 1.05355 77.2321 1.05355C79.0647 1.05355 80.7032 1.80318 81.7164 2.93777L82.6435 2.3097C81.3284 0.891463 79.6036 0 77.2321 0C73.179 0 69.9451 2.81621 69.9451 6.98987Z" fill="#00FA00"/>
<path d="M96.0745 10.4139L97.519 13.7366H98.8988L93.0131 0.222865H91.4824L85.5967 13.7366H86.9765L88.421 10.4139H96.0745ZM88.8091 9.36035L92.237 1.35745L95.6864 9.36035H88.8091Z" fill="#00FA00"/>
<path d="M114.518 1.7424V13.7366H115.768V0.222865H113.914L109.041 11.4269L104.148 0.222865H102.315V13.7366H103.544V1.7424L108.804 13.7366H109.279L114.518 1.7424Z" fill="#00FA00"/>
<path d="M120.62 0.222865V13.7366H129.74V12.6831H121.849V7.3343H129.589V6.28075H121.849V1.27641H129.74V0.222865H120.62Z" fill="#00FA00"/>
<path d="M138.481 8.14472L142.512 13.7366H144L139.839 8.06368C141.973 7.98263 143.828 6.62518 143.828 4.17366C143.828 1.70188 141.93 0.222865 139.451 0.222865H134.083V13.7366H135.312V8.14472H138.481ZM142.534 4.17366C142.534 5.87554 141.24 7.09117 139.343 7.09117H135.312V1.27641H139.343C141.24 1.27641 142.534 2.47178 142.534 4.17366Z" fill="#00FA00"/>
</g>
</svg>
