<svg width="24" height="16" viewBox="0 0 24 16" fill="none" xmlns="http://www.w3.org/2000/svg">
<path d="M9.33333 16H14.6667V13.3333H9.33333V16ZM0 0V2.66667H24V0H0ZM4 9.33333H20V6.66667H4V9.33333Z" fill="white" fill-opacity="0.6"/>
</svg>
