<svg xmlns="http://www.w3.org/2000/svg" width="19.473" height="14.604" viewBox="0 0 19.473 14.604">
  <path id="Icon_metro-profile" data-name="Icon metro-profile" d="M22.58,9.8H21.219V7.755l-2.811-.043L18.422,9.8H9.975l.058-2.086-2.753.043V9.842L5.89,9.8A1.391,1.391,0,0,0,4.5,11.189v9.736A1.391,1.391,0,0,0,5.89,22.317H22.58a1.391,1.391,0,0,0,1.391-1.391V11.189A1.391,1.391,0,0,0,22.58,9.8ZM19.1,8.408h1.391v2.782H19.1Zm-9.041,4.737a1.81,1.81,0,0,1,1.522,2,1.81,1.81,0,0,1-1.522,2,1.81,1.81,0,0,1-1.522-2,1.81,1.81,0,0,1,1.522-2ZM7.976,8.408H9.367v2.782H7.976ZM7.049,19.5s.165-1.323.54-1.572a5.334,5.334,0,0,1,1.453-.416s.7.748,1,.748,1-.748,1-.748a5.317,5.317,0,0,1,1.454.416c.44.293.55,1.572.55,1.572H7.049Zm14.141-.659H14.93v-.7H21.19Zm0-1.391H14.93v-.7H21.19Zm0-1.391H14.93v-.7H21.19Zm0-1.391H14.93v-.7H21.19Z" transform="translate(-4.499 -7.712)"/>
</svg>
