<svg xmlns="http://www.w3.org/2000/svg" width="12.923" height="12.362" viewBox="0 0 12.923 12.362">
  <g id="Group_39250" data-name="Group 39250" transform="translate(3964 -1377)">
    <g id="noun_monthly_calendar_1589939" data-name="noun_monthly calendar_1589939" transform="translate(-3964 1360)">
      <g id="Group_2541" data-name="Group 2541" transform="translate(0 0)">
        <path id="Path_1308" data-name="Path 1308" d="M7.376,958.362a.281.281,0,0,0-.281.281v1.725a1.124,1.124,0,1,0,.562,0v-1.725A.281.281,0,0,0,7.376,958.362Zm6.181,0a.281.281,0,0,0-.281.281v1.725a1.124,1.124,0,1,0,.562,0v-1.725A.281.281,0,0,0,13.557,958.362Zm-8.147.843A1.413,1.413,0,0,0,4,960.614v8.7a1.413,1.413,0,0,0,1.409,1.409H15.514a1.413,1.413,0,0,0,1.409-1.409v-8.7a1.412,1.412,0,0,0-1.409-1.409h-.838a.281.281,0,1,0,0,.562h.838a.84.84,0,0,1,.847.847v2.524H4.562v-2.524a.84.84,0,0,1,.847-.847h.838a.281.281,0,1,0,0-.562Zm3.086,0a.281.281,0,1,0,0,.562h3.933a.281.281,0,1,0,0-.562Zm-1.119,1.686a.562.562,0,1,1-.562.562A.558.558,0,0,1,7.376,960.891Zm6.181,0a.562.562,0,1,1-.562.562A.558.558,0,0,1,13.557,960.891ZM4.562,963.7h11.8v5.615a.84.84,0,0,1-.847.847H5.409a.84.84,0,0,1-.847-.847Z" transform="translate(-4 -941.362)"/>
      </g>
    </g>
  </g>
</svg>
