<svg width="35" height="25" viewBox="0 0 35 25" fill="none" xmlns="http://www.w3.org/2000/svg">
<rect x="1.14062" y="0.9375" width="33" height="23" rx="3.5" fill="white" stroke="#D9D9D9"/>
<path fill-rule="evenodd" clip-rule="evenodd" d="M11.3917 16.2954H9.33192L7.78736 10.2295C7.71405 9.95045 7.55839 9.70377 7.32942 9.58751C6.75799 9.29534 6.12832 9.06281 5.44141 8.94554V8.712H8.75949C9.21743 8.712 9.56089 9.06281 9.61813 9.47024L10.4195 13.8458L12.4783 8.712H14.4808L11.3917 16.2954ZM15.6256 16.2954H13.6804L15.2822 8.712H17.2274L15.6256 16.2954ZM19.7441 10.8128C19.8014 10.4044 20.1448 10.1709 20.5455 10.1709C21.1752 10.1122 21.8611 10.2295 22.4335 10.5207L22.777 8.88792C22.2045 8.65438 21.5749 8.53711 21.0035 8.53711C19.1154 8.53711 17.7416 9.58752 17.7416 11.0453C17.7416 12.1544 18.7147 12.7367 19.4017 13.0875C20.1448 13.4373 20.431 13.6709 20.3738 14.0207C20.3738 14.5454 19.8014 14.7789 19.2299 14.7789C18.543 14.7789 17.8561 14.604 17.2274 14.3118L16.884 15.9456C17.5709 16.2367 18.314 16.354 19.001 16.354C21.1179 16.4116 22.4335 15.3622 22.4335 13.7871C22.4335 11.8036 19.7441 11.6873 19.7441 10.8128ZM29.2414 16.2954L27.6969 8.712H26.0378C25.6944 8.712 25.3509 8.94554 25.2364 9.29534L22.3763 16.2954H24.3788L24.7785 15.1873H27.2389L27.4679 16.2954H29.2414ZM26.324 10.7542L26.8955 13.6122H25.2937L26.324 10.7542Z" fill="#172B85"/>
</svg>
