<svg width="30" height="30" viewBox="0 0 30 30" fill="none" xmlns="http://www.w3.org/2000/svg">
<rect x="0.5" y="0.5" width="29" height="29" stroke="white" stroke-opacity="0.2"/>
<path d="M14.7604 10.953H15.7138V13.8063H14.7604V10.953ZM17.3804 10.953H18.3338V13.8063H17.3804V10.953ZM11.6671 8.33301L9.28711 10.713V19.2863H12.1404V21.6663L14.5271 19.2863H16.4271L20.7138 14.9997V8.33301H11.6671ZM19.7604 14.5263L17.8604 16.4263H15.9538L14.2871 18.093V16.4263H12.1404V9.28634H19.7604V14.5263Z" fill="white"/>
</svg>
