<svg width="25" height="25" viewBox="0 0 25 25" fill="none" xmlns="http://www.w3.org/2000/svg">
<path fill-rule="evenodd" clip-rule="evenodd" d="M2.34193 6.80859C2.34193 5.15174 3.68507 3.80859 5.34193 3.80859H19.3419C20.9988 3.80859 22.3419 5.15174 22.3419 6.8086L22.3419 14.8086C22.3419 16.4654 20.9988 17.8086 19.3419 17.8086L15.3479 17.8086L12.3419 21.8086L9.33598 17.8086L5.34192 17.8086C3.68507 17.8086 2.34192 16.4654 2.34192 14.8086L2.34193 6.80859ZM5.34193 5.80859C4.78964 5.80859 4.34193 6.25631 4.34193 6.80859L4.34192 14.8086C4.34192 15.3609 4.78964 15.8086 5.34192 15.8086L9.33598 15.8086C9.97217 15.8086 10.5704 16.1112 10.9473 16.6238L12.3419 18.4324L13.7366 16.6238C14.1134 16.1113 14.7117 15.8086 15.3479 15.8086L19.3419 15.8086C19.8942 15.8086 20.3419 15.3609 20.3419 14.8086L20.3419 6.80859C20.3419 6.25631 19.8942 5.80859 19.3419 5.80859H5.34193Z" fill="var(--color-white-medium)"/>
</svg>
