<?xml version="1.0" encoding="UTF-8" standalone="no"?>
<svg
   xmlns:dc="http://purl.org/dc/elements/1.1/"
   xmlns:cc="http://creativecommons.org/ns#"
   xmlns:rdf="http://www.w3.org/1999/02/22-rdf-syntax-ns#"
   xmlns:svg="http://www.w3.org/2000/svg"
   xmlns="http://www.w3.org/2000/svg"
   id="svg4"
   version="1.1"
   fill="none"
   viewBox="0 0 33 32"
   height="32"
   width="33">
  <metadata
     id="metadata10">
    <rdf:RDF>
      <cc:Work
         rdf:about="">
        <dc:format>image/svg+xml</dc:format>
        <dc:type
           rdf:resource="http://purl.org/dc/dcmitype/StillImage" />
      </cc:Work>
    </rdf:RDF>
  </metadata>
  <defs
     id="defs8" />
  <path
     id="path2"
     fill="var(--tolopea-color)"
     d="M7.5 4H25.5C28.2614 4 30.5 6.23858 30.5 9V19C30.5 21.7614 28.2614 24 25.5 24H17.5V26H22.5C23.0523 26 23.5 26.4477 23.5 27C23.5 27.5523 23.0523 28 22.5 28H10.5C9.94772 28 9.5 27.5523 9.5 27C9.5 26.4477 9.94772 26 10.5 26H15.5V24H7.5C4.73858 24 2.5 21.7614 2.5 19V9C2.5 6.23858 4.73858 4 7.5 4ZM7.5 6C5.84315 6 4.5 7.34315 4.5 9V19C4.5 20.6569 5.84315 22 7.5 22H25.5C27.1569 22 28.5 20.6569 28.5 19V9C28.5 7.34315 27.1569 6 25.5 6H7.5Z"
     clip-rule="evenodd"
     fill-rule="evenodd" />
</svg>
