<svg viewBox="0 0 60 54" fill="none" xmlns="http://www.w3.org/2000/svg">
<path fill-rule="evenodd" clip-rule="evenodd" d="M57.795 29.6677C55.2208 22.3287 50.7368 16.3751 46.0937 14.1471C44.0063 13.1455 41.9468 12.949 40.1589 13.5761C39.1479 13.9318 38.2305 14.531 37.4442 15.3828C36.6204 16.2627 35.6281 16.7589 34.6359 16.7589H31.3001L31.2827 12.823C31.274 10.8776 29.6843 9.29521 27.7394 9.29521H11.5345C11.0861 9.29521 10.6651 9.12014 10.3488 8.80202C10.033 8.48435 9.86065 8.062 9.86339 7.61361C9.86933 6.69807 10.619 5.95303 11.5345 5.95303H36.6502C38.6038 5.95303 40.1935 4.3633 40.1935 2.40973V0.9361C40.1935 0.41914 39.7744 0 39.2574 0C38.7404 0 38.3213 0.41914 38.3213 0.9361V2.40973C38.3213 3.33121 37.5717 4.08082 36.6502 4.08082H11.5345C9.59325 4.08082 8.00352 5.66049 7.99118 7.60172C7.98524 8.55245 8.3509 9.44741 9.02098 10.1216C9.69106 10.7963 10.5837 11.1674 11.5345 11.1674H27.7394C28.6568 11.1674 29.4064 11.9138 29.4105 12.8312L29.4279 16.7589H25.2654C24.2732 16.7589 23.2809 16.2721 22.4665 15.3922C21.6802 14.5497 20.7722 13.9412 19.7518 13.5761C17.9638 12.9489 15.9044 13.1455 13.8169 14.1471C9.17382 16.375 4.6899 22.3287 2.11562 29.6677C-0.477397 37.0255 -0.702057 44.4769 1.52587 49.12C2.52751 51.2075 4.00657 52.6397 5.80387 53.2763C6.50595 53.5196 7.23608 53.6413 7.97564 53.6413C12.3472 53.6413 17.3647 49.5131 21.0717 42.6141C21.6895 41.4533 22.8971 40.7325 24.1983 40.7325H35.7124C37.0135 40.7325 38.2211 41.4533 38.8389 42.6141C43.1825 50.6926 49.3139 54.9706 54.1068 53.2763C55.9041 52.6397 57.3832 51.2075 58.3848 49.12C60.6127 44.4769 60.3881 37.0255 57.795 29.6677H57.795ZM20.1788 30.4576H16.3983V34.2382C16.3983 34.7551 15.9791 35.1743 15.4622 35.1743C14.9452 35.1743 14.5261 34.7551 14.5261 34.2382V30.4576H10.7455C10.2286 30.4576 9.80944 30.0385 9.80944 29.5215C9.80944 29.0046 10.2286 28.5854 10.7455 28.5854H14.5261V24.8049C14.5261 24.288 14.9452 23.8688 15.4622 23.8688C15.9791 23.8688 16.3983 24.288 16.3983 24.8049V28.5854H20.1788C20.6958 28.5854 21.1149 29.0046 21.1149 29.5215C21.1149 30.0385 20.6958 30.4576 20.1788 30.4576ZM43.8564 21.6734C45.2606 21.6734 46.412 22.8248 46.412 24.2383C46.412 25.6519 45.2606 26.7939 43.8564 26.7939C42.443 26.7939 41.2915 25.6519 41.2915 24.2383C41.2915 22.8248 42.443 21.6734 43.8564 21.6734ZM39.2602 31.3902C37.8467 31.3902 36.6953 30.2481 36.6953 28.8346C36.6953 27.4211 37.8467 26.2697 39.2602 26.2697C40.6644 26.2697 41.8157 27.4211 41.8157 28.8346C41.8157 30.2481 40.6644 31.3902 39.2602 31.3902ZM43.8564 35.9865C42.443 35.9865 41.2915 34.8444 41.2915 33.4309C41.2915 32.0174 42.443 30.866 43.8564 30.866C45.2606 30.866 46.412 32.0174 46.412 33.4309C46.412 34.8444 45.2606 35.9865 43.8564 35.9865ZM48.4527 31.3902C47.0392 31.3902 45.8878 30.2481 45.8878 28.8346C45.8878 27.4211 47.0392 26.2697 48.4527 26.2697C49.8569 26.2697 51.0083 27.4211 51.0083 28.8346C51.0083 30.2481 49.8569 31.3902 48.4527 31.3902Z" fill="white"/>
</svg>
