<svg viewBox="0 0 48 32" fill="none" xmlns="http://www.w3.org/2000/svg">
<path d="M8 4H44V0H8C5.8 0 4 1.8 4 4V26H0V32H28V26H8V4ZM46 8H34C32.9 8 32 8.9 32 10V30C32 31.1 32.9 32 34 32H46C47.1 32 48 31.1 48 30V10C48 8.9 47.1 8 46 8ZM44 26H36V12H44V26Z" fill="#BBF55A"/>
</svg>
