<svg viewBox="0 0 22 24" fill="none" xmlns="http://www.w3.org/2000/svg">
<path d="M19.1667 21H2.83333V8.16667H19.1667V21ZM15.6667 0V2.33333H6.33333V0H4V2.33333H2.83333C1.53833 2.33333 0.5 3.37167 0.5 4.66667V21C0.5 21.6188 0.745833 22.2123 1.18342 22.6499C1.621 23.0875 2.21449 23.3333 2.83333 23.3333H19.1667C19.7855 23.3333 20.379 23.0875 20.8166 22.6499C21.2542 22.2123 21.5 21.6188 21.5 21V4.66667C21.5 4.04783 21.2542 3.45434 20.8166 3.01675C20.379 2.57917 19.7855 2.33333 19.1667 2.33333H18V0H15.6667ZM16.8333 12.8333H11V18.6667H16.8333V12.8333Z" fill="#BBF55A"/>
</svg>
