<svg width="25" height="25" viewBox="0 0 25 25" fill="none" xmlns="http://www.w3.org/2000/svg">
<path d="M12.6738 0.40625C12.1215 0.40625 11.6738 0.853966 11.6738 1.40625V11.4062H1.67383C1.12154 11.4062 0.673828 11.854 0.673828 12.4062C0.673828 12.9585 1.12154 13.4062 1.67383 13.4062H11.6738V23.4062C11.6738 23.9585 12.1215 24.4062 12.6738 24.4062C13.2261 24.4062 13.6738 23.9585 13.6738 23.4062V13.4062H23.6738C24.2261 13.4062 24.6738 12.9585 24.6738 12.4062C24.6738 11.854 24.2261 11.4062 23.6738 11.4062H13.6738V1.40625C13.6738 0.853965 13.2261 0.40625 12.6738 0.40625Z" fill="var(--googly-yellow)"/>
</svg>
