<svg width="19" height="12" viewBox="0 0 19 12" fill="none" xmlns="http://www.w3.org/2000/svg">
<path fill-rule="evenodd" clip-rule="evenodd" d="M18.1585 0.247375C18.5741 0.611057 18.6162 1.24282 18.2526 1.65846L9.5 12L0.747426 1.6585C0.383744 1.24286 0.42586 0.611101 0.841497 0.247419C1.25713 -0.116264 1.88889 -0.0741477 2.25258 0.341488L9.5 9L16.7474 0.341447C17.1111 -0.0741903 17.7429 -0.116306 18.1585 0.247375Z" fill="#772BCB"/>
</svg>
