<svg width="25" height="25" viewBox="0 0 25 25" fill="none" xmlns="http://www.w3.org/2000/svg">
<path fill-rule="evenodd" clip-rule="evenodd" d="M6.38477 3.21875C6.38477 2.66647 6.83248 2.21875 7.38477 2.21875C7.93705 2.21875 8.38477 2.66647 8.38477 3.21875V4.21875H16.3848V3.21875C16.3848 2.66647 16.8325 2.21875 17.3848 2.21875C17.937 2.21875 18.3848 2.66647 18.3848 3.21875V4.21875H22.3848V19.2188C22.3848 20.8756 21.0416 22.2188 19.3848 22.2188H5.38477C3.72791 22.2188 2.38477 20.8756 2.38477 19.2188V4.21875H6.38477V3.21875ZM4.38477 9.21875V6.21875H20.3848V9.21875H4.38477ZM4.38477 11.2188V19.2188C4.38477 19.771 4.83248 20.2188 5.38477 20.2188H19.3848C19.937 20.2188 20.3848 19.771 20.3848 19.2188V11.2188H4.38477Z" fill="#A3A1A7"/>
</svg>
