<svg width="25" height="25" viewBox="0 0 25 25" fill="none" xmlns="http://www.w3.org/2000/svg">
<path d="M23.01 19.6522L20.01 16.6522L21.78 14.8922C21.8737 14.7992 21.9481 14.6886 21.9989 14.5668C22.0497 14.4449 22.0758 14.3142 22.0758 14.1822C22.0758 14.0502 22.0497 13.9195 21.9989 13.7976C21.9481 13.6758 21.8737 13.5652 21.78 13.4722L20.94 12.6322C20.847 12.5385 20.7364 12.4641 20.6146 12.4133C20.4927 12.3625 20.362 12.3364 20.23 12.3364C20.098 12.3364 19.9673 12.3625 19.8454 12.4133C19.7236 12.4641 19.613 12.5385 19.52 12.6322L18.11 14.0422L7.09 3.0322C6.99656 2.93952 6.88575 2.8662 6.76391 2.81643C6.64207 2.76667 6.51161 2.74144 6.38 2.7422H4.61C4.34479 2.7422 4.09043 2.84756 3.9029 3.0351C3.71536 3.22263 3.61 3.47699 3.61 3.7422V5.5522C3.60924 5.68381 3.63447 5.81427 3.68423 5.93611C3.734 6.05795 3.80732 6.16876 3.9 6.2622L14.9 17.2622L13.49 18.6422C13.3973 18.7356 13.324 18.8465 13.2742 18.9683C13.2245 19.0901 13.1992 19.2206 13.2 19.3522C13.2011 19.6145 13.3053 19.8659 13.49 20.0522L14.33 20.8922C14.423 20.9859 14.5336 21.0603 14.6554 21.1111C14.7773 21.1619 14.908 21.188 15.04 21.188C15.172 21.188 15.3027 21.1619 15.4246 21.1111C15.5464 21.0603 15.657 20.9859 15.75 20.8922L17.49 19.1322L20.49 22.1322C20.7559 22.3972 21.1147 22.5479 21.49 22.5522C21.8169 22.5407 22.126 22.4005 22.35 22.1622L23.06 21.4422C23.1788 21.3238 23.2722 21.1824 23.3344 21.0267C23.3965 20.8709 23.4262 20.7041 23.4215 20.5364C23.4168 20.3688 23.3779 20.2038 23.3071 20.0518C23.2364 19.8997 23.1353 19.7637 23.01 19.6522ZM16.68 17.2322L4.86 5.4022V3.9922H6.28L18.1 15.8122L20.22 13.6922L20.7 14.1822L18.24 16.6522L22.12 20.5522L21.41 21.2622L17.49 17.3722L15.05 19.8322L14.57 19.3522L16.68 17.2322Z" fill="#C691FF"/>
<path d="M20.38 2.74219H18.61C18.3476 2.74329 18.0962 2.84744 17.91 3.03219L13.2 7.74219L14.09 8.62219L18.72 3.99219H20.13V5.41219L15.49 10.0322L16.37 10.9122L21.07 6.22219C21.255 6.04657 21.3659 5.80689 21.38 5.55219V3.74219C21.38 3.47697 21.2746 3.22262 21.0871 3.03508C20.8995 2.84754 20.6452 2.74219 20.38 2.74219Z" fill="#C691FF"/>
<path d="M11.49 18.643L10.08 17.233L11.77 15.553L10.89 14.653L8.30999 17.233L10.43 19.353L9.93999 19.843L7.48999 17.373L3.58999 21.253L2.87999 20.553L6.74999 16.623L4.28999 14.183L4.77999 13.693L6.89999 15.813L9.48999 13.223L8.60999 12.333L6.89999 14.043L5.48999 12.633C5.30262 12.4468 5.04917 12.3422 4.78499 12.3422C4.5208 12.3422 4.26735 12.4468 4.07999 12.633L3.23999 13.473C3.1473 13.5664 3.07398 13.6773 3.02421 13.7991C2.97445 13.9209 2.94922 14.0514 2.94999 14.183C2.95053 14.3153 2.97733 14.4462 3.02883 14.5681C3.08033 14.6899 3.1555 14.8004 3.24999 14.893L4.98999 16.623L1.98999 19.623C1.7518 19.8748 1.61628 20.2065 1.60999 20.553C1.61345 20.7153 1.6498 20.8752 1.71684 21.023C1.78387 21.1708 1.8802 21.3035 1.99999 21.413L2.70999 22.123C2.96103 22.3485 3.28284 22.4793 3.61999 22.493C3.78122 22.4972 3.94161 22.4683 4.09125 22.4081C4.24088 22.3479 4.37659 22.2577 4.48999 22.143L7.48999 19.143L9.25999 20.913C9.44735 21.0993 9.7008 21.2038 9.96499 21.2038C10.2292 21.2038 10.4826 21.0993 10.67 20.913L11.51 20.073C11.6039 19.9786 11.6781 19.8663 11.728 19.7428C11.778 19.6193 11.8028 19.487 11.8009 19.3538C11.799 19.2206 11.7706 19.0891 11.7172 18.967C11.6638 18.845 11.5865 18.7348 11.49 18.643Z" fill="#C691FF"/>
</svg>
