<svg width="101" height="21" viewBox="0 0 101 21" fill="none" xmlns="http://www.w3.org/2000/svg">
<path d="M0 15.8281C0.161192 15.4363 0.457721 15.1163 0.834933 14.9271C1.62567 14.4829 2.45929 14.1209 3.3229 13.8466C5.23292 13.1692 7.1407 12.4918 9.04623 11.8144L9.25833 11.75V14.2802L9.07317 14.3581C7.6558 14.8627 6.23507 15.3742 4.82107 15.8721C4.59269 15.9533 4.37722 16.0674 4.1814 16.2108C3.9491 16.3768 3.98277 16.5834 4.23527 16.7189C4.62798 16.8924 5.0562 16.969 5.4843 16.9424C6.30821 16.9173 7.11967 16.7334 7.87463 16.4005C8.32577 16.2311 8.78363 16.0618 9.2617 15.8992V18.1753C8.45696 18.3228 7.64198 18.4066 6.82423 18.426C4.97292 18.4586 3.13233 18.1368 1.40053 17.4776C1.24006 17.4236 1.08459 17.3556 0.935933 17.2744C0.499676 17.059 0.16396 16.6812 0 16.221L0 15.8281Z" fill="#A168DF"/>
<path d="M25.4083 20.9795C25.2105 20.9406 25.0289 20.843 24.8867 20.6993C24.7445 20.5557 24.6483 20.3725 24.6104 20.1734C24.5582 19.9232 24.604 19.6624 24.7382 19.4454C24.8724 19.2283 25.0847 19.0717 25.3309 19.0082C25.5759 18.9412 25.8371 18.9695 26.0623 19.0875C26.2875 19.2056 26.4603 19.4046 26.5462 19.645C26.6281 19.8915 26.613 20.1601 26.5041 20.3958C26.3951 20.6314 26.2006 20.816 25.9604 20.9118L25.8022 20.9728C25.7393 20.9877 25.6749 20.9945 25.6103 20.9931C25.5427 20.998 25.4747 20.9934 25.4083 20.9795ZM26.4183 19.9634C26.4183 19.7388 26.3296 19.5234 26.1718 19.3646C26.0139 19.2058 25.7998 19.1166 25.5766 19.1166C25.3534 19.1166 25.1393 19.2058 24.9815 19.3646C24.8236 19.5234 24.735 19.7388 24.735 19.9634C24.7336 20.0758 24.7547 20.1874 24.7972 20.2915C24.8396 20.3955 24.9025 20.4899 24.982 20.5689C25.0615 20.6479 25.156 20.71 25.2599 20.7515C25.3638 20.793 25.475 20.8129 25.5867 20.8102C25.8071 20.8111 26.019 20.7251 26.177 20.5706C26.335 20.416 26.4265 20.2053 26.4318 19.9837L26.4183 19.9634Z" fill="#A168DF"/>
<path d="M14.5409 20.8069L10.1406 19.4182V0C10.8409 0.165968 11.5277 0.315 12.2078 0.491129C13.8128 0.894359 15.3961 1.38049 16.9514 1.94758C17.6993 2.22126 18.4089 2.59128 19.0623 3.04839C20.0485 3.71938 20.7376 4.74898 20.9847 5.92065C21.292 7.17984 21.3036 8.49377 21.0183 9.75823C20.8683 10.5295 20.4281 11.2126 19.7895 11.6652C18.9849 12.2071 18.1062 12.2003 17.2106 11.9531C16.9076 11.8718 16.6147 11.7465 16.2983 11.6347C16.2983 11.5365 16.2983 11.4518 16.2983 11.3705C16.2983 9.28403 16.2983 7.19984 16.2983 5.1179C16.2994 4.82379 16.2667 4.53054 16.2006 4.24403C16.1619 4.04508 16.0649 3.86232 15.9221 3.71927C15.7793 3.57622 15.5973 3.47941 15.3994 3.44129C15.2869 3.39933 15.1631 3.3999 15.051 3.44289C14.9389 3.48588 14.8462 3.56836 14.79 3.675C14.6887 3.89822 14.6131 4.13231 14.5644 4.37274C14.5507 4.48522 14.5507 4.59897 14.5644 4.71145V20.8069H14.5409Z" fill="#A168DF"/>
<path d="M94.2028 14.9507H96.9601V16.3293H94.2197V17.6841H91.4186V16.3293H76.9891C76.7262 16.3333 76.4639 16.3049 76.208 16.2446C75.6155 16.0956 75.4673 15.5977 75.8713 15.1438C76.0239 14.9812 76.1985 14.841 76.3898 14.7272C81.552 11.5478 86.7142 8.37185 91.8765 5.19927C92.3264 4.90602 92.8608 4.77249 93.3948 4.81992C93.4958 4.83289 93.5929 4.86703 93.6798 4.92012C93.7668 4.97322 93.8418 5.04408 93.8998 5.12814C94.0991 5.39209 94.1993 5.7184 94.1826 6.04943C94.1826 6.94701 94.1826 7.84459 94.1826 8.75911V14.9507H94.2028ZM91.358 7.21121C91.2233 7.28572 91.1526 7.32298 91.0887 7.36363C88.8038 8.77717 86.5201 10.1817 84.2375 11.5772L79.1875 14.6865C79.1188 14.7398 79.0546 14.7987 78.9956 14.8627L79.0326 14.9236H91.4287V10.5543C91.4287 9.53814 91.4287 8.52201 91.4287 7.52621C91.4137 7.41944 91.3901 7.31409 91.358 7.21121Z" fill="#A168DF"/>
<path d="M39.1208 17.7046H36.3601C36.3601 17.63 36.3433 17.5691 36.3433 17.5047C36.3433 16.2549 36.3433 15.0017 36.3433 13.7484C36.3426 13.21 36.4635 12.6784 36.6968 12.1937C36.9289 11.6309 37.3264 11.1529 37.836 10.8236C38.3456 10.4943 38.943 10.3295 39.5483 10.3512H50.6583C50.8565 10.3557 51.0548 10.3433 51.2509 10.3139C51.5191 10.2768 51.7723 10.1671 51.9834 9.99646C52.1945 9.82584 52.3556 9.60074 52.4494 9.3452C52.7287 8.64994 52.7287 7.87272 52.4494 7.17746C52.3406 6.87663 52.1415 6.61725 51.8797 6.43521C51.618 6.25317 51.3065 6.15747 50.9883 6.16133H36.6597C36.5688 6.16133 36.4813 6.16133 36.3736 6.16133V4.84375C36.4342 4.84375 36.5049 4.84375 36.5722 4.84375H52.2979C53.0396 4.85186 53.7543 5.12461 54.3148 5.6134C54.8752 6.1022 55.245 6.7753 55.3582 7.51278C55.458 8.1024 55.4374 8.70629 55.2976 9.28762C55.1526 9.91051 54.8194 10.4729 54.3437 10.8975C53.868 11.3221 53.2733 11.5879 52.6413 11.6586C52.3069 11.708 51.9693 11.7329 51.6313 11.7331C48.103 11.7331 44.5613 11.7568 41.0431 11.7331C40.8056 11.7194 40.5678 11.7541 40.344 11.8352C40.1202 11.9163 39.915 12.0421 39.7408 12.2051C39.5666 12.368 39.4269 12.5648 39.3302 12.7834C39.2335 13.0021 39.1817 13.2382 39.178 13.4775C39.1376 13.9889 39.1544 14.4936 39.1511 15.0118C39.1511 15.8247 39.1511 16.6376 39.1511 17.4505C39.1376 17.5217 39.1275 17.6131 39.1208 17.7046Z" fill="#A168DF"/>
<path d="M54.8159 17.7183V16.3635C54.9068 16.3635 54.991 16.3635 55.0718 16.3635C57.626 16.3635 60.1801 16.3635 62.7343 16.3635C62.9903 16.3686 63.2455 16.3355 63.4918 16.2652C63.7904 16.1688 64.0544 15.9866 64.2512 15.741C64.448 15.4955 64.5691 15.1973 64.5995 14.8833C64.6433 14.626 64.6636 14.3653 64.66 14.1043C64.66 12.212 64.66 10.3175 64.66 8.42072C64.6451 7.8836 64.7296 7.34836 64.9092 6.84233C65.1391 6.25791 65.5385 5.75666 66.0555 5.40385C66.5725 5.05104 67.1832 4.86302 67.8079 4.86426C70.7503 4.86426 73.6962 4.86426 76.6386 4.86426H76.8642V6.16152C76.7632 6.16152 76.6824 6.18185 76.5983 6.18185C74.1743 6.18185 71.7536 6.18185 69.3296 6.18185C69.0744 6.17897 68.8203 6.21435 68.5755 6.28684C68.2788 6.38921 68.0183 6.57638 67.8257 6.82544C67.6332 7.0745 67.517 7.37463 67.4914 7.6891C67.4555 7.92213 67.4397 8.15785 67.4443 8.39362C67.4443 10.3265 67.4443 12.2594 67.4443 14.1923C67.4582 14.7374 67.3596 15.2795 67.1547 15.7843C66.9484 16.2838 66.6152 16.72 66.1886 17.0493C65.7621 17.3786 65.257 17.5895 64.724 17.6607C64.4141 17.7177 64.0997 17.7461 63.7847 17.7454C60.8804 17.7454 57.9772 17.7454 55.0751 17.7454L54.8159 17.7183Z" fill="#A168DF"/>
<path d="M15.3823 20.505V17.9782C15.4396 17.9579 15.5069 17.9274 15.5709 17.9071L22.4422 15.465C22.6332 15.3983 22.8144 15.306 22.9809 15.1907C23.2536 14.9976 23.2267 14.7673 22.9203 14.6216C22.5545 14.4669 22.1581 14.3997 21.7622 14.4252C21.1697 14.4222 20.5811 14.5207 20.0216 14.7165C18.5403 15.2415 17.0589 15.7563 15.5776 16.2745L15.3823 16.3355V13.6902C15.8537 13.5581 16.3284 13.4091 16.8098 13.2939C18.0557 12.9807 19.3368 12.8316 20.6209 12.8502C22.3733 12.8653 24.1068 13.2171 25.7281 13.8866C26.04 14.0253 26.3322 14.2052 26.5967 14.4218C27.233 14.9299 27.2465 15.5802 26.6506 16.1323C26.1897 16.5378 25.6528 16.8464 25.0716 17.04C22.7733 17.8732 20.4694 18.6997 18.1598 19.5194L15.581 20.4407L15.3823 20.505Z" fill="#A168DF"/>
<path d="M99.6836 17.7177V16.2747H99.9462C100.077 16.6575 100.212 17.0436 100.347 17.4264C100.367 17.4873 100.347 17.4636 100.367 17.4839L100.774 16.2578H101V17.7109H100.835V16.6609C100.721 16.9996 100.579 17.3654 100.461 17.7177H100.266C100.148 17.3789 100 16.9928 99.8822 16.6439C99.8822 16.9827 99.8822 17.3654 99.8822 17.7177H99.6836Z" fill="#A168DF"/>
<path d="M99.0338 17.7047H98.8251V16.4312H98.3706V16.2754H99.4917V16.4176H99.0338V17.7047Z" fill="#A168DF"/>
<path d="M25.3677 20.4983H25.1758V19.4043C25.3845 19.4043 25.5865 19.4043 25.7885 19.4043C26.0646 19.4314 26.1252 19.6753 25.9771 19.9293C26.004 20.0343 26.0242 20.119 26.041 20.207C26.0579 20.2951 26.0713 20.3866 26.0882 20.4916H25.8794L25.8222 20.0749H25.3677V20.4983ZM25.839 19.743V19.6956C25.8381 19.6665 25.8261 19.639 25.8053 19.6187C25.7846 19.5985 25.7568 19.5872 25.7279 19.5872H25.3912V19.8683H25.7279C25.7586 19.865 25.7869 19.8503 25.8074 19.8272C25.8279 19.804 25.8392 19.774 25.839 19.743Z" fill="#A168DF"/>
</svg>
