<svg width="101" height="52" viewBox="0 0 101 52" fill="none" xmlns="http://www.w3.org/2000/svg">
<g clip-path="url(#clip0)">
<path d="M49.4268 20.9961C50.2529 21.7735 51.0912 22.5474 51.9138 23.3404C54.7103 26.0344 57.4251 28.8065 59.9138 31.7926C61.3503 33.5178 62.7451 35.2813 63.7312 37.3178C64.0199 37.9144 64.2129 38.5544 64.4268 39.1352C56.6007 48.2639 42.1555 48.3109 34.3521 39.1352C36.3799 34.2622 44.5503 24.417 49.4268 20.9961Z" fill="#A168DF"/>
<path d="M65.5052 37.8014C65.4478 34.4048 64.2547 31.4083 62.7086 28.5248C60.5591 24.5144 57.7556 20.9822 54.7086 17.6309C54.5347 17.4448 54.3608 17.2605 54.1991 17.0761C54.173 17.0448 54.1521 17.0083 54.0947 16.9301C56.4721 14.4379 58.9504 12.0709 62.1591 10.6553C70.2547 17.2622 71.8008 29.3614 65.5052 37.8014Z" fill="#A168DF"/>
<path d="M44.7136 16.9458C42.3328 19.4989 40.1362 22.1302 38.2215 24.9876C36.3067 27.845 34.6336 30.8345 33.7867 34.205C33.4962 35.358 33.3745 36.5528 33.1902 37.6345C27.7275 30.7284 27.5484 18.2815 36.6128 10.6484C39.8197 12.0519 42.2962 14.4276 44.7136 16.9458Z" fill="#A168DF"/>
<path d="M39.3398 8.68295C46.0529 5.11251 52.6894 5.10208 59.3242 8.66556C57.4807 8.8099 55.7711 9.40121 54.1503 10.2308C52.5294 11.0603 50.9503 11.9699 49.3346 12.8603C46.2703 11.0429 43.2303 9.00469 39.3398 8.68295Z" fill="#A168DF"/>
</g>
<defs>
<clipPath id="clip0">
<rect width="40" height="40" fill="white" transform="translate(29.3848 6)"/>
</clipPath>
</defs>
</svg>
