<?xml version="1.0" encoding="UTF-8"?>
<svg xmlns="http://www.w3.org/2000/svg" xmlns:xlink="http://www.w3.org/1999/xlink" width="31pt" height="31pt" viewBox="0 0 31 31" version="1.1">
<g id="surface14555912">
<path style=" stroke:none;fill-rule:nonzero;fill:rgb(98.823529%,27.058824%,0%);fill-opacity:1;" d="M 7.75 2.582031 C 7.570312 2.582031 7.398438 2.601562 7.230469 2.636719 C 6.054688 2.878906 5.167969 3.917969 5.167969 5.167969 L 5.167969 28.417969 L 15.5 24.542969 L 25.832031 28.417969 L 25.832031 5.167969 C 25.832031 4.988281 25.816406 4.816406 25.78125 4.648438 C 25.574219 3.636719 24.777344 2.84375 23.769531 2.636719 C 23.601562 2.601562 23.429688 2.582031 23.25 2.582031 Z M 7.75 2.582031 "/>
</g>
</svg>
