<svg width="24" height="24" viewBox="0 0 24 24" fill="none" xmlns="http://www.w3.org/2000/svg">
<path d="M21.9633 12.269C22.1117 11.737 21.8008 11.1855 21.2688 11.037C20.7371 10.8887 20.1858 11.1993 20.0371 11.7307L20.0352 11.7372C20.0327 11.7455 20.0283 11.7601 20.022 11.7806C20.0092 11.8215 19.9884 11.8857 19.9588 11.9699C19.8996 12.1386 19.8058 12.3861 19.6718 12.6861C19.4026 13.2886 18.9774 14.0887 18.3552 14.8841C17.1212 16.4613 15.1375 18.0003 12.0001 18.0003C8.86264 18.0003 6.8789 16.4613 5.645 14.8841C5.02272 14.0887 4.5975 13.2886 4.32834 12.6861C4.19431 12.3861 4.10052 12.1386 4.04135 11.9699C4.0118 11.8857 3.99099 11.8215 3.9782 11.7806C3.97181 11.7601 3.96743 11.7455 3.96497 11.7372L3.96307 11.7307L3.96272 11.7295C3.81347 11.1988 3.26265 10.8888 2.73136 11.037C2.19939 11.1854 1.88872 11.738 2.03712 12.2699L2.03744 12.2711L2.03821 12.2738L2.04031 12.2812L2.04681 12.3035C2.05218 12.3216 2.05962 12.3464 2.06926 12.3772C2.08852 12.4388 2.11654 12.5249 2.15415 12.6321C2.2293 12.8463 2.34313 13.1457 2.5023 13.5019C2.62035 13.7662 2.76419 14.0636 2.93677 14.3822L1.20109 15.3843C0.722802 15.6604 0.558927 16.272 0.835069 16.7503C1.11121 17.2286 1.7228 17.3924 2.20109 17.1163L4.02738 16.0619C4.04143 16.0801 4.05557 16.0983 4.06979 16.1164C4.85603 17.1214 5.91871 18.1368 7.3123 18.8772L6.64597 21.364C6.50303 21.8974 6.81961 22.4458 7.35308 22.5887C7.88655 22.7317 8.43488 22.4151 8.57782 21.8816L9.18236 19.6255C10.0288 19.863 10.9656 20.0003 12.0001 20.0003C13.0346 20.0003 13.9715 19.863 14.8179 19.6254L15.4225 21.8816C15.5654 22.4151 16.1138 22.7317 16.6472 22.5887C17.1807 22.4458 17.4973 21.8974 17.3543 21.364L16.688 18.8772C18.0815 18.1368 19.1441 17.1214 19.9304 16.1164C19.9446 16.0982 19.9587 16.08 19.9728 16.0619L21.7992 17.1163C22.2775 17.3924 22.889 17.2286 23.1652 16.7503C23.4413 16.272 23.2775 15.6604 22.7992 15.3843L21.0634 14.3821C21.236 14.0636 21.3798 13.7661 21.4979 13.5019C21.657 13.1457 21.7708 12.8463 21.846 12.6321C21.8836 12.525 21.9116 12.4388 21.9309 12.3772C21.9405 12.3464 21.948 12.3216 21.9533 12.3035L21.9598 12.2812L21.9619 12.2738L21.9627 12.2711L21.9633 12.269Z" fill="var(--spacesuit)"/>
</svg>
