<svg width="27" height="27" viewBox="0 0 27 27" fill="none" xmlns="http://www.w3.org/2000/svg">
<path d="M13 6.9C14.16 6.9 15.1 7.84 15.1 9C15.1 10.16 14.16 11.1 13 11.1C11.84 11.1 10.9 10.16 10.9 9C10.9 7.84 11.84 6.9 13 6.9ZM13 15.9C15.97 15.9 19.1 17.36 19.1 18V19.1H6.9V18C6.9 17.36 10.03 15.9 13 15.9ZM13 5C10.79 5 9 6.79 9 9C9 11.21 10.79 13 13 13C15.21 13 17 11.21 17 9C17 6.79 15.21 5 13 5ZM13 14C10.33 14 5 15.34 5 18V21H21V18C21 15.34 15.67 14 13 14Z" fill="black"/>
</svg>
