<svg viewBox="0 0 21 38" fill="none" xmlns="http://www.w3.org/2000/svg">
<path d="M18.8126 36.8155C15.1401 36.8155 11.4676 36.8155 7.79511 36.8155C6.04361 36.8155 4.2921 36.8155 2.54867 36.8155C2.44374 36.8155 2.34689 36.8155 2.24196 36.8155C1.4671 36.7916 0.885953 36.2202 0.861739 35.4583C0.853667 35.2678 0.861739 35.0694 0.861739 34.8789C0.861739 31.474 0.861739 28.0611 0.861739 24.6563C0.861739 19.8386 0.861739 15.0289 0.861739 10.2113C0.861739 7.73497 0.781024 5.25075 0.861739 2.77446C0.885953 2.01253 1.4671 1.44107 2.24196 1.41726C2.33881 1.41726 2.43567 1.41726 2.5406 1.41726C3.20246 1.41726 3.86432 1.41726 4.52618 1.41726C6.83461 1.41726 9.14304 1.41726 11.4595 1.41726C13.5501 1.41726 15.6406 1.41726 17.723 1.41726C18.0862 1.41726 18.4575 1.40933 18.8207 1.41726C19.7005 1.44107 20.2009 2.13951 20.2009 2.94113C20.2009 5.92537 20.2009 8.90962 20.2009 11.8859C20.2009 16.7036 20.2009 21.5212 20.2009 26.3389C20.2009 29.3231 20.2009 32.3073 20.2009 35.2836C20.1929 36.0932 19.7005 36.7837 18.8126 36.8155C18.2961 36.8313 18.2961 37.625 18.8126 37.6091C20.0718 37.5695 20.9919 36.6091 21 35.3868C21 35.0773 21 34.7598 21 34.4503C21 32.9344 21 31.4184 21 29.8946C21 25.0928 21 20.291 21 15.4892C21 11.624 21 7.75878 21 3.90149C21 3.5602 21 3.21892 21 2.87764C20.9919 1.83792 20.3381 0.869624 19.2485 0.663267C18.8126 0.583899 18.3364 0.615646 17.8925 0.615646C17.0208 0.615646 16.1491 0.615646 15.2693 0.615646C11.0075 0.615646 6.74582 0.615646 2.49217 0.615646C1.48324 0.615646 0.546952 1.0363 0.175666 2.0284C0.0303799 2.40937 0.0384516 2.79033 0.0384516 3.18717C0.0384516 4.43325 0.0384516 5.67933 0.0384516 6.92541C0.0384516 11.5923 0.0384516 16.2591 0.0384516 20.926C0.0384516 25.1007 0.0384516 29.2755 0.0384516 33.4502C0.0384516 34.2281 -0.0745488 35.109 0.0868801 35.8789C0.312881 36.998 1.32988 37.6012 2.4276 37.6012C3.06524 37.6012 3.70289 37.6012 4.34053 37.6012C8.82019 37.6012 13.2918 37.6012 17.7714 37.6012C18.1185 37.6012 18.4575 37.6012 18.8046 37.6012C19.3292 37.6091 19.3292 36.8155 18.8126 36.8155Z" fill="#ABABAB"/>
<path d="M0.434304 6.45774C2.71045 6.45774 4.97853 6.45774 7.25468 6.45774C10.8626 6.45774 14.4705 6.45774 18.0785 6.45774C18.9098 6.45774 19.7412 6.45774 20.5726 6.45774C21.0891 6.45774 21.0891 5.66406 20.5726 5.66406C18.2964 5.66406 16.0283 5.66406 13.7522 5.66406C10.1443 5.66406 6.53632 5.66406 2.92838 5.66406C2.09702 5.66406 1.26566 5.66406 0.434304 5.66406C-0.0822681 5.66406 -0.0822681 6.45774 0.434304 6.45774Z" fill="#ABABAB"/>
<path d="M8.47337 3.88548C9.82937 3.88548 11.1854 3.88548 12.5414 3.88548C13.0579 3.88548 13.0579 3.0918 12.5414 3.0918C11.1854 3.0918 9.82937 3.0918 8.47337 3.0918C7.95679 3.0918 7.95679 3.88548 8.47337 3.88548Z" fill="#ABABAB"/>
<path d="M0.434304 32.9831C2.71045 32.9831 4.97853 32.9831 7.25468 32.9831C10.8626 32.9831 14.4705 32.9831 18.0785 32.9831C18.9098 32.9831 19.7412 32.9831 20.5726 32.9831C21.0891 32.9831 21.0891 32.1895 20.5726 32.1895C18.2964 32.1895 16.0283 32.1895 13.7522 32.1895C10.1443 32.1895 6.53632 32.1895 2.92838 32.1895C2.09702 32.1895 1.26566 32.1895 0.434304 32.1895C-0.0822681 32.1895 -0.0822681 32.9831 0.434304 32.9831Z" fill="#ABABAB"/>
<path d="M10.5041 35.355C10.776 35.355 10.9964 35.1383 10.9964 34.8709C10.9964 34.6035 10.776 34.3867 10.5041 34.3867C10.2322 34.3867 10.0117 34.6035 10.0117 34.8709C10.0117 35.1383 10.2322 35.355 10.5041 35.355Z" fill="#ABABAB"/>
<path d="M10.5942 34.8712C10.5861 34.9823 10.4166 34.9823 10.4166 34.8712C10.4166 34.7522 10.5861 34.7522 10.5942 34.8712C10.6184 35.3792 11.4256 35.3792 11.4014 34.8712C11.3771 34.395 11.0139 33.9902 10.5054 33.9902C10.0131 33.9902 9.61757 34.395 9.60949 34.8712C9.60142 35.3474 10.005 35.7284 10.4812 35.7522C10.9978 35.776 11.3771 35.3554 11.4014 34.8712C11.4256 34.3633 10.6184 34.3633 10.5942 34.8712Z" fill="#ABABAB"/>
</svg>
