<svg width="80" height="64" viewBox="0 0 80 64" fill="none" xmlns="http://www.w3.org/2000/svg">
<path fill-rule="evenodd" clip-rule="evenodd" d="M3 5H27.9039V10H33.5V21H37.5V16H62.4039V21H68.5V36H76.5V38H68.5V54H62.4039V59H37.5V54H27.9039V59H3V47H27.9039V52H37.5V50H31.5V41H33.5V48H37.5V47H62.4039V52H66.5V23H62.4039V28H37.5V23H33.5V33H27.9039V38H3V26H27.9039V31H31.5V12H27.9039V17H3V5ZM5 7H25.9039V10H5V7ZM25.9039 12H5V15H25.9039V12ZM39.5 18H60.4039V21H39.5V18ZM39.5 26V23H60.4039V26H39.5ZM25.9039 28H5V31H25.9039V28ZM5 33V36H25.9039V33H5ZM5 49H25.9039V52H5V49ZM5 57V54H25.9039V57H5ZM60.4039 49H39.5V52H60.4039V49ZM39.5 54V57H60.4039V54H39.5Z" fill="white"/>
</svg>
