<svg width="80" height="64" viewBox="0 0 80 64" fill="none" xmlns="http://www.w3.org/2000/svg">
<path d="M10 11H11.05V12H10V11Z" fill="white"/>
<path d="M10 52.1669V53.1669H11.05V52.1669H10Z" fill="white"/>
<path d="M39.399 52.1669H38.349V53.1669H39.399V52.1669Z" fill="white"/>
<path d="M39.399 12V11H38.349V12H39.399Z" fill="white"/>
<path d="M13.1499 11V12H15.2498V11H13.1499Z" fill="white"/>
<path d="M17.3497 11V12H19.4497V11H17.3497Z" fill="white"/>
<path d="M21.5496 11V12H23.6495V11H21.5496Z" fill="white"/>
<path d="M25.7494 11V12H27.8494V11H25.7494Z" fill="white"/>
<path d="M29.9493 11V12H32.0492V11H29.9493Z" fill="white"/>
<path d="M34.1491 11V12H36.2491V11H34.1491Z" fill="white"/>
<path d="M39.399 13.875H38.399V15.7917H39.399V13.875Z" fill="white"/>
<path d="M39.399 17.7084H38.399V19.625H39.399V17.7084Z" fill="white"/>
<path d="M39.399 21.5417H38.399V23.4584H39.399V21.5417Z" fill="white"/>
<path d="M39.399 25.3751H38.399V27.2917H39.399V25.3751Z" fill="white"/>
<path d="M39.399 29.2084H38.399V31.1251H39.399V29.2084Z" fill="white"/>
<path d="M39.399 33.0418H38.399V34.9584H39.399V33.0418Z" fill="white"/>
<path d="M39.399 36.8751H38.399V38.7918H39.399V36.8751Z" fill="white"/>
<path d="M39.399 40.7085H38.399V42.6251H39.399V40.7085Z" fill="white"/>
<path d="M39.399 44.5418H38.399V46.4585H39.399V44.5418Z" fill="white"/>
<path d="M39.399 48.3752H38.399V50.2918H39.399V48.3752Z" fill="white"/>
<path d="M36.2491 53.1669V52.1669H34.1491V53.1669H36.2491Z" fill="white"/>
<path d="M32.0492 53.1669V52.1669H29.9493V53.1669H32.0492Z" fill="white"/>
<path d="M27.8494 53.1669V52.1669H25.7494V53.1669H27.8494Z" fill="white"/>
<path d="M23.6495 53.1669V52.1669H21.5496V53.1669H23.6495Z" fill="white"/>
<path d="M19.4497 53.1669V52.1669H17.3497V53.1669H19.4497Z" fill="white"/>
<path d="M15.2498 53.1669V52.1669H13.1499V53.1669H15.2498Z" fill="white"/>
<path d="M10 50.2918H11V48.3752H10V50.2918Z" fill="white"/>
<path d="M10 46.4585H11V44.5418H10V46.4585Z" fill="white"/>
<path d="M10 42.6251H11V40.7085H10V42.6251Z" fill="white"/>
<path d="M10 38.7918H11V36.8751H10V38.7918Z" fill="white"/>
<path d="M10 34.9584H11V33.0418H10V34.9584Z" fill="white"/>
<path d="M10 31.1251H11V29.2084H10V31.1251Z" fill="white"/>
<path d="M10 27.2917H11V25.3751H10V27.2917Z" fill="white"/>
<path d="M10 23.4584H11V21.5417H10V23.4584Z" fill="white"/>
<path d="M10 19.625H11V17.7084H10V19.625Z" fill="white"/>
<path d="M10 15.7917H11V13.875H10V15.7917Z" fill="white"/>
<path fill-rule="evenodd" clip-rule="evenodd" d="M35.1994 28.2286H14.2002V15.8213H35.1994V28.2286ZM16.2002 17.8213H33.1994V21H16.2002V17.8213ZM33.1994 23.0499H16.2002V26.2286H33.1994V23.0499Z" fill="white"/>
<path fill-rule="evenodd" clip-rule="evenodd" d="M45.6982 15.8213H66.6975V28.2286H45.6982V15.8213ZM47.6982 17.8213H64.6975V21H47.6982V17.8213ZM47.6982 23.0499V26.2286H64.6975V23.0499H47.6982Z" fill="white"/>
<path fill-rule="evenodd" clip-rule="evenodd" d="M14.2002 48.3497H35.1994V36H14.2002V48.3497ZM33.1994 38H16.2002V41.1211H33.1994V38ZM16.2002 46.3497V43.2286H33.1994V46.3497H16.2002Z" fill="white"/>
<path fill-rule="evenodd" clip-rule="evenodd" d="M45.6982 36H66.6975V48.3497H45.6982V36ZM47.6982 38H64.6975V41.1211H47.6982V38ZM47.6982 43.2286V46.3497H64.6975V43.2286H47.6982Z" fill="white"/>
<path d="M42.549 11H41.499V12H42.549V11Z" fill="white"/>
<path d="M41.499 53.1669V52.1669H42.549V53.1669H41.499Z" fill="white"/>
<path d="M69.848 52.1669H70.898V53.1669H69.848V52.1669Z" fill="white"/>
<path d="M70.898 11V12H69.848V11H70.898Z" fill="white"/>
<path d="M44.6489 12V11H46.7488V12H44.6489Z" fill="white"/>
<path d="M48.8488 12V11H50.9487V12H48.8488Z" fill="white"/>
<path d="M53.0486 12V11H55.1485V12H53.0486Z" fill="white"/>
<path d="M57.2485 12V11H59.3484V12H57.2485Z" fill="white"/>
<path d="M61.4483 12V11H63.5482V12H61.4483Z" fill="white"/>
<path d="M65.6482 12V11H67.7481V12H65.6482Z" fill="white"/>
<path d="M69.898 13.875H70.898V15.7917H69.898V13.875Z" fill="white"/>
<path d="M69.898 17.7084H70.898V19.625H69.898V17.7084Z" fill="white"/>
<path d="M69.898 21.5417H70.898V23.4584H69.898V21.5417Z" fill="white"/>
<path d="M69.898 25.3751H70.898V27.2917H69.898V25.3751Z" fill="white"/>
<path d="M69.898 29.2084H70.898V31.1251H69.898V29.2084Z" fill="white"/>
<path d="M69.898 33.0418H70.898V34.9584H69.898V33.0418Z" fill="white"/>
<path d="M69.898 36.8751H70.898V38.7918H69.898V36.8751Z" fill="white"/>
<path d="M69.898 40.7085H70.898V42.6251H69.898V40.7085Z" fill="white"/>
<path d="M69.898 44.5418H70.898V46.4585H69.898V44.5418Z" fill="white"/>
<path d="M69.898 48.3752H70.898V50.2918H69.898V48.3752Z" fill="white"/>
<path d="M67.7481 52.1669V53.1669H65.6482V52.1669H67.7481Z" fill="white"/>
<path d="M63.5482 52.1669V53.1669H61.4483V52.1669H63.5482Z" fill="white"/>
<path d="M59.3484 52.1669V53.1669H57.2485V52.1669H59.3484Z" fill="white"/>
<path d="M55.1485 52.1669V53.1669H53.0486V52.1669H55.1485Z" fill="white"/>
<path d="M50.9487 52.1669V53.1669H48.8488V52.1669H50.9487Z" fill="white"/>
<path d="M46.7488 52.1669V53.1669H44.6489V52.1669H46.7488Z" fill="white"/>
<path d="M42.499 50.2918H41.499V48.3752H42.499V50.2918Z" fill="white"/>
<path d="M42.499 46.4585H41.499V44.5418H42.499V46.4585Z" fill="white"/>
<path d="M42.499 42.6251H41.499V40.7085H42.499V42.6251Z" fill="white"/>
<path d="M42.499 38.7918H41.499V36.8751H42.499V38.7918Z" fill="white"/>
<path d="M42.499 34.9584H41.499V33.0418H42.499V34.9584Z" fill="white"/>
<path d="M42.499 31.1251H41.499V29.2084H42.499V31.1251Z" fill="white"/>
<path d="M42.499 27.2917H41.499V25.3751H42.499V27.2917Z" fill="white"/>
<path d="M42.499 23.4584H41.499V21.5417H42.499V23.4584Z" fill="white"/>
<path d="M42.499 19.625H41.499V17.7084H42.499V19.625Z" fill="white"/>
<path d="M42.499 15.7917H41.499V13.875H42.499V15.7917Z" fill="white"/>
</svg>
