<svg width="33" height="32" viewBox="0 0 33 32" fill="none" xmlns="http://www.w3.org/2000/svg">
<path fill-rule="evenodd" clip-rule="evenodd" d="M3.16675 6.66797C3.16675 4.45883 4.95761 2.66797 7.16675 2.66797H16.5001C18.7092 2.66797 20.5001 4.45883 20.5001 6.66797V9.33463H25.8334C28.0426 9.33463 29.8334 11.1255 29.8334 13.3346V29.3346H20.5001H17.8334H3.16675V6.66797ZM20.5001 20.0013V17.3346H23.1667V14.668H20.5001V12.0013H25.8334C26.5698 12.0013 27.1667 12.5983 27.1667 13.3346V26.668H20.5001V22.668H23.1667V20.0013H20.5001ZM17.8334 6.66797V9.33463V26.668H13.8334V22.668H9.83341V26.668H5.83341V6.66797C5.83341 5.93159 6.43037 5.33464 7.16675 5.33464H16.5001C17.2365 5.33464 17.8334 5.93159 17.8334 6.66797ZM7.91349 8.0013H10.5802V10.668H7.91349V8.0013ZM13.2468 8.0013H15.9135V10.668H13.2468V8.0013ZM10.5802 13.3346H7.91349V16.0013H10.5802V13.3346ZM15.9135 13.3346H13.2468V16.0013H15.9135V13.3346Z" fill="var(--tolopea-medium-color)"/>
</svg>
