<svg width="27" height="20" viewBox="0 0 27 20" fill="none" xmlns="http://www.w3.org/2000/svg">
<path d="M18.3352 10.1288L17.8295 10.6246C17.3561 10.4741 16.8518 10.3929 16.3289 10.3929H16.0292H15.8599L15.7071 10.4655C15.0459 10.7799 14.3212 10.9643 13.5556 10.9643C12.7906 10.9643 12.069 10.7802 11.4027 10.4649L11.2504 10.3929H11.0819H10.7822C10.2593 10.3929 9.75502 10.4741 9.28165 10.6246L8.77591 10.1288C8.28077 9.64328 7.62004 9.32328 6.88544 9.26109C7.859 8.75447 8.52778 7.74285 8.52778 6.57143C8.52778 4.88871 7.14777 3.53571 5.46667 3.53571C3.78557 3.53571 2.40556 4.88871 2.40556 6.57143C2.40556 7.74287 3.07436 8.75452 4.04796 9.26113C2.48837 9.39354 1.25 10.6917 1.25 12.2857V13.4286C1.25 14.4827 2.11001 15.3214 3.15556 15.3214H5.53528H5.87222V16.2857C5.87222 17.6541 6.99223 18.75 8.35556 18.75H18.7556C20.1189 18.75 21.2389 17.6541 21.2389 16.2857V15.3214H21.5722H23.9556C25.0011 15.3214 25.8611 14.4827 25.8611 13.4286V12.2857C25.8611 10.6917 24.6227 9.39354 23.0631 9.26113C24.0367 8.75452 24.7056 7.74287 24.7056 6.57143C24.7056 4.88871 23.3255 3.53571 21.6444 3.53571C19.9633 3.53571 18.5833 4.88871 18.5833 6.57143C18.5833 7.74285 19.2521 8.75447 20.2257 9.26109C19.4911 9.32328 18.8303 9.64327 18.3352 10.1288ZM13.5556 10.75C16.1972 10.75 18.35 8.63272 18.35 6C18.35 3.36728 16.1972 1.25 13.5556 1.25C10.9139 1.25 8.76111 3.36728 8.76111 6C8.76111 8.63272 10.9139 10.75 13.5556 10.75Z" stroke="white" stroke-width="1.5"/>
</svg>
