<svg width="25" height="24" viewBox="0 0 25 24" fill="none" xmlns="http://www.w3.org/2000/svg">
<path fill-rule="evenodd" clip-rule="evenodd" d="M7.89532 20.6585C8.25901 21.0741 8.89077 21.1162 9.30641 20.7526L19.6479 12L9.30645 3.24743C8.89081 2.88374 8.25905 2.92586 7.89537 3.3415C7.53169 3.75713 7.5738 4.38889 7.98944 4.75258L16.6479 12L7.9894 19.2474C7.57376 19.6111 7.53164 20.2429 7.89532 20.6585Z" fill="#A168DF"/>
</svg>
