<svg width="27" height="28" viewBox="0 0 27 28" fill="none" xmlns="http://www.w3.org/2000/svg">
<path d="M13.5001 0.666992C6.14008 0.666992 0.166748 6.64033 0.166748 14.0003C0.166748 21.3603 6.14008 27.3337 13.5001 27.3337C20.8601 27.3337 26.8334 21.3603 26.8334 14.0003C26.8334 6.64033 20.8601 0.666992 13.5001 0.666992ZM12.1667 24.5737C6.90008 23.9203 2.83341 19.4403 2.83341 14.0003C2.83341 13.1737 2.94008 12.387 3.11341 11.6137L9.50008 18.0003V19.3337C9.50008 20.8003 10.7001 22.0003 12.1667 22.0003V24.5737ZM21.3667 21.187C21.0201 20.107 20.0334 19.3337 18.8334 19.3337H17.5001V15.3337C17.5001 14.6003 16.9001 14.0003 16.1667 14.0003H8.16675V11.3337H10.8334C11.5667 11.3337 12.1667 10.7337 12.1667 10.0003V7.33366H14.8334C16.3001 7.33366 17.5001 6.13366 17.5001 4.66699V4.12033C21.4067 5.70699 24.1667 9.53366 24.1667 14.0003C24.1667 16.7737 23.1001 19.2937 21.3667 21.187Z" fill="#4F0E8C"/>
</svg>
