<svg width="21" height="22" viewBox="0 0 21 22" fill="none" xmlns="http://www.w3.org/2000/svg">
<path d="M16.5 1.13281C15.6 1.13281 14.5 2.13281 14.5 3.13281H6.5C6.5 2.13281 5.4 1.13281 4.5 1.13281H0.5V10.1328C0.5 11.1328 1.5 12.1328 2.5 12.1328H4.7C5.1 14.1328 6.4 15.8328 9.5 16.1328V18.2128C6.5 18.6728 6.5 21.1328 6.5 21.1328H14.5C14.5 21.1328 14.5 18.6728 11.5 18.2128V16.1328C14.6 15.8328 15.9 14.1328 16.3 12.1328H18.5C19.5 12.1328 20.5 11.1328 20.5 10.1328V1.13281H16.5ZM4.5 10.1328H2.5V3.13281H4.5V10.1328ZM14.5 10.6328C14.5 12.5628 13.92 14.1328 10.5 14.1328C7.09 14.1328 6.5 12.5628 6.5 10.6328V5.13281H14.5V10.6328ZM18.5 10.1328H16.5V3.13281H18.5V10.1328Z" fill="#C691FF" stroke="#5A12AA" stroke-width="0.5"/>
</svg>
