<svg width="25" height="24" viewBox="0 0 25 24" fill="none" xmlns="http://www.w3.org/2000/svg">
<path d="M19.5 6H17.5C17.5 3.24 15.26 1 12.5 1C9.74 1 7.5 3.24 7.5 6H5.5C4.4 6 3.51 6.9 3.51 8L3.5 20C3.5 21.1 4.4 22 5.5 22H19.5C20.6 22 21.5 21.1 21.5 20V8C21.5 6.9 20.6 6 19.5 6ZM12.5 3C14.16 3 15.5 4.34 15.5 6H9.5C9.5 4.34 10.84 3 12.5 3ZM12.5 13C9.74 13 7.5 10.76 7.5 8H9.5C9.5 9.66 10.84 11 12.5 11C14.16 11 15.5 9.66 15.5 8H17.5C17.5 10.76 15.26 13 12.5 13Z" fill="#78777F"/>
</svg>
