<svg width="20" height="20" viewBox="0 0 20 20" fill="none" xmlns="http://www.w3.org/2000/svg">
<path d="M5.80049 0.00012207H14.2005C17.4005 0.00012207 20.0005 2.60012 20.0005 5.80012V14.2001C20.0005 15.7384 19.3894 17.2136 18.3017 18.3013C17.214 19.3891 15.7387 20.0001 14.2005 20.0001H5.80049C2.60049 20.0001 0.000488281 17.4001 0.000488281 14.2001V5.80012C0.000488281 4.26187 0.611558 2.78661 1.69927 1.6989C2.78698 0.611192 4.26223 0.00012207 5.80049 0.00012207ZM5.60049 2.00012C4.64571 2.00012 3.73004 2.37941 3.0549 3.05454C2.37977 3.72967 2.00049 4.64534 2.00049 5.60012V14.4001C2.00049 16.3901 3.61049 18.0001 5.60049 18.0001H14.4005C15.3553 18.0001 16.2709 17.6208 16.9461 16.9457C17.6212 16.2706 18.0005 15.3549 18.0005 14.4001V5.60012C18.0005 3.61012 16.3905 2.00012 14.4005 2.00012H5.60049ZM15.2505 3.50012C15.582 3.50012 15.9 3.63182 16.1344 3.86624C16.3688 4.10066 16.5005 4.4186 16.5005 4.75012C16.5005 5.08164 16.3688 5.39959 16.1344 5.63401C15.9 5.86843 15.582 6.00012 15.2505 6.00012C14.919 6.00012 14.601 5.86843 14.3666 5.63401C14.1322 5.39959 14.0005 5.08164 14.0005 4.75012C14.0005 4.4186 14.1322 4.10066 14.3666 3.86624C14.601 3.63182 14.919 3.50012 15.2505 3.50012ZM10.0005 5.00012C11.3266 5.00012 12.5983 5.52691 13.536 6.46459C14.4737 7.40227 15.0005 8.67404 15.0005 10.0001C15.0005 11.3262 14.4737 12.598 13.536 13.5357C12.5983 14.4733 11.3266 15.0001 10.0005 15.0001C8.67441 15.0001 7.40264 14.4733 6.46496 13.5357C5.52727 12.598 5.00049 11.3262 5.00049 10.0001C5.00049 8.67404 5.52727 7.40227 6.46496 6.46459C7.40264 5.52691 8.67441 5.00012 10.0005 5.00012ZM10.0005 7.00012C9.20484 7.00012 8.44178 7.31619 7.87917 7.8788C7.31656 8.44141 7.00049 9.20447 7.00049 10.0001C7.00049 10.7958 7.31656 11.5588 7.87917 12.1214C8.44178 12.6841 9.20484 13.0001 10.0005 13.0001C10.7961 13.0001 11.5592 12.6841 12.1218 12.1214C12.6844 11.5588 13.0005 10.7958 13.0005 10.0001C13.0005 9.20447 12.6844 8.44141 12.1218 7.8788C11.5592 7.31619 10.7961 7.00012 10.0005 7.00012Z" fill="#F1CC01"/>
</svg>
