<svg width="30" height="30" viewBox="0 0 30 30" fill="none" xmlns="http://www.w3.org/2000/svg">
<rect x="0.5" y="0.5" width="29" height="29" stroke="white" stroke-opacity="0.2"/>
<path fill-rule="evenodd" clip-rule="evenodd" d="M11.465 21.3993H8.81127V12.8536H11.465V21.3993ZM10.1365 11.6879C9.2879 11.6879 8.59961 10.985 8.59961 10.1365C8.59961 9.28768 9.28768 8.59961 10.1365 8.59961C10.9853 8.59961 11.6733 9.28768 11.6733 10.1365C11.6733 10.985 10.9848 11.6879 10.1365 11.6879ZM21.3969 21.3994H18.7489V17.2394C18.7489 16.248 18.7289 14.9765 17.3692 14.9765C15.9895 14.9765 15.7781 16.0537 15.7781 17.168V21.3994H13.1272V12.8537H15.6724V14.0194H15.7095C16.0638 13.348 16.9292 12.6394 18.2204 12.6394C20.9061 12.6394 21.3998 14.408 21.3998 16.7051V21.3994L21.3969 21.3994Z" fill="white"/>
</svg>
