<svg width="18" height="20" viewBox="0 0 18 20" fill="none" xmlns="http://www.w3.org/2000/svg">
<path d="M8.63944 3.93012H10.0694V8.21012H8.63944V3.93012ZM12.5694 3.93012H13.9994V8.21012H12.5694V3.93012ZM3.99944 0.00012207L0.429443 3.57012V16.4301H4.70944V20.0001L8.28944 16.4301H11.1394L17.5694 10.0001V0.00012207H3.99944ZM16.1394 9.29012L13.2894 12.1401H10.4294L7.92944 14.6401V12.1401H4.70944V1.43012H16.1394V9.29012Z" fill="#F1CC01"/>
</svg>
