<svg width="22" height="17" viewBox="0 0 22 17" fill="none" xmlns="http://www.w3.org/2000/svg">
<path d="M21.46 1.99988C20.69 2.34988 19.86 2.57988 19 2.68988C19.88 2.15988 20.56 1.31988 20.88 0.309878C20.05 0.809878 19.13 1.15988 18.16 1.35988C17.37 0.499878 16.26 -0.00012207 15 -0.00012207C12.65 -0.00012207 10.73 1.91988 10.73 4.28988C10.73 4.62988 10.77 4.95988 10.84 5.26988C7.28004 5.08988 4.11004 3.37988 2.00004 0.789878C1.63004 1.41988 1.42004 2.15988 1.42004 2.93988C1.42004 4.42988 2.17004 5.74988 3.33004 6.49988C2.62004 6.49988 1.96004 6.29988 1.38004 5.99988V6.02988C1.38004 8.10988 2.86004 9.84988 4.82004 10.2399C4.19077 10.4121 3.53013 10.436 2.89004 10.3099C3.16165 11.1624 3.69358 11.9083 4.41106 12.4428C5.12854 12.9773 5.99549 13.2736 6.89004 13.2899C5.37367 14.4903 3.49404 15.1392 1.56004 15.1299C1.22004 15.1299 0.880039 15.1099 0.540039 15.0699C2.44004 16.2899 4.70004 16.9999 7.12004 16.9999C15 16.9999 19.33 10.4599 19.33 4.78988C19.33 4.59988 19.33 4.41988 19.32 4.22988C20.16 3.62988 20.88 2.86988 21.46 1.99988Z" fill="#F1CC01"/>
</svg>
