<svg width="38" height="23" viewBox="0 0 38 23" fill="none" xmlns="http://www.w3.org/2000/svg">
<path d="M33.5598 4.21916C33.0026 5.17288 32.4372 6.15587 32.1109 6.87449C31.2966 7.902 32.8155 5.3341 33.5598 4.21916Z" fill="#BBF55A"/>
<path d="M1.00007 22.0482C7.6627 15.3035 14.7499 9.84954 22.7793 6.30681C25.889 4.93473 31.1269 3.09418 34.2827 2.04264C34.3921 2.00622 35.1805 1.35474 34.7046 2.22976C33.9964 3.53189 32.6844 5.61149 32.1109 6.87449C31.162 8.07187 33.3815 4.38675 33.8515 3.80813C34.9777 2.42163 35.5189 1.84411 36.9282 1.02887C37.2255 0.856896 36.3384 0.844907 36.0271 0.945622C35.1545 1.22802 34.3079 1.42218 33.4544 1.19889C32.8007 1.02786 32.034 0.880767 31.5674 0.780106" stroke="#BBF55A" stroke-linecap="round" stroke-linejoin="round"/>
</svg>
