<svg width="17" height="20" viewBox="0 0 17 20" fill="none" xmlns="http://www.w3.org/2000/svg">
<path d="M13.6825 19.6475C14.317 19.6977 14.9618 19.7455 15.5993 19.7321C15.726 19.7299 15.8609 19.7188 15.9934 19.6967C16.0225 19.694 16.0515 19.6891 16.0783 19.6799C16.3743 19.6178 16.6525 19.4858 16.8244 19.2156C17.0953 18.7859 16.9525 18.2189 16.8489 17.7585C16.7048 17.1127 16.544 16.4693 16.3709 15.8327C16.0137 14.5204 15.5965 13.2266 15.1175 11.9579C14.9933 11.6294 14.6648 11.1313 14.271 11.1864C13.8773 11.2415 13.9221 11.7905 14.0267 12.0713C14.4143 13.1005 14.7648 14.1436 15.0719 15.2006C15.2135 15.6931 15.3447 16.1903 15.4655 16.6898C15.517 16.9035 15.5685 17.1195 15.6159 17.3333C15.6474 17.4773 15.679 17.6213 15.7106 17.7653C15.7855 17.8889 15.7616 17.9528 15.6412 17.9571C15.6249 17.9727 15.6085 17.9862 15.588 17.9997C9.98469 13.0688 5.07713 7.28673 1.0785 0.849108C0.913954 0.58476 0.544532 0.126871 0.199239 0.341026C-0.12759 0.541712 0.0303535 1.1435 0.188522 1.3992C4.02472 7.57462 8.63429 13.1845 13.8997 18.0425C13.5359 18.0248 13.1699 18.0027 12.8078 17.9674C11.7465 17.8656 10.6923 17.6913 9.64965 17.4643C8.79051 17.2779 9.31614 18.9553 9.95007 19.0931C11.1846 19.3628 12.428 19.5468 13.6825 19.6475Z" fill="#BBF55A"/>
</svg>
