<svg viewBox="0 0 48 48" fill="none" xmlns="http://www.w3.org/2000/svg">
<rect x="-0.000488281" width="48" height="48" fill="#BBF55A"/>
<path d="M11 33.4286C11 32.92 11.1525 32.4228 11.4382 32C11.7239 31.5771 12.1299 31.2475 12.605 31.0529C13.0801 30.8583 13.6029 30.8073 14.1072 30.9066C14.6116 31.0058 15.0749 31.2507 15.4385 31.6103C15.8021 31.9699 16.0497 32.4281 16.15 32.9269C16.2504 33.4257 16.1989 33.9427 16.0021 34.4126C15.8053 34.8825 15.4721 35.2841 15.0445 35.5666C14.6169 35.8492 14.1142 36 13.6 36C12.9104 36 12.2491 35.7291 11.7615 35.2468C11.2739 34.7646 11 34.1106 11 33.4286ZM13.6 17.1429C14.1142 17.1429 14.6169 16.992 15.0445 16.7095C15.4721 16.4269 15.8053 16.0253 16.0021 15.5555C16.1989 15.0856 16.2504 14.5686 16.15 14.0698C16.0497 13.571 15.8021 13.1128 15.4385 12.7532C15.0749 12.3935 14.6116 12.1486 14.1072 12.0494C13.6029 11.9502 13.0801 12.0011 12.605 12.1957C12.1299 12.3904 11.7239 12.72 11.4382 13.1428C11.1525 13.5657 11 14.0628 11 14.5714C11 15.2534 11.2739 15.9075 11.7615 16.3897C12.2491 16.8719 12.9104 17.1429 13.6 17.1429ZM13.6 26.5714C14.1142 26.5714 14.6169 26.4206 15.0445 26.1381C15.4721 25.8555 15.8053 25.4539 16.0021 24.984C16.1989 24.5142 16.2504 23.9971 16.15 23.4983C16.0497 22.9995 15.8021 22.5413 15.4385 22.1817C15.0749 21.8221 14.6116 21.5772 14.1072 21.478C13.6029 21.3788 13.0801 21.4297 12.605 21.6243C12.1299 21.8189 11.7239 22.1485 11.4382 22.5714C11.1525 22.9943 11 23.4914 11 24C11 24.682 11.2739 25.336 11.7615 25.8183C12.2491 26.3005 12.9104 26.5714 13.6 26.5714ZM22.2667 16.2857H35.2667C35.7264 16.2857 36.1673 16.1051 36.4923 15.7836C36.8174 15.4621 37 15.0261 37 14.5714C37 14.1168 36.8174 13.6807 36.4923 13.3592C36.1673 13.0378 35.7264 12.8571 35.2667 12.8571H22.2667C21.807 12.8571 21.3661 13.0378 21.041 13.3592C20.716 13.6807 20.5333 14.1168 20.5333 14.5714C20.5333 15.0261 20.716 15.4621 21.041 15.7836C21.3661 16.1051 21.807 16.2857 22.2667 16.2857ZM22.2667 25.7143H35.2667C35.7264 25.7143 36.1673 25.5337 36.4923 25.2122C36.8174 24.8907 37 24.4547 37 24C37 23.5453 36.8174 23.1093 36.4923 22.7878C36.1673 22.4663 35.7264 22.2857 35.2667 22.2857H22.2667C21.807 22.2857 21.3661 22.4663 21.041 22.7878C20.716 23.1093 20.5333 23.5453 20.5333 24C20.5333 24.4547 20.716 24.8907 21.041 25.2122C21.3661 25.5337 21.807 25.7143 22.2667 25.7143ZM22.2667 35.1429H35.2667C35.7264 35.1429 36.1673 34.9622 36.4923 34.6408C36.8174 34.3193 37 33.8832 37 33.4286C37 32.9739 36.8174 32.5379 36.4923 32.2164C36.1673 31.8949 35.7264 31.7143 35.2667 31.7143H22.2667C21.807 31.7143 21.3661 31.8949 21.041 32.2164C20.716 32.5379 20.5333 32.9739 20.5333 33.4286C20.5333 33.8832 20.716 34.3193 21.041 34.6408C21.3661 34.9622 21.807 35.1429 22.2667 35.1429Z" fill="black"/>
</svg>
