<svg viewBox="0 0 20 20" fill="none" xmlns="http://www.w3.org/2000/svg">
<path d="M16.7568 0H3.24324C1.45946 0 0 1.46836 0 3.26303V11.9644C0 13.7591 1.45946 15.2275 3.24324 15.2275H8.10811L12.7838 19.8773C12.973 20.0676 13.2162 20.0404 13.2162 19.7685L13.1081 15.2275H16.7568C18.5405 15.2275 20 13.7591 20 11.9644V3.26303C20 1.46836 18.5405 0 16.7568 0ZM14.0541 9.65312H5.94595C5.64865 9.65312 5.40541 9.4084 5.40541 9.10929C5.40541 8.81017 5.64865 8.56545 5.94595 8.56545H14.0541C14.3514 8.56545 14.5946 8.81017 14.5946 9.10929C14.5946 9.4084 14.3514 9.65312 14.0541 9.65312ZM14.0541 6.66201H5.94595C5.64865 6.66201 5.40541 6.41729 5.40541 6.11818C5.40541 5.81907 5.64865 5.57434 5.94595 5.57434H14.0541C14.3514 5.57434 14.5946 5.81907 14.5946 6.11818C14.5946 6.41729 14.3514 6.66201 14.0541 6.66201Z" fill="#736CFF"/>
</svg>
