<svg viewBox="0 0 45 45" fill="none" xmlns="http://www.w3.org/2000/svg">
<circle cx="22.5" cy="22.5" r="22.5" fill="white" fill-opacity="0.12"/>
<circle cx="22.5" cy="22.5" r="22" stroke="white" stroke-opacity="0.2"/>
<mask id="mask0" mask-type="alpha" maskUnits="userSpaceOnUse" x="10" y="10" width="24" height="24">
<rect x="10" y="10" width="24" height="24" fill="#C4C4C4"/>
</mask>
<g mask="url(#mask0)">
</g>
<path d="M21.992 13.667C17.392 13.667 13.667 17.4003 13.667 22.0003C13.667 26.6003 17.392 30.3337 21.992 30.3337C26.6003 30.3337 30.3337 26.6003 30.3337 22.0003C30.3337 17.4003 26.6003 13.667 21.992 13.667ZM22.0003 28.667C18.317 28.667 15.3337 25.6837 15.3337 22.0003C15.3337 18.317 18.317 15.3337 22.0003 15.3337C25.6837 15.3337 28.667 18.317 28.667 22.0003C28.667 25.6837 25.6837 28.667 22.0003 28.667ZM22.417 17.8337H21.167V22.8337L25.542 25.4587L26.167 24.4337L22.417 22.2087V17.8337Z" fill="#BBF55A"/>
</svg>
