<svg width="18" height="18" viewBox="0 0 18 18" fill="none" xmlns="http://www.w3.org/2000/svg">
<path d="M8.99102 0.666504C4.39102 0.666504 0.666016 4.39984 0.666016 8.99984C0.666016 13.5998 4.39102 17.3332 8.99102 17.3332C13.5993 17.3332 17.3327 13.5998 17.3327 8.99984C17.3327 4.39984 13.5993 0.666504 8.99102 0.666504ZM8.99935 15.6665C5.31602 15.6665 2.33268 12.6832 2.33268 8.99984C2.33268 5.3165 5.31602 2.33317 8.99935 2.33317C12.6827 2.33317 15.666 5.3165 15.666 8.99984C15.666 12.6832 12.6827 15.6665 8.99935 15.6665ZM9.41602 4.83317H8.16602V9.83317L12.541 12.4582L13.166 11.4332L9.41602 9.20817V4.83317Z" fill="#36B0DE"/>
</svg>
