<svg viewBox="0 0 48 48" fill="none" xmlns="http://www.w3.org/2000/svg">
<path d="M24 43.2C13.416 43.2 4.8 34.584 4.8 24C4.8 13.416 13.416 4.8 24 4.8C34.584 4.8 43.2 13.416 43.2 24C43.2 34.584 34.584 43.2 24 43.2ZM24 0C20.8483 0 17.7274 0.620779 14.8156 1.82689C11.9038 3.033 9.25804 4.80083 7.02944 7.02944C2.52856 11.5303 0 17.6348 0 24C0 30.3652 2.52856 36.4697 7.02944 40.9706C9.25804 43.1992 11.9038 44.967 14.8156 46.1731C17.7274 47.3792 20.8483 48 24 48C30.3652 48 36.4697 45.4714 40.9706 40.9706C45.4714 36.4697 48 30.3652 48 24C48 20.8483 47.3792 17.7274 46.1731 14.8156C44.967 11.9038 43.1992 9.25804 40.9706 7.02944C38.742 4.80083 36.0962 3.033 33.1844 1.82689C30.2726 0.620779 27.1517 0 24 0ZM19.2 34.8L33.6 24L19.2 13.2V34.8Z" fill="white" fill-opacity="0.87"/>
</svg>
