<svg width="28" height="20" viewBox="0 0 28 20" fill="none" xmlns="http://www.w3.org/2000/svg">
<path d="M16.8455 6.05208H0.845459V8.71875H16.8455V6.05208ZM16.8455 0.71875H0.845459V3.38542H16.8455V0.71875ZM22.1788 11.3854V6.05208H19.5121V11.3854H14.1788V14.0521H19.5121V19.3854H22.1788V14.0521H27.5121V11.3854H22.1788ZM0.845459 14.0521H11.5121V11.3854H0.845459V14.0521Z" fill="#767676"/>
</svg>
