<svg width="23" height="27" viewBox="0 0 23 27" fill="none" xmlns="http://www.w3.org/2000/svg">
<path fill-rule="evenodd" clip-rule="evenodd" d="M11.1787 0.71875C7.31272 0.71875 4.17871 3.85276 4.17871 7.71875C4.17871 11.5847 7.31272 14.7188 11.1787 14.7188C15.0447 14.7188 18.1787 11.5847 18.1787 7.71875C18.1787 3.85276 15.0447 0.71875 11.1787 0.71875ZM6.17871 7.71875C6.17871 4.95733 8.41729 2.71875 11.1787 2.71875C13.9401 2.71875 16.1787 4.95733 16.1787 7.71875C16.1787 10.4802 13.9401 12.7188 11.1787 12.7188C8.41729 12.7188 6.17871 10.4802 6.17871 7.71875Z" fill="#A168DF"/>
<path fill-rule="evenodd" clip-rule="evenodd" d="M7.17871 17.7188C3.31272 17.7188 0.178711 20.8528 0.178711 24.7188V26.7188H22.1787V24.7188C22.1787 20.8528 19.0447 17.7188 15.1787 17.7188H7.17871ZM2.17871 24.7188C2.17871 21.9573 4.41729 19.7188 7.17871 19.7188H15.1787C17.9401 19.7188 20.1787 21.9573 20.1787 24.7188H2.17871Z" fill="#A168DF"/>
</svg>
