<svg width="33" height="32" viewBox="0 0 33 32" fill="none" xmlns="http://www.w3.org/2000/svg">
<path d="M16.5 7.86536C18.0467 7.86536 19.3 9.1187 19.3 10.6654C19.3 12.212 18.0467 13.4654 16.5 13.4654C14.9534 13.4654 13.7 12.212 13.7 10.6654C13.7 9.1187 14.9534 7.86536 16.5 7.86536ZM16.5 19.8654C20.46 19.8654 24.6334 21.812 24.6334 22.6654V24.132H8.36671V22.6654C8.36671 21.812 12.54 19.8654 16.5 19.8654ZM16.5 5.33203C13.5534 5.33203 11.1667 7.7187 11.1667 10.6654C11.1667 13.612 13.5534 15.9987 16.5 15.9987C19.4467 15.9987 21.8334 13.612 21.8334 10.6654C21.8334 7.7187 19.4467 5.33203 16.5 5.33203ZM16.5 17.332C12.94 17.332 5.83337 19.1187 5.83337 22.6654V26.6654H27.1667V22.6654C27.1667 19.1187 20.06 17.332 16.5 17.332Z" fill="var(--tolopea-medium-color)"/>
</svg>
