<svg width="33" height="32" viewBox="0 0 33 32" fill="none" xmlns="http://www.w3.org/2000/svg">
<path d="M22.5 17.3346C20.9 17.3346 18.4067 17.788 16.5 18.668C14.5934 17.7746 12.1 17.3346 10.5 17.3346C7.60671 17.3346 1.83337 18.7746 1.83337 21.668V25.3346H31.1667V21.668C31.1667 18.7746 25.3934 17.3346 22.5 17.3346ZM17.1667 23.3346H3.83337V21.668C3.83337 20.948 7.24671 19.3346 10.5 19.3346C13.7534 19.3346 17.1667 20.948 17.1667 21.668V23.3346ZM29.1667 23.3346H19.1667V21.668C19.1667 21.0546 18.9 20.5213 18.4734 20.0413C19.6467 19.6413 21.0867 19.3346 22.5 19.3346C25.7534 19.3346 29.1667 20.948 29.1667 21.668V23.3346ZM10.5 16.0013C13.0734 16.0013 15.1667 13.908 15.1667 11.3346C15.1667 8.7613 13.0734 6.66797 10.5 6.66797C7.92671 6.66797 5.83337 8.7613 5.83337 11.3346C5.83337 13.908 7.92671 16.0013 10.5 16.0013ZM10.5 8.66797C11.9667 8.66797 13.1667 9.86797 13.1667 11.3346C13.1667 12.8013 11.9667 14.0013 10.5 14.0013C9.03337 14.0013 7.83337 12.8013 7.83337 11.3346C7.83337 9.86797 9.03337 8.66797 10.5 8.66797ZM22.5 16.0013C25.0734 16.0013 27.1667 13.908 27.1667 11.3346C27.1667 8.7613 25.0734 6.66797 22.5 6.66797C19.9267 6.66797 17.8334 8.7613 17.8334 11.3346C17.8334 13.908 19.9267 16.0013 22.5 16.0013ZM22.5 8.66797C23.9667 8.66797 25.1667 9.86797 25.1667 11.3346C25.1667 12.8013 23.9667 14.0013 22.5 14.0013C21.0334 14.0013 19.8334 12.8013 19.8334 11.3346C19.8334 9.86797 21.0334 8.66797 22.5 8.66797Z" fill="var(--tolopea-medium-color)"/>
</svg>
