<svg id="shopping_cart-black-18dp_2_" data-name="shopping_cart-black-18dp (2)" xmlns="http://www.w3.org/2000/svg" width="46.517" height="46.517" viewBox="0 0 46.517 46.517">
  <path id="Path_243" data-name="Path 243" d="M12.629,33.011a3.876,3.876,0,1,0,3.876,3.876A3.871,3.871,0,0,0,12.629,33.011ZM1,2V5.876H4.876l6.978,14.711L9.237,25.336A3.747,3.747,0,0,0,8.753,27.2a3.888,3.888,0,0,0,3.876,3.876H35.888V27.2H13.443a.48.48,0,0,1-.485-.485l.058-.233,1.744-3.159H29.2a3.858,3.858,0,0,0,3.392-2L39.531,8.745a1.894,1.894,0,0,0,.233-.93,1.944,1.944,0,0,0-1.938-1.938H9.16L7.338,2H1ZM32.011,33.011a3.876,3.876,0,1,0,3.876,3.876A3.871,3.871,0,0,0,32.011,33.011Z" transform="translate(0.938 1.876)" fill="#fff"/>
  <path id="Path_244" data-name="Path 244" d="M0,0H46.517V46.517H0Z" fill="none"/>
</svg>
