<svg id="pages-black-18dp" xmlns="http://www.w3.org/2000/svg" width="46.229" height="46.229" viewBox="0 0 46.229 46.229">
  <path id="Path_258" data-name="Path 258" d="M0,0H46.229V46.229H0Z" fill="none"/>
  <path id="Path_259" data-name="Path 259" d="M3,6.912V18.649h9.78l-1.956-7.824,7.824,1.956V3H6.912A3.924,3.924,0,0,0,3,6.912Zm9.78,15.649H3V34.3a3.924,3.924,0,0,0,3.912,3.912H18.649v-9.78l-7.824,1.956Zm17.6,7.824-7.824-1.956v9.78H34.3A3.924,3.924,0,0,0,38.209,34.3V22.561h-9.78ZM34.3,3H22.561v9.78l7.824-1.956-1.956,7.824h9.78V6.912A3.924,3.924,0,0,0,34.3,3Z" transform="translate(2.51 2.51)" fill="#fff"/>
</svg>
