<svg width="25" height="25" viewBox="0 0 25 25" fill="none" xmlns="http://www.w3.org/2000/svg">
<path fill-rule="evenodd" clip-rule="evenodd" d="M12.3418 2.80859C9.58037 2.80859 7.3418 5.04717 7.3418 7.80859C7.3418 10.57 9.58037 12.8086 12.3418 12.8086C15.1032 12.8086 17.3418 10.57 17.3418 7.80859C17.3418 5.04717 15.1032 2.80859 12.3418 2.80859ZM9.3418 7.80859C9.3418 6.15174 10.6849 4.80859 12.3418 4.80859C13.9987 4.80859 15.3418 6.15174 15.3418 7.80859C15.3418 9.46545 13.9987 10.8086 12.3418 10.8086C10.6849 10.8086 9.3418 9.46545 9.3418 7.80859Z" fill="var(--color-white-medium)"/>
<path fill-rule="evenodd" clip-rule="evenodd" d="M9.3418 14.8086C6.58037 14.8086 4.3418 17.0472 4.3418 19.8086V22.8086H20.3418V19.8086C20.3418 17.0472 18.1032 14.8086 15.3418 14.8086H9.3418ZM6.3418 19.8086C6.3418 18.1517 7.68494 16.8086 9.3418 16.8086H15.3418C16.9987 16.8086 18.3418 18.1517 18.3418 19.8086V20.8086H6.3418V19.8086Z" fill="var(--color-white-medium)"/>
</svg>
