<svg width="30" height="30" viewBox="0 0 30 30" fill="none" xmlns="http://www.w3.org/2000/svg">
<rect x="0.5" y="0.5" width="29" height="29" stroke="white" stroke-opacity="0.2"/>
<path d="M21.973 11.0003C21.4597 11.2337 20.9064 11.387 20.333 11.4603C20.9197 11.107 21.373 10.547 21.5864 9.87366C21.033 10.207 20.4197 10.4403 19.773 10.5737C19.2464 10.0003 18.5064 9.66699 17.6664 9.66699C16.0997 9.66699 14.8197 10.947 14.8197 12.527C14.8197 12.7537 14.8464 12.9737 14.893 13.1803C12.5197 13.0603 10.4064 11.9203 8.9997 10.1937C8.75303 10.6137 8.61303 11.107 8.61303 11.627C8.61303 12.6203 9.11303 13.5003 9.88637 14.0003C9.41303 14.0003 8.97303 13.867 8.58637 13.667V13.687C8.58637 15.0737 9.57303 16.2337 10.8797 16.4937C10.4602 16.6085 10.0198 16.6244 9.59303 16.5403C9.7741 17.1086 10.1287 17.6059 10.607 17.9623C11.0854 18.3186 11.6633 18.5161 12.2597 18.527C11.2488 19.3273 9.9957 19.7599 8.70637 19.7537C8.4797 19.7537 8.25303 19.7403 8.02637 19.7137C9.29303 20.527 10.7997 21.0003 12.413 21.0003C17.6664 21.0003 20.553 16.6403 20.553 12.8603C20.553 12.7337 20.553 12.6137 20.5464 12.487C21.1064 12.087 21.5864 11.5803 21.973 11.0003Z" fill="white"/>
</svg>
