<svg viewBox="0 0 72 72" fill="none" xmlns="http://www.w3.org/2000/svg">
<rect width="72" height="72" rx="6" fill="#1877F2"/>
<rect x="1" y="1" width="70" height="70" rx="5" stroke="white" stroke-opacity="0.12" stroke-width="2"/>
<path d="M32.5739 50V36.8616H29V32.1311H32.5739V28.0907C32.5739 24.9157 34.685 22 39.5494 22C41.5189 22 42.9753 22.1835 42.9753 22.1835L42.8606 26.601C42.8606 26.601 41.3753 26.5869 39.7545 26.5869C38.0003 26.5869 37.7193 27.3728 37.7193 28.677V32.1311H43L42.7702 36.8616H37.7193V50H32.5739Z" fill="white"/>
</svg>
