<svg width="73" height="28" viewBox="0 0 73 28" fill="none" xmlns="http://www.w3.org/2000/svg">
<path d="M11.6445 2.46484C11.6133 2.56641 11.5625 2.66016 11.4922 2.74609L11.293 2.99219C11.2305 3.07031 11.1758 3.15625 11.1289 3.25C11.0898 3.33594 11.0781 3.4375 11.0938 3.55469C11.0781 3.55469 11.0586 3.55469 11.0352 3.55469C11.0117 3.54688 10.9922 3.54297 10.9766 3.54297C10.8516 3.54297 10.7539 3.57422 10.6836 3.63672C10.6211 3.69141 10.5352 3.73828 10.4258 3.77734C10.4102 3.73047 10.3906 3.6875 10.3672 3.64844C10.3438 3.60156 10.3086 3.57031 10.2617 3.55469C10.0742 3.59375 9.88672 3.625 9.69922 3.64844C9.51172 3.66406 9.32422 3.6875 9.13672 3.71875C9.05078 3.73438 8.96484 3.75781 8.87891 3.78906C8.79297 3.8125 8.70312 3.83594 8.60938 3.85938C8.5625 3.875 8.51172 3.88281 8.45703 3.88281C8.40234 3.875 8.34766 3.875 8.29297 3.88281C8.10547 3.89062 7.90234 3.90625 7.68359 3.92969C7.46484 3.94531 7.26953 4.00391 7.09766 4.10547C7.01953 4.08984 6.9375 4.07812 6.85156 4.07031C6.76562 4.0625 6.67969 4.05859 6.59375 4.05859C6.40625 4.05859 6.19922 4.07812 5.97266 4.11719C5.75391 4.14844 5.55859 4.21484 5.38672 4.31641C5.34766 4.30078 5.30469 4.28906 5.25781 4.28125C5.21875 4.27344 5.17188 4.26953 5.11719 4.26953C5.10156 4.26953 5.08984 4.27344 5.08203 4.28125C5.07422 4.28125 5.0625 4.28125 5.04688 4.28125C5.03906 4.35156 5.04688 4.42188 5.07031 4.49219C5.10156 4.55469 5.15234 4.60547 5.22266 4.64453C5.19141 4.73047 5.17578 4.82422 5.17578 4.92578C5.17578 5.05859 5.18359 5.19141 5.19922 5.32422C5.22266 5.45703 5.23438 5.58984 5.23438 5.72266C5.23438 5.87109 5.21484 5.98828 5.17578 6.07422C5.25391 6.30859 5.29297 6.55859 5.29297 6.82422C5.29297 6.91797 5.28516 7.01172 5.26953 7.10547C5.26172 7.19141 5.25781 7.28516 5.25781 7.38672C5.25781 7.47266 5.28906 7.54297 5.35156 7.59766C5.41406 7.64453 5.44531 7.71094 5.44531 7.79688C5.44531 7.82812 5.4375 7.85938 5.42188 7.89062C5.53125 7.86719 5.63672 7.83594 5.73828 7.79688C5.83984 7.75 5.94531 7.72656 6.05469 7.72656C6.11719 7.72656 6.17578 7.73828 6.23047 7.76172C6.29297 7.78516 6.34766 7.81641 6.39453 7.85547C6.38672 7.89453 6.37891 7.9375 6.37109 7.98438C6.37109 8.03125 6.37109 8.07812 6.37109 8.125C6.37109 8.21094 6.37109 8.29297 6.37109 8.37109C6.37891 8.44141 6.38672 8.51953 6.39453 8.60547C6.33203 8.71484 6.25781 8.8125 6.17188 8.89844C6.09375 8.98438 6.03906 9.09375 6.00781 9.22656C5.89062 9.22656 5.78516 9.25391 5.69141 9.30859C5.60547 9.35547 5.52344 9.41016 5.44531 9.47266C5.36719 9.52734 5.28906 9.58203 5.21094 9.63672C5.13281 9.68359 5.04688 9.70703 4.95312 9.70703C4.83594 9.70703 4.75391 9.69141 4.70703 9.66016C4.66016 9.62109 4.625 9.58203 4.60156 9.54297C4.57812 9.50391 4.55469 9.46875 4.53125 9.4375C4.51562 9.40625 4.47656 9.39453 4.41406 9.40234C4.39844 9.30078 4.36719 9.20703 4.32031 9.12109C4.27344 9.02734 4.22266 8.9375 4.16797 8.85156C4.12109 8.76562 4.07031 8.67969 4.01562 8.59375C3.96875 8.5 3.93359 8.40625 3.91016 8.3125C3.86328 8.10938 3.84375 7.89844 3.85156 7.67969C3.85938 7.46094 3.82422 7.25 3.74609 7.04688C3.76172 6.9375 3.77344 6.82812 3.78125 6.71875C3.78906 6.60156 3.79297 6.48828 3.79297 6.37891C3.79297 6.16016 3.78516 5.94531 3.76953 5.73438C3.76172 5.51562 3.75391 5.29297 3.74609 5.06641C3.69141 4.99609 3.65625 4.91797 3.64062 4.83203C3.63281 4.73828 3.625 4.64844 3.61719 4.5625C3.59375 4.53906 3.56641 4.51562 3.53516 4.49219C3.51172 4.46875 3.49609 4.4375 3.48828 4.39844C3.42578 4.38281 3.37891 4.375 3.34766 4.375C3.23828 4.375 3.14453 4.40234 3.06641 4.45703C2.99609 4.50391 2.92969 4.52734 2.86719 4.52734C2.80469 4.52734 2.74609 4.51953 2.69141 4.50391C2.63672 4.48828 2.58203 4.48047 2.52734 4.48047C2.48047 4.48047 2.45312 4.49219 2.44531 4.51562C2.44531 4.53125 2.42969 4.54688 2.39844 4.5625C2.375 4.57812 2.32031 4.59375 2.23438 4.60938C2.14844 4.625 2.05078 4.64062 1.94141 4.65625C1.83984 4.66406 1.73828 4.67188 1.63672 4.67969C1.54297 4.6875 1.48047 4.69141 1.44922 4.69141C1.32422 4.69141 1.23047 4.66797 1.16797 4.62109C1.09766 4.56641 1.01562 4.50781 0.921875 4.44531C0.9375 4.39844 0.945312 4.36719 0.945312 4.35156C0.945312 4.27344 0.921875 4.21094 0.875 4.16406C0.828125 4.10938 0.804688 4.0625 0.804688 4.02344C0.804688 3.9375 0.839844 3.87109 0.910156 3.82422C0.972656 3.77734 1.00781 3.70312 1.01562 3.60156C1.19531 3.52344 1.37891 3.46484 1.56641 3.42578C1.75391 3.38672 1.94531 3.35547 2.14062 3.33203C2.33594 3.30859 2.52734 3.28125 2.71484 3.25C2.91016 3.21875 3.10156 3.16797 3.28906 3.09766C3.34375 3.10547 3.39453 3.11328 3.44141 3.12109C3.49609 3.12109 3.55078 3.12109 3.60547 3.12109C3.83984 3.12109 4.07031 3.09766 4.29688 3.05078C4.53125 2.99609 4.76953 2.96875 5.01172 2.96875C5.07422 2.96875 5.13672 2.97266 5.19922 2.98047C5.26172 2.98828 5.32422 3 5.38672 3.01562C5.69922 2.96875 6.00781 2.91797 6.3125 2.86328C6.625 2.80859 6.94531 2.76172 7.27344 2.72266C7.42969 2.70703 7.58203 2.69531 7.73047 2.6875C7.88672 2.67188 8.04297 2.65234 8.19922 2.62891C8.25391 2.62109 8.29297 2.60938 8.31641 2.59375C8.34766 2.57031 8.36328 2.52734 8.36328 2.46484C8.43359 2.49609 8.51172 2.51172 8.59766 2.51172C8.73047 2.51172 8.85938 2.48828 8.98438 2.44141C9.10938 2.39453 9.23828 2.37109 9.37109 2.37109C9.40234 2.37109 9.42969 2.375 9.45312 2.38281C9.47656 2.38281 9.5 2.38281 9.52344 2.38281C9.57812 2.38281 9.60547 2.35938 9.60547 2.3125C9.61328 2.25781 9.65234 2.22266 9.72266 2.20703C9.77734 2.19141 9.85547 2.17969 9.95703 2.17188C10.0586 2.16406 10.1641 2.15625 10.2734 2.14844C10.3906 2.13281 10.4961 2.11719 10.5898 2.10156C10.6914 2.07812 10.7656 2.04688 10.8125 2.00781L10.8945 1.87891C11.0352 1.88672 11.1367 1.94922 11.1992 2.06641C11.2695 2.17578 11.3086 2.29688 11.3164 2.42969C11.3477 2.46094 11.3906 2.47656 11.4453 2.47656C11.5078 2.46875 11.5625 2.46484 11.6094 2.46484H11.6445ZM17.3164 4.52734C17.2852 4.60547 17.2539 4.67969 17.2227 4.75C17.1914 4.82031 17.168 4.89844 17.1523 4.98438C17.0977 5.02344 17.0352 5.05469 16.9648 5.07812C16.9023 5.09375 16.8359 5.11328 16.7656 5.13672C16.6953 5.15234 16.6289 5.17578 16.5664 5.20703C16.5117 5.23047 16.4688 5.26953 16.4375 5.32422C16.4141 5.44141 16.4023 5.55078 16.4023 5.65234C16.4023 5.78516 16.4258 5.89844 16.4727 5.99219C16.4492 6.0625 16.4336 6.13672 16.4258 6.21484C16.418 6.29297 16.4141 6.36719 16.4141 6.4375C16.4141 6.69531 16.4453 6.95312 16.5078 7.21094C16.5703 7.46094 16.6055 7.71484 16.6133 7.97266C16.6133 8.01172 16.6094 8.05469 16.6016 8.10156C16.5938 8.14844 16.5898 8.19141 16.5898 8.23047C16.5898 8.39453 16.6523 8.50391 16.7773 8.55859C16.7539 8.59766 16.7422 8.63281 16.7422 8.66406C16.7422 8.72656 16.75 8.78125 16.7656 8.82812C16.7812 8.875 16.7852 8.92578 16.7773 8.98047C16.8164 9.05859 16.8555 9.12891 16.8945 9.19141C16.9336 9.24609 16.9609 9.31641 16.9766 9.40234C16.9219 9.51172 16.8555 9.61328 16.7773 9.70703C16.6992 9.79297 16.6445 9.90234 16.6133 10.0352C16.582 10.0273 16.5469 10.0234 16.5078 10.0234C16.4531 10.0234 16.4102 10.0352 16.3789 10.0586C16.3477 10.082 16.3203 10.1094 16.2969 10.1406C16.2812 10.1797 16.2617 10.2148 16.2383 10.2461C16.2148 10.2852 16.1836 10.3125 16.1445 10.3281H16.1094C16.0703 10.3359 16.0352 10.332 16.0039 10.3164C15.9805 10.3086 15.957 10.3047 15.9336 10.3047C15.918 10.3047 15.8867 10.3125 15.8398 10.3281C15.7773 10.25 15.7344 10.1562 15.7109 10.0469C15.6875 9.94531 15.6758 9.84375 15.6758 9.74219C15.6758 9.63281 15.6914 9.53516 15.7227 9.44922C15.6367 9.37891 15.582 9.27344 15.5586 9.13281C15.543 8.99219 15.5234 8.875 15.5 8.78125C15.4375 8.49219 15.3633 8.21094 15.2773 7.9375C15.1992 7.66406 15.1523 7.38281 15.1367 7.09375C15.1289 6.98438 15.125 6.87891 15.125 6.77734V6.16797C15.125 6.06641 15.1289 5.96875 15.1367 5.875C15.1367 5.80469 15.1406 5.73828 15.1484 5.67578C15.1641 5.60547 15.1719 5.53516 15.1719 5.46484C15.1719 5.37109 15.1406 5.28125 15.0781 5.19531C14.5234 5.21875 13.9961 5.32031 13.4961 5.5C13.0039 5.67188 12.5117 5.87891 12.0195 6.12109C11.9883 6.30078 11.9688 6.47656 11.9609 6.64844C11.9531 6.82031 11.9492 6.99609 11.9492 7.17578V7.69141C11.9492 7.88672 11.957 8.05078 11.9727 8.18359C12.0117 8.41016 12.125 8.58594 12.3125 8.71094C12.5078 8.82812 12.7031 8.91797 12.8984 8.98047C12.8906 9.09766 12.8672 9.19922 12.8281 9.28516C12.7891 9.36328 12.7383 9.4375 12.6758 9.50781C12.6211 9.57031 12.5586 9.63281 12.4883 9.69531C12.418 9.75781 12.3477 9.82812 12.2773 9.90625C12.2148 9.86719 12.1523 9.83984 12.0898 9.82422C12.0273 9.80859 11.9609 9.80078 11.8906 9.80078C11.8203 9.79297 11.75 9.78516 11.6797 9.77734C11.6094 9.76953 11.5391 9.75391 11.4688 9.73047L11.2109 9.37891C11.125 9.26172 11.0312 9.14453 10.9297 9.02734V8.92188C10.9297 8.71094 10.8906 8.50781 10.8125 8.3125C10.7344 8.11719 10.6758 7.91797 10.6367 7.71484C10.6602 7.64453 10.6758 7.57422 10.6836 7.50391C10.6914 7.43359 10.6953 7.35938 10.6953 7.28125C10.6953 7.125 10.6875 6.97266 10.6719 6.82422C10.6641 6.67578 10.668 6.52734 10.6836 6.37891H10.625C10.5547 6.37891 10.4805 6.39844 10.4023 6.4375C10.3242 6.46875 10.2461 6.50781 10.168 6.55469C10.0977 6.59375 10.0273 6.63281 9.95703 6.67188C9.89453 6.70312 9.83984 6.71875 9.79297 6.71875C9.76953 6.71875 9.74609 6.71484 9.72266 6.70703C9.69922 6.69922 9.67188 6.69531 9.64062 6.69531C9.60156 6.69531 9.55469 6.71094 9.5 6.74219C9.44531 6.77344 9.38672 6.80859 9.32422 6.84766C9.25391 6.87891 9.18359 6.91016 9.11328 6.94141C9.04297 6.97266 8.97266 6.98828 8.90234 6.98828C8.79297 6.98828 8.68359 6.94141 8.57422 6.84766C8.55859 6.78516 8.55469 6.72656 8.5625 6.67188C8.5625 6.61719 8.5625 6.55859 8.5625 6.49609C8.5625 6.43359 8.55078 6.36719 8.52734 6.29688C8.58203 6.19531 8.65625 6.11719 8.75 6.0625C8.83594 6 8.92969 5.94531 9.03125 5.89844C9.125 5.84375 9.22266 5.79297 9.32422 5.74609C9.42578 5.69141 9.51172 5.62109 9.58203 5.53516H9.65234C9.76172 5.53516 9.85938 5.51172 9.94531 5.46484C10.0391 5.41797 10.1445 5.39844 10.2617 5.40625C10.3008 5.39062 10.3281 5.33203 10.3438 5.23047L10.3906 5.24219C10.5625 5.24219 10.7148 5.18359 10.8477 5.06641C10.9336 4.58203 11.0039 4.09375 11.0586 3.60156C11.1133 3.10938 11.1406 2.61719 11.1406 2.125C11.1406 2.07812 11.125 2.03125 11.0938 1.98438C11.0781 1.92188 11.0703 1.86328 11.0703 1.80859V1.63281C11.0703 1.54688 11.0742 1.45703 11.082 1.36328C11.0898 1.26953 11.1094 1.17578 11.1406 1.08203C11.2188 1.03516 11.3008 1.01172 11.3867 1.01172C11.4883 1.01172 11.5859 1.02734 11.6797 1.05859C11.7812 1.08203 11.8789 1.10156 11.9727 1.11719C12.043 1.1875 12.0938 1.26562 12.125 1.35156C12.1641 1.4375 12.1875 1.52734 12.1953 1.62109C12.2031 1.70703 12.2031 1.79688 12.1953 1.89062C12.1953 1.97656 12.1953 2.0625 12.1953 2.14844C12.1953 2.32031 12.2148 2.48828 12.2539 2.65234C12.293 2.81641 12.3125 2.97656 12.3125 3.13281C12.3125 3.17188 12.2969 3.20312 12.2656 3.22656C12.2422 3.24219 12.2305 3.29297 12.2305 3.37891C12.2305 3.46484 12.2383 3.55469 12.2539 3.64844C12.2695 3.74219 12.2773 3.83594 12.2773 3.92969C12.2773 4.03906 12.2617 4.15234 12.2305 4.26953C12.1992 4.38672 12.1719 4.5 12.1484 4.60938C12.6172 4.57031 13.0977 4.51172 13.5898 4.43359C14.082 4.35547 14.5508 4.23047 14.9961 4.05859C15.0039 4.04297 15.0078 4.01953 15.0078 3.98828C15.0078 3.94141 15.0039 3.89453 14.9961 3.84766C14.9883 3.80078 14.9844 3.75 14.9844 3.69531C14.9844 3.60156 15.0156 3.52734 15.0781 3.47266C15.0391 3.25391 15.0117 3.03516 14.9961 2.81641C14.9805 2.59766 14.9727 2.37891 14.9727 2.16016V1.49219C14.9727 1.27344 14.9688 1.05469 14.9609 0.835938C15.0234 0.796875 15.0898 0.777344 15.1602 0.777344C15.2461 0.777344 15.3242 0.800781 15.3945 0.847656C15.4727 0.886719 15.5625 0.90625 15.6641 0.90625C15.7344 0.90625 15.793 0.894531 15.8398 0.871094C15.9258 0.949219 15.9844 1.05078 16.0156 1.17578C16.0469 1.30078 16.0742 1.42969 16.0977 1.5625C16.1211 1.69531 16.1445 1.82812 16.168 1.96094C16.1992 2.08594 16.2578 2.1875 16.3438 2.26562L16.3555 2.30078C16.3555 2.33203 16.3398 2.35547 16.3086 2.37109C16.2773 2.38672 16.2617 2.41797 16.2617 2.46484V2.51172C16.293 2.63672 16.3164 2.76562 16.332 2.89844C16.3477 3.03125 16.3594 3.16797 16.3672 3.30859C16.3828 3.44141 16.4023 3.57422 16.4258 3.70703C16.4492 3.83203 16.4922 3.94922 16.5547 4.05859C16.5938 4.05078 16.6445 4.04688 16.707 4.04688C16.8633 4.04688 16.9844 4.10156 17.0703 4.21094C17.1641 4.3125 17.2461 4.41797 17.3164 4.52734ZM20.5977 8.39453C20.5586 8.45703 20.5117 8.51562 20.457 8.57031C20.4023 8.61719 20.3516 8.66797 20.3047 8.72266C20.25 8.74609 20.1875 8.75781 20.1172 8.75781C20.0547 8.75781 19.9922 8.75781 19.9297 8.75781C19.875 8.75 19.8203 8.75 19.7656 8.75781C19.7188 8.75781 19.6797 8.77344 19.6484 8.80469C19.5859 8.78906 19.5391 8.76172 19.5078 8.72266C19.4766 8.67578 19.4219 8.64844 19.3438 8.64062C19.3125 8.63281 19.2812 8.63281 19.25 8.64062C19.1328 8.50781 19.0234 8.36719 18.9219 8.21875C18.8281 8.07031 18.7383 7.92969 18.6523 7.79688C18.6445 7.50781 18.6211 7.21484 18.582 6.91797C18.5742 6.84766 18.5625 6.77734 18.5469 6.70703C18.5312 6.63672 18.5195 6.57031 18.5117 6.50781C18.5117 6.42969 18.5156 6.35547 18.5234 6.28516C18.5391 6.20703 18.5508 6.13672 18.5586 6.07422C18.5898 5.84766 18.625 5.625 18.6641 5.40625C18.7031 5.1875 18.7383 4.96484 18.7695 4.73828C18.8008 4.53516 18.8164 4.32422 18.8164 4.10547C18.8164 3.87891 18.7812 3.66797 18.7109 3.47266L18.6992 3.41406C18.7148 3.35156 18.7305 3.30078 18.7461 3.26172C18.7695 3.21484 18.7852 3.16406 18.793 3.10938C18.8086 3.02344 18.7891 2.96094 18.7344 2.92188C18.7578 2.85938 18.7969 2.82031 18.8516 2.80469C18.9062 2.78125 18.9375 2.73438 18.9453 2.66406C18.9531 2.63281 18.9531 2.60156 18.9453 2.57031C19.0078 2.54688 19.0703 2.52734 19.1328 2.51172C19.2031 2.48828 19.2695 2.48438 19.332 2.5C19.4336 2.51562 19.5234 2.55078 19.6016 2.60547C19.6797 2.65234 19.7539 2.70703 19.8242 2.76953C19.9492 3.14453 20 3.54297 19.9766 3.96484C19.9531 4.37891 19.9141 4.79688 19.8594 5.21875C19.8047 5.64062 19.7695 6.05469 19.7539 6.46094C19.7383 6.85938 19.8008 7.23047 19.9414 7.57422L19.9648 7.58594C20.0039 7.59375 20.0352 7.58203 20.0586 7.55078C20.082 7.51172 20.1133 7.49609 20.1523 7.50391C20.1836 7.51953 20.2031 7.52734 20.2109 7.52734C20.2422 7.68359 20.293 7.83203 20.3633 7.97266C20.4336 8.11328 20.5117 8.25391 20.5977 8.39453ZM27.9102 8.52344C27.9102 8.65625 27.875 8.77344 27.8047 8.875C27.7422 8.96875 27.7188 9.08594 27.7344 9.22656C27.625 9.28906 27.5352 9.37109 27.4648 9.47266C27.3945 9.57422 27.3281 9.67969 27.2656 9.78906C26.75 10.125 26.1953 10.3945 25.6016 10.5977C25.0156 10.8086 24.4102 10.9141 23.7852 10.9141C23.7461 10.9141 23.7109 10.8945 23.6797 10.8555C23.6484 10.8242 23.6172 10.7891 23.5859 10.75C23.5547 10.7109 23.5195 10.6719 23.4805 10.6328C23.4492 10.6016 23.4102 10.5859 23.3633 10.5859C23.3086 10.5859 23.2656 10.5977 23.2344 10.6211C23.2344 10.6055 23.2344 10.5898 23.2344 10.5742C23.2422 10.5664 23.2461 10.5547 23.2461 10.5391C23.2461 10.4453 23.2344 10.3477 23.2109 10.2461C23.1875 10.1523 23.1758 10.0586 23.1758 9.96484C23.1758 9.85547 23.1953 9.76562 23.2344 9.69531H23.375C23.4531 9.69531 23.5273 9.69141 23.5977 9.68359C23.6758 9.66797 23.7578 9.66016 23.8438 9.66016C23.9297 9.66016 24.0078 9.68359 24.0781 9.73047C24.5078 9.71484 24.9141 9.63672 25.2969 9.49609C25.6875 9.34766 26.082 9.20312 26.4805 9.0625C26.543 8.97656 26.5781 8.88281 26.5859 8.78125C26.6016 8.67188 26.6328 8.57031 26.6797 8.47656C26.4766 8.30469 26.2695 8.17188 26.0586 8.07812C25.8555 7.97656 25.6172 7.94141 25.3438 7.97266C25.1797 7.87109 25.0039 7.8125 24.8164 7.79688C24.6367 7.78125 24.4531 7.75781 24.2656 7.72656C24.2188 7.71875 24.168 7.71094 24.1133 7.70312C24.0664 7.6875 24.0156 7.67969 23.9609 7.67969C23.9219 7.67969 23.8828 7.69141 23.8438 7.71484C23.8125 7.73047 23.8047 7.75781 23.8203 7.79688C23.7812 7.73438 23.7266 7.69922 23.6562 7.69141C23.5938 7.67578 23.5391 7.64453 23.4922 7.59766C23.2422 7.58203 23.0234 7.53906 22.8359 7.46875C22.6484 7.39062 22.4414 7.30469 22.2148 7.21094C22.1523 7.1875 22.0898 7.17188 22.0273 7.16406C21.9727 7.14844 21.918 7.125 21.8633 7.09375C21.7227 7.02344 21.6094 6.92969 21.5234 6.8125C21.4375 6.69531 21.3711 6.56641 21.3242 6.42578C21.2695 6.27734 21.2305 6.125 21.207 5.96875C21.1836 5.8125 21.1602 5.66797 21.1367 5.53516C21.207 5.41016 21.2734 5.28125 21.3359 5.14844C21.3906 5.01562 21.4375 4.875 21.4766 4.72656C21.5234 4.70312 21.5703 4.68359 21.6172 4.66797C21.6641 4.65234 21.7148 4.63281 21.7695 4.60938C21.7617 4.59375 21.7578 4.57422 21.7578 4.55078C21.7578 4.51172 21.7695 4.47266 21.793 4.43359C21.8242 4.39453 21.832 4.35547 21.8164 4.31641C21.9883 4.16016 22.1523 4 22.3086 3.83594C22.4727 3.66406 22.6133 3.47656 22.7305 3.27344C22.8477 3.23438 22.9414 3.17578 23.0117 3.09766C23.082 3.01953 23.1523 2.94141 23.2227 2.86328C23.293 2.77734 23.3711 2.70312 23.457 2.64062C23.543 2.57031 23.6523 2.52734 23.7852 2.51172C23.8164 2.45703 23.8594 2.41406 23.9141 2.38281C23.9688 2.34375 24.0234 2.30859 24.0781 2.27734C24.1328 2.24609 24.1836 2.21094 24.2305 2.17188C24.2773 2.13281 24.3125 2.07812 24.3359 2.00781C24.4609 2.00781 24.5742 1.98438 24.6758 1.9375C24.7852 1.89062 24.8906 1.83984 24.9922 1.78516C25.0938 1.73047 25.1953 1.67969 25.2969 1.63281C25.4062 1.58594 25.5234 1.5625 25.6484 1.5625C25.6797 1.5625 25.7109 1.56641 25.7422 1.57422C25.7734 1.57422 25.8086 1.57812 25.8477 1.58594C25.9023 1.64062 25.9375 1.70703 25.9531 1.78516C25.9766 1.85547 25.9922 1.93359 26 2.01953C26.0078 2.10547 26.0117 2.19141 26.0117 2.27734C26.0195 2.36328 26.0352 2.44141 26.0586 2.51172C25.9883 2.64453 25.9102 2.77734 25.8242 2.91016C25.7461 3.04297 25.6406 3.14453 25.5078 3.21484H25.4844C25.4297 3.22266 25.3789 3.21094 25.332 3.17969C25.2852 3.14844 25.2305 3.13281 25.168 3.13281C25.1289 3.13281 25.0977 3.14453 25.0742 3.16797L25.0156 3.22656C25 3.24219 24.9766 3.25781 24.9453 3.27344C24.9219 3.28906 24.8867 3.28906 24.8398 3.27344C24.7305 3.3125 24.6875 3.37891 24.7109 3.47266C24.5625 3.48828 24.4375 3.53516 24.3359 3.61328C24.2344 3.68359 24.1406 3.76562 24.0547 3.85938C23.9688 3.94531 23.8828 4.02734 23.7969 4.10547C23.7109 4.17578 23.6094 4.21484 23.4922 4.22266C23.3594 4.45703 23.1953 4.66406 23 4.84375C22.8125 5.02344 22.6562 5.22656 22.5312 5.45312C22.5547 5.51562 22.5703 5.58203 22.5781 5.65234C22.5859 5.72266 22.5977 5.79688 22.6133 5.875C22.6836 5.96875 22.7656 6.05078 22.8594 6.12109C22.9609 6.19141 23.0586 6.26172 23.1523 6.33203H23.1875C23.3438 6.33203 23.4883 6.36328 23.6211 6.42578C23.7539 6.48047 23.8945 6.50781 24.043 6.50781C24.1211 6.50781 24.1875 6.49219 24.2422 6.46094C24.4453 6.50781 24.6445 6.54688 24.8398 6.57812C25.043 6.60938 25.2461 6.63281 25.4492 6.64844C25.5508 6.66406 25.6523 6.67188 25.7539 6.67188C25.8633 6.67188 25.9648 6.68359 26.0586 6.70703C26.1445 6.73047 26.2305 6.76172 26.3164 6.80078C26.4023 6.83203 26.4883 6.86719 26.5742 6.90625C26.7539 6.98438 26.9219 7.07031 27.0781 7.16406C27.2422 7.25781 27.3867 7.37109 27.5117 7.50391C27.6367 7.62891 27.7344 7.77734 27.8047 7.94922C27.875 8.11328 27.9102 8.30469 27.9102 8.52344ZM42.3125 7.89062C42.3125 7.96875 42.2891 8.03516 42.2422 8.08984C42.2031 8.13672 42.1523 8.17969 42.0898 8.21875C42.0352 8.25781 41.9766 8.29297 41.9141 8.32422C41.8594 8.35547 41.8086 8.39453 41.7617 8.44141C41.7305 8.47266 41.707 8.51172 41.6914 8.55859C41.6836 8.59766 41.6641 8.625 41.6328 8.64062C41.5859 8.67969 41.5352 8.70312 41.4805 8.71094C41.4258 8.71875 41.3672 8.73047 41.3047 8.74609C41.25 8.75391 41.1953 8.76953 41.1406 8.79297C41.0859 8.80859 41.0391 8.84375 41 8.89844C40.6328 8.9375 40.2695 8.98828 39.9102 9.05078C39.5586 9.11328 39.1953 9.14453 38.8203 9.14453C38.75 9.14453 38.6719 9.15234 38.5859 9.16797C38.5078 9.17578 38.4336 9.18359 38.3633 9.19141C38.1992 9.20703 38.0352 9.21875 37.8711 9.22656C37.7148 9.23438 37.5547 9.23828 37.3906 9.23828C37.1641 9.23828 36.9375 9.23047 36.7109 9.21484C36.4844 9.19141 36.2617 9.15625 36.043 9.10938C35.9883 9.07031 35.9258 9.03906 35.8555 9.01562C35.7852 8.99219 35.7109 8.96875 35.6328 8.94531C35.5625 8.92188 35.4961 8.89453 35.4336 8.86328C35.3711 8.83203 35.3242 8.78516 35.293 8.72266C35.1758 8.71484 35.0703 8.69141 34.9766 8.65234C34.8906 8.61328 34.8086 8.57031 34.7305 8.52344C34.6602 8.46875 34.5859 8.41406 34.5078 8.35938C34.4297 8.30469 34.3398 8.25781 34.2383 8.21875C34.1602 8.10938 34.0781 8.00391 33.9922 7.90234C33.9141 7.79297 33.8164 7.70312 33.6992 7.63281C33.6758 7.48438 33.6367 7.33594 33.582 7.1875C33.5352 7.03906 33.4844 6.89453 33.4297 6.75391C33.3828 6.60547 33.3438 6.45703 33.3125 6.30859C33.2734 6.16016 33.2539 6.00781 33.2539 5.85156C33.2539 5.74219 33.2695 5.60938 33.3008 5.45312C33.332 5.29688 33.3711 5.14062 33.418 4.98438C33.4727 4.82031 33.5352 4.66797 33.6055 4.52734C33.6758 4.38672 33.7461 4.27344 33.8164 4.1875C33.8398 4.16406 33.8672 4.14453 33.8984 4.12891C33.9297 4.11328 33.957 4.08984 33.9805 4.05859C34.0508 3.98047 34.125 3.91797 34.2031 3.87109C34.2812 3.81641 34.3633 3.75391 34.4492 3.68359C34.4805 3.65234 34.5039 3.61719 34.5195 3.57812C34.543 3.53906 34.5742 3.50391 34.6133 3.47266C34.6367 3.45703 34.668 3.45312 34.707 3.46094C34.7539 3.46875 34.793 3.46094 34.8242 3.4375C34.8555 3.41406 34.8711 3.38672 34.8711 3.35547C34.8711 3.32422 34.8828 3.29688 34.9062 3.27344C34.9141 3.26562 34.9375 3.26562 34.9766 3.27344C35.0156 3.27344 35.0391 3.27344 35.0469 3.27344C35.1016 3.27344 35.1641 3.23828 35.2344 3.16797C35.3047 3.08984 35.3633 3.03906 35.4102 3.01562C35.4648 2.98438 35.5195 2.96484 35.5742 2.95703C35.6289 2.94141 35.6875 2.91797 35.75 2.88672C35.8359 2.83984 35.918 2.80469 35.9961 2.78125C36.082 2.75 36.168 2.71484 36.2539 2.67578C36.3008 2.66016 36.3438 2.63281 36.3828 2.59375C36.4219 2.55469 36.4609 2.52734 36.5 2.51172C36.5703 2.48828 36.6445 2.47266 36.7227 2.46484C36.8086 2.44922 36.8867 2.4375 36.957 2.42969C37.0352 2.41406 37.1094 2.39844 37.1797 2.38281C37.2578 2.35938 37.3281 2.32031 37.3906 2.26562H37.4844C37.625 2.26562 37.7617 2.24609 37.8945 2.20703C38.0273 2.16797 38.1641 2.14844 38.3047 2.14844C38.3438 2.14844 38.4023 2.15625 38.4805 2.17188C38.543 2.13281 38.6133 2.11328 38.6914 2.11328C38.8242 2.11328 38.957 2.14844 39.0898 2.21875C39.2227 2.28125 39.3594 2.3125 39.5 2.3125H39.5703C39.6016 2.3125 39.6328 2.30859 39.6641 2.30078C39.75 2.38672 39.8516 2.43359 39.9688 2.44141C40.0938 2.44922 40.1992 2.48438 40.2852 2.54688C40.3398 2.59375 40.3828 2.64844 40.4141 2.71094C40.4531 2.77344 40.4844 2.83984 40.5078 2.91016L40.5781 3.12109C40.6016 3.19141 40.6328 3.25391 40.6719 3.30859C40.6328 3.58984 40.5156 3.81641 40.3203 3.98828C40.1328 4.15234 39.8945 4.23438 39.6055 4.23438C39.4961 4.23438 39.4023 4.22266 39.3242 4.19922C39.2539 4.16797 39.1875 4.13672 39.125 4.10547C39.0703 4.07422 39.0117 4.04297 38.9492 4.01172C38.8867 3.98047 38.8164 3.95703 38.7383 3.94141C38.8242 3.78516 38.8789 3.61719 38.9023 3.4375C38.8164 3.39844 38.7305 3.37109 38.6445 3.35547C38.5586 3.33984 38.4766 3.3125 38.3984 3.27344C38.1875 3.32812 37.9805 3.36719 37.7773 3.39062C37.582 3.40625 37.3984 3.48828 37.2266 3.63672C37.1875 3.62891 37.1445 3.62109 37.0977 3.61328C37.0586 3.60547 37.0195 3.60156 36.9805 3.60156C36.9336 3.60156 36.8398 3.63672 36.6992 3.70703C36.5586 3.76953 36.4062 3.84375 36.2422 3.92969C36.0859 4.01562 35.9336 4.10156 35.7852 4.1875C35.6445 4.27344 35.5469 4.33203 35.4922 4.36328C35.4297 4.40234 35.375 4.44922 35.3281 4.50391C35.2812 4.55859 35.2344 4.61719 35.1875 4.67969C35.1406 4.73438 35.0938 4.78906 35.0469 4.84375C35 4.89062 34.9414 4.92578 34.8711 4.94922C34.8555 5.03516 34.8281 5.10938 34.7891 5.17188C34.75 5.23438 34.707 5.30078 34.6602 5.37109C34.6523 5.51172 34.6367 5.65234 34.6133 5.79297C34.5977 5.93359 34.5898 6.07422 34.5898 6.21484V6.36719C34.5898 6.41406 34.5977 6.45703 34.6133 6.49609C34.6914 6.59766 34.7539 6.71094 34.8008 6.83594C34.8555 6.96094 34.9453 7.04688 35.0703 7.09375C35.0781 7.125 35.0742 7.14453 35.0586 7.15234C35.0508 7.16016 35.043 7.17969 35.0352 7.21094C35.082 7.29688 35.1406 7.36719 35.2109 7.42188C35.2891 7.46875 35.3672 7.51953 35.4453 7.57422C35.5234 7.62109 35.5977 7.67188 35.668 7.72656C35.7383 7.78125 35.793 7.85156 35.832 7.9375C35.9492 7.9375 36.0586 7.95703 36.1602 7.99609C36.2695 8.03516 36.3711 8.07812 36.4648 8.125C36.5664 8.17188 36.6602 8.21484 36.7461 8.25391C36.8398 8.29297 36.9336 8.3125 37.0273 8.3125C37.1133 8.3125 37.1914 8.30078 37.2617 8.27734C37.4648 8.33984 37.668 8.38672 37.8711 8.41797C38.082 8.44141 38.293 8.45312 38.5039 8.45312C38.7617 8.45312 39.0195 8.4375 39.2773 8.40625C39.5352 8.375 39.793 8.34766 40.0508 8.32422C40.1445 8.30859 40.2344 8.30078 40.3203 8.30078C40.4062 8.30078 40.4922 8.29297 40.5781 8.27734C40.6875 8.26172 40.7891 8.21094 40.8828 8.125C40.9844 8.03906 41.082 7.97656 41.1758 7.9375C41.2617 7.99219 41.3633 8.01953 41.4805 8.01953C41.6133 8.01953 41.7422 8 41.8672 7.96094C41.9922 7.91406 42.1211 7.89062 42.2539 7.89062H42.3125ZM49.6367 3.21484C49.5898 3.28516 49.5625 3.36328 49.5547 3.44922C49.5469 3.53516 49.543 3.61328 49.543 3.68359C49.543 3.77734 49.543 3.87109 49.543 3.96484C49.5508 4.05078 49.5547 4.13672 49.5547 4.22266V4.39844C49.5391 4.45312 49.5156 4.50781 49.4844 4.5625C49.4531 4.61719 49.4297 4.67188 49.4141 4.72656C49.3047 5.01562 49.25 5.30469 49.25 5.59375V5.61719C49.2109 5.71094 49.1719 5.79688 49.1328 5.875C49.1016 5.95312 49.0703 6.03125 49.0391 6.10938C49.0078 6.17969 48.9844 6.25781 48.9688 6.34375C48.9531 6.42188 48.9492 6.51562 48.957 6.625C48.8477 6.89844 48.7031 7.14844 48.5234 7.375C48.3438 7.59375 48.168 7.82031 47.9961 8.05469C47.832 8.11719 47.6797 8.19922 47.5391 8.30078C47.4062 8.40234 47.2773 8.51562 47.1523 8.64062C46.9102 8.71875 46.6719 8.80859 46.4375 8.91016C46.2031 9.01172 45.9922 9.14844 45.8047 9.32031C45.6562 9.33594 45.5078 9.35938 45.3594 9.39062C45.2109 9.42188 45.0664 9.46875 44.9258 9.53125H44.7852C44.7148 9.53125 44.6641 9.51562 44.6328 9.48438C44.5312 9.53906 44.4258 9.57812 44.3164 9.60156C44.207 9.61719 44.0977 9.625 43.9883 9.625C43.8477 9.625 43.707 9.61719 43.5664 9.60156C43.4336 9.57812 43.2969 9.55469 43.1562 9.53125C43.0781 9.42188 42.9688 9.33984 42.8281 9.28516C42.6875 9.22266 42.5625 9.16406 42.4531 9.10938C42.2266 8.79688 42.0625 8.49609 41.9609 8.20703C41.8594 7.91016 41.7539 7.57812 41.6445 7.21094C41.6602 7.10156 41.6875 6.99609 41.7266 6.89453C41.7656 6.78516 41.7812 6.66797 41.7734 6.54297C41.9141 6.13672 42.0977 5.76953 42.3242 5.44141C42.5586 5.10547 42.8242 4.78516 43.1211 4.48047C43.1211 4.43359 43.1289 4.39453 43.1445 4.36328C43.168 4.33203 43.1719 4.28516 43.1562 4.22266C43.1641 4.23047 43.1797 4.23438 43.2031 4.23438C43.2656 4.23438 43.3047 4.21875 43.3203 4.1875C43.3359 4.14844 43.3398 4.10547 43.332 4.05859C43.6133 3.87891 43.8672 3.67188 44.0938 3.4375C44.3281 3.20312 44.5938 3.00781 44.8906 2.85156C44.9141 2.78125 44.9531 2.72266 45.0078 2.67578C45.0625 2.62891 45.1055 2.57422 45.1367 2.51172C45.3867 2.44141 45.6133 2.33594 45.8164 2.19531C46.0195 2.05469 46.2344 1.92969 46.4609 1.82031C46.5859 1.75 46.7031 1.70312 46.8125 1.67969C46.9297 1.64844 47.0547 1.61719 47.1875 1.58594C47.2344 1.57031 47.2773 1.55859 47.3164 1.55078C47.3555 1.54297 47.3984 1.53906 47.4453 1.53906C47.5859 1.53906 47.7227 1.56641 47.8555 1.62109C47.9883 1.66797 48.125 1.69141 48.2656 1.69141C48.3047 1.69141 48.3359 1.69141 48.3594 1.69141C48.3906 1.68359 48.4219 1.67578 48.4531 1.66797C48.5859 1.83203 48.7539 1.95703 48.957 2.04297C49.0039 2.16016 49.0586 2.26172 49.1211 2.34766C49.1914 2.43359 49.2617 2.51953 49.332 2.60547C49.4023 2.68359 49.4648 2.77344 49.5195 2.875C49.582 2.96875 49.6211 3.08203 49.6367 3.21484ZM48.4648 3.82422C48.4648 3.78516 48.4609 3.75 48.4531 3.71875C48.375 3.69531 48.3008 3.66406 48.2305 3.625C48.1602 3.58594 48.082 3.56641 47.9961 3.56641C47.9414 3.56641 47.8867 3.57812 47.832 3.60156C47.8242 3.54688 47.8008 3.50781 47.7617 3.48438C47.7305 3.46094 47.6914 3.44141 47.6445 3.42578C47.6055 3.40234 47.5625 3.38672 47.5156 3.37891C47.4766 3.36328 47.4414 3.33984 47.4102 3.30859C47.3867 3.24609 47.3594 3.18359 47.3281 3.12109C47.3047 3.05078 47.2578 3 47.1875 2.96875C47.1172 3.03906 47.0352 3.09766 46.9414 3.14453C46.8477 3.18359 46.75 3.22266 46.6484 3.26172C46.5547 3.30078 46.4609 3.34766 46.3672 3.40234C46.2812 3.45703 46.207 3.52344 46.1445 3.60156H45.9336C45.8867 3.6875 45.8203 3.75391 45.7344 3.80078C45.6484 3.83984 45.5742 3.89844 45.5117 3.97656C45.3867 4.03906 45.2695 4.11719 45.1602 4.21094C45.0586 4.29688 44.957 4.39062 44.8555 4.49219C44.7539 4.58594 44.6523 4.68359 44.5508 4.78516C44.457 4.88672 44.3555 4.98047 44.2461 5.06641C44.1445 5.28516 44.0312 5.47656 43.9062 5.64062C43.7891 5.79688 43.6758 5.95703 43.5664 6.12109C43.4648 6.28516 43.375 6.46484 43.2969 6.66016C43.2266 6.84766 43.1914 7.08203 43.1914 7.36328V7.48047C43.1914 7.51953 43.1953 7.55859 43.2031 7.59766C43.3047 7.70703 43.3867 7.82422 43.4492 7.94922C43.5195 8.07422 43.6328 8.16406 43.7891 8.21875C43.9453 8.28125 44.1094 8.30859 44.2812 8.30078C44.4609 8.29297 44.6328 8.3125 44.7969 8.35938C45.1719 8.28906 45.5312 8.17578 45.875 8.01953C46.2266 7.85547 46.5586 7.66016 46.8711 7.43359C46.918 7.39453 46.9727 7.35547 47.0352 7.31641C47.0977 7.26953 47.1484 7.22266 47.1875 7.17578C47.2266 7.13672 47.2578 7.09375 47.2812 7.04688C47.3125 7 47.3438 6.95703 47.375 6.91797C47.4375 6.81641 47.5078 6.71484 47.5859 6.61328C47.6641 6.51172 47.7461 6.41797 47.832 6.33203C47.8711 6.16016 47.9219 5.99609 47.9844 5.83984C48.0469 5.67578 48.1094 5.51562 48.1719 5.35938C48.2344 5.20312 48.2852 5.04297 48.3242 4.87891C48.3711 4.71484 48.3945 4.54297 48.3945 4.36328C48.3945 4.32422 48.3906 4.28125 48.3828 4.23438C48.3828 4.1875 48.3789 4.14453 48.3711 4.10547C48.4336 4.01953 48.4648 3.92578 48.4648 3.82422ZM57.7461 8.10156C57.7148 8.21875 57.6641 8.31641 57.5938 8.39453C57.5234 8.47266 57.4414 8.54297 57.3477 8.60547C57.2617 8.66797 57.168 8.72656 57.0664 8.78125C56.9648 8.82812 56.8672 8.88281 56.7734 8.94531H56.6211C56.293 8.94531 56.0391 8.86719 55.8594 8.71094C55.6875 8.54688 55.5547 8.34766 55.4609 8.11328C55.3672 7.87109 55.2969 7.61328 55.25 7.33984C55.2109 7.06641 55.1602 6.81641 55.0977 6.58984C55.0039 6.66797 54.9258 6.76172 54.8633 6.87109C54.8008 6.97266 54.7344 7.07422 54.6641 7.17578C54.6016 7.27734 54.5273 7.37109 54.4414 7.45703C54.3633 7.54297 54.2578 7.60156 54.125 7.63281C54.1016 7.6875 54.0742 7.74219 54.043 7.79688C54.0195 7.85156 54.0039 7.91016 53.9961 7.97266C53.8242 8.06641 53.668 8.17578 53.5273 8.30078C53.3867 8.42578 53.2461 8.55469 53.1055 8.6875C52.9648 8.82031 52.8203 8.94922 52.6719 9.07422C52.5312 9.19141 52.3711 9.28906 52.1914 9.36719C52.1836 9.35938 52.168 9.35547 52.1445 9.35547C52.0508 9.35547 51.9648 9.37891 51.8867 9.42578C51.8086 9.46484 51.7227 9.48438 51.6289 9.48438C51.5664 9.48438 51.5078 9.47266 51.4531 9.44922C51.4062 9.42578 51.3555 9.39844 51.3008 9.36719C51.2539 9.33594 51.2031 9.3125 51.1484 9.29688C51.0938 9.28125 51.0352 9.27734 50.9727 9.28516C50.8945 9.14453 50.7891 9.01562 50.6562 8.89844C50.5312 8.77344 50.4531 8.63281 50.4219 8.47656C50.4062 8.40625 50.3945 8.33594 50.3867 8.26562C50.3867 8.1875 50.3789 8.10938 50.3633 8.03125C50.3398 7.91406 50.3086 7.79688 50.2695 7.67969C50.2305 7.55469 50.1992 7.42969 50.1758 7.30469C50.2148 7.09375 50.2539 6.86328 50.293 6.61328C50.3242 6.35547 50.3633 6.10156 50.4102 5.85156C50.4648 5.59375 50.5352 5.35156 50.6211 5.125C50.7148 4.89062 50.832 4.69141 50.9727 4.52734L50.9609 4.44531C50.9609 4.32031 50.9844 4.20312 51.0312 4.09375C51.0781 3.98438 51.1289 3.87891 51.1836 3.77734C51.2383 3.67578 51.2852 3.57422 51.3242 3.47266C51.3633 3.37109 51.3711 3.25781 51.3477 3.13281C51.4414 3.08594 51.5391 3.04688 51.6406 3.01562C51.7422 2.98438 51.8477 2.96875 51.957 2.96875C52.0586 2.96875 52.1523 2.98438 52.2383 3.01562C52.2227 3.07812 52.25 3.11719 52.3203 3.13281V3.16797C52.3203 3.33203 52.3008 3.49219 52.2617 3.64844C52.2227 3.80469 52.1758 3.96094 52.1211 4.11719C52.0664 4.26562 52.0117 4.41797 51.957 4.57422C51.9102 4.72266 51.875 4.875 51.8516 5.03125C51.8203 5.03906 51.7969 5.05469 51.7812 5.07812C51.7734 5.10156 51.7656 5.125 51.7578 5.14844C51.75 5.17188 51.7383 5.19141 51.7227 5.20703C51.707 5.22266 51.6836 5.23047 51.6523 5.23047C51.6055 5.50391 51.5547 5.77734 51.5 6.05078C51.4531 6.31641 51.4297 6.58594 51.4297 6.85938C51.4297 7.02344 51.4453 7.19141 51.4766 7.36328C51.5078 7.53516 51.5664 7.69922 51.6523 7.85547L51.6992 7.84375C51.7852 7.84375 51.8516 7.86328 51.8984 7.90234C51.9531 7.94141 52.0234 7.98047 52.1094 8.01953C52.1719 8.00391 52.2305 7.98438 52.2852 7.96094C52.3398 7.92969 52.3633 7.87891 52.3555 7.80859C52.457 7.80078 52.543 7.77734 52.6133 7.73828C52.6836 7.69141 52.7461 7.64062 52.8008 7.58594L52.9766 7.42188C53.0391 7.36719 53.1133 7.32812 53.1992 7.30469C53.1992 7.25781 53.2109 7.22266 53.2344 7.19922L53.3047 7.12891C53.3281 7.10547 53.3438 7.08203 53.3516 7.05859C53.3672 7.02734 53.3711 6.98438 53.3633 6.92969C53.457 6.92188 53.5273 6.89844 53.5742 6.85938C53.6289 6.82031 53.6758 6.77734 53.7148 6.73047C53.7617 6.67578 53.8047 6.62109 53.8438 6.56641C53.8828 6.51172 53.9336 6.46484 53.9961 6.42578C54.0508 6.30859 54.125 6.15234 54.2188 5.95703C54.3203 5.76172 54.418 5.55859 54.5117 5.34766C54.6133 5.13672 54.6992 4.9375 54.7695 4.75C54.8477 4.55469 54.8867 4.40625 54.8867 4.30469C54.8867 4.26562 54.875 4.23047 54.8516 4.19922C54.8359 4.16797 54.832 4.13281 54.8398 4.09375V4.05859C54.9023 3.98047 54.957 3.89453 55.0039 3.80078C55.0586 3.70703 55.1133 3.61719 55.168 3.53125C55.2305 3.44531 55.2969 3.36719 55.3672 3.29688C55.4375 3.22656 55.5273 3.17188 55.6367 3.13281C55.7617 3.17188 55.8867 3.19922 56.0117 3.21484C56.1445 3.23047 56.2695 3.26172 56.3867 3.30859C56.3945 3.50391 56.4141 3.73047 56.4453 3.98828C56.4766 4.24609 56.5312 4.46484 56.6094 4.64453C56.6094 4.74609 56.6055 4.84375 56.5977 4.9375C56.5977 5.03125 56.5977 5.125 56.5977 5.21875C56.5977 5.375 56.6016 5.53516 56.6094 5.69922C56.625 5.86328 56.6523 6.01562 56.6914 6.15625C56.6367 6.27344 56.6094 6.39844 56.6094 6.53125C56.6094 6.71094 56.6367 6.88281 56.6914 7.04688C56.7461 7.20312 56.7852 7.37109 56.8086 7.55078C56.9102 7.69141 57.043 7.76172 57.207 7.76172C57.2461 7.76172 57.2773 7.75781 57.3008 7.75C57.332 7.74219 57.3633 7.73047 57.3945 7.71484C57.457 7.78516 57.5117 7.85547 57.5586 7.92578C57.6133 7.98828 57.6758 8.04688 57.7461 8.10156ZM64.5195 6.98828C64.5195 7.07422 64.4883 7.14062 64.4258 7.1875C64.3633 7.22656 64.332 7.28125 64.332 7.35156C64.332 7.38281 64.3477 7.42188 64.3789 7.46875C64.2695 7.46875 64.1953 7.50391 64.1562 7.57422C64.1172 7.64453 64.0781 7.72266 64.0391 7.80859H63.8867C63.8477 7.80859 63.8164 7.81641 63.793 7.83203C63.7695 7.84766 63.7461 7.87109 63.7227 7.90234C63.707 7.92578 63.6836 7.96484 63.6523 8.01953C63.5039 8.05078 63.3594 8.10156 63.2188 8.17188C63.0859 8.23438 62.9531 8.30469 62.8203 8.38281C62.6953 8.45312 62.5664 8.52734 62.4336 8.60547C62.3008 8.67578 62.1641 8.73438 62.0234 8.78125C61.9531 8.89844 61.8516 8.99219 61.7188 9.0625H61.6836C61.6445 9.07031 61.6094 9.06641 61.5781 9.05078C61.5547 9.02734 61.5234 9.01562 61.4844 9.01562C61.4609 9.01562 61.4453 9.01953 61.4375 9.02734C61.2031 9.18359 60.9414 9.26172 60.6523 9.26172C60.5742 9.26172 60.5 9.25781 60.4297 9.25C60.3594 9.23438 60.2852 9.22656 60.207 9.22656C60.1836 9.22656 60.168 9.23438 60.1602 9.25L60.1367 9.29688C60.1289 9.3125 60.1172 9.32812 60.1016 9.34375C60.0938 9.35938 60.0664 9.36719 60.0195 9.36719C59.9336 9.36719 59.8477 9.35547 59.7617 9.33203C59.6758 9.30859 59.5859 9.30469 59.4922 9.32031C59.3125 9.21875 59.1719 9.12109 59.0703 9.02734C58.9688 8.93359 58.875 8.79297 58.7891 8.60547C58.75 8.51953 58.6953 8.4375 58.625 8.35938C58.5625 8.28125 58.5156 8.19531 58.4844 8.10156C58.4766 8.07031 58.4648 8.01562 58.4492 7.9375C58.4336 7.85156 58.418 7.76172 58.4023 7.66797C58.3867 7.57422 58.3711 7.48438 58.3555 7.39844C58.3477 7.3125 58.3438 7.25391 58.3438 7.22266C58.3438 7.12891 58.3477 7.03906 58.3555 6.95312C58.3711 6.85938 58.3867 6.76562 58.4023 6.67188C58.4492 6.375 58.4805 6.07812 58.4961 5.78125C58.5195 5.47656 58.5859 5.18359 58.6953 4.90234C58.6797 4.81641 58.6719 4.73438 58.6719 4.65625V4.39844C58.6719 4.25 58.6523 4.125 58.6133 4.02344C58.6758 3.92188 58.707 3.80859 58.707 3.68359C58.707 3.54297 58.6484 3.46094 58.5312 3.4375V3.40234C58.5312 3.23828 58.4766 3.10938 58.3672 3.01562C58.3672 2.74219 58.4336 2.53906 58.5664 2.40625C58.707 2.26562 58.8906 2.14453 59.1172 2.04297C59.1484 1.99609 59.1602 1.95703 59.1523 1.92578C59.207 1.94141 59.2578 1.95703 59.3047 1.97266C59.3516 1.98828 59.3984 1.99609 59.4453 1.99609C59.5234 1.99609 59.5938 1.98438 59.6562 1.96094C59.6797 2.05469 59.7383 2.11328 59.832 2.13672C59.9336 2.15234 60.0156 2.17578 60.0781 2.20703V2.35938C60.0781 2.60156 60.1367 2.83203 60.2539 3.05078C60.2227 3.11328 60.2031 3.17969 60.1953 3.25C60.1875 3.32031 60.1836 3.38672 60.1836 3.44922C60.1836 3.54297 60.1875 3.63672 60.1953 3.73047C60.2031 3.82422 60.207 3.91406 60.207 4C60.207 4.09375 60.1953 4.1875 60.1719 4.28125C60.1562 4.375 60.1133 4.45703 60.043 4.52734C60.0352 4.62891 60.0273 4.74609 60.0195 4.87891C60.0195 5.00391 60.0117 5.13281 59.9961 5.26562C59.9883 5.39844 59.9688 5.52734 59.9375 5.65234C59.9062 5.77734 59.8594 5.87891 59.7969 5.95703C59.7891 6.07422 59.7812 6.19531 59.7734 6.32031C59.7734 6.4375 59.7734 6.55078 59.7734 6.66016C59.7734 6.83203 59.7812 7.03516 59.7969 7.26953C59.8203 7.50391 59.875 7.69922 59.9609 7.85547C60 7.91797 60.0742 7.96484 60.1836 7.99609C60.3008 8.02734 60.3945 8.04297 60.4648 8.04297C60.5508 8.04297 60.6367 8.03125 60.7227 8.00781C60.8164 7.97656 60.8828 7.92578 60.9219 7.85547C60.9688 7.86328 61 7.88672 61.0156 7.92578C61.0312 7.96484 61.0586 7.99609 61.0977 8.01953C61.543 7.83203 61.9883 7.65234 62.4336 7.48047C62.8789 7.30859 63.3164 7.10938 63.7461 6.88281C63.8086 6.91406 63.875 6.92969 63.9453 6.92969C64.0234 6.92969 64.1016 6.92188 64.1797 6.90625C64.2578 6.89062 64.3359 6.88281 64.4141 6.88281H64.4961C64.5117 6.92969 64.5195 6.96484 64.5195 6.98828ZM72.3125 4.22266C72.3125 4.30078 72.2852 4.35156 72.2305 4.375C72.1758 4.39844 72.1484 4.44531 72.1484 4.51562C72.1484 4.53906 72.1562 4.55859 72.1719 4.57422C72.1875 4.58984 72.1953 4.61328 72.1953 4.64453V4.69141C72.1016 5.14453 71.9648 5.53906 71.7852 5.875C71.6133 6.21094 71.4102 6.51953 71.1758 6.80078C70.9414 7.08203 70.6758 7.34766 70.3789 7.59766C70.0898 7.84766 69.7773 8.10938 69.4414 8.38281C69.3477 8.46094 69.25 8.53906 69.1484 8.61719C69.0547 8.69531 68.9648 8.77734 68.8789 8.86328L68.6211 9.10938C68.6133 9.11719 68.5703 9.13672 68.4922 9.16797C68.4141 9.19141 68.3672 9.20703 68.3516 9.21484C68.2422 9.26172 68.125 9.31641 68 9.37891C67.8828 9.44141 67.7812 9.51953 67.6953 9.61328C67.5391 9.61328 67.4062 9.63672 67.2969 9.68359C67.1875 9.73047 67.0664 9.79297 66.9336 9.87109C66.8945 9.87109 66.8594 9.86328 66.8281 9.84766C66.8047 9.83203 66.7773 9.81641 66.7461 9.80078C66.7148 9.78516 66.6797 9.77734 66.6406 9.77734C66.6094 9.76953 66.5664 9.77344 66.5117 9.78906C66.418 9.63281 66.3164 9.5 66.207 9.39062C66.0977 9.28125 65.9492 9.21484 65.7617 9.19141C65.7383 9.05859 65.6836 8.95703 65.5977 8.88672C65.5117 8.80859 65.4258 8.72656 65.3398 8.64062C65.3242 8.59375 65.3125 8.53906 65.3047 8.47656C65.2969 8.41406 65.2812 8.35547 65.2578 8.30078C65.2344 8.24609 65.2031 8.19922 65.1641 8.16016C65.125 8.12109 65.0703 8.10156 65 8.10156C64.9922 8.05469 65.0117 8.03125 65.0586 8.03125C65.1055 8.03125 65.1289 8.01172 65.1289 7.97266C65.1289 7.92578 65.1211 7.87891 65.1055 7.83203C65.0898 7.78516 65.082 7.73438 65.082 7.67969C65.082 7.64062 65.0859 7.60547 65.0938 7.57422C65.1016 7.54297 65.1133 7.50781 65.1289 7.46875C65.1055 7.25781 65.0938 7.04297 65.0938 6.82422C65.0938 6.40234 65.1211 5.98828 65.1758 5.58203C65.2383 5.16797 65.2695 4.75 65.2695 4.32812C65.2695 4.14062 65.2578 3.95312 65.2344 3.76562C65.2188 3.57812 65.1836 3.39453 65.1289 3.21484C64.9492 3.25391 64.7695 3.30078 64.5898 3.35547C64.4102 3.40234 64.2422 3.46875 64.0859 3.55469C64 3.5 63.9102 3.46875 63.8164 3.46094C63.7148 3.44531 63.6172 3.42188 63.5234 3.39062C63.4688 3.28125 63.4414 3.16797 63.4414 3.05078C63.4414 2.94141 63.4609 2.83594 63.5 2.73438L63.6172 2.42969C63.8047 2.39062 63.9922 2.33203 64.1797 2.25391C64.3594 2.17578 64.543 2.10547 64.7305 2.04297C64.793 2.02734 64.8711 2.00781 64.9648 1.98438C65.0664 1.96094 65.1367 1.94141 65.1758 1.92578C65.2305 1.90234 65.2656 1.85938 65.2812 1.79688C65.3047 1.72656 65.3359 1.66797 65.375 1.62109H65.5742C65.6211 1.62109 65.6719 1.625 65.7266 1.63281C65.7812 1.63281 65.832 1.64453 65.8789 1.66797C66.1602 1.59766 66.4414 1.55469 66.7227 1.53906C67.0039 1.51562 67.293 1.48438 67.5898 1.44531C67.6211 1.44531 67.668 1.44141 67.7305 1.43359L67.9297 1.39844C68 1.38281 68.0625 1.37109 68.1172 1.36328C68.1797 1.34766 68.2227 1.33984 68.2461 1.33984C68.2695 1.33984 68.2812 1.35156 68.2812 1.375H68.4805C68.8164 1.375 69.1445 1.41797 69.4648 1.50391L70.4258 1.76172C70.5586 1.87109 70.6914 1.97656 70.8242 2.07812C70.957 2.17969 71.1055 2.26953 71.2695 2.34766C71.3086 2.47266 71.3672 2.57422 71.4453 2.65234C71.5312 2.72266 71.625 2.80078 71.7266 2.88672C71.7656 2.98828 71.8164 3.09766 71.8789 3.21484C71.9492 3.32422 72.0156 3.4375 72.0781 3.55469C72.1406 3.67188 72.1953 3.78906 72.2422 3.90625C72.2891 4.01562 72.3125 4.12109 72.3125 4.22266ZM71.2227 4.39844C71.1367 4.21875 71.0547 4.03125 70.9766 3.83594C70.8984 3.64062 70.8008 3.46484 70.6836 3.30859C70.543 3.26953 70.3984 3.22266 70.25 3.16797C70.1094 3.10547 70.0117 3 69.957 2.85156C69.9414 2.85938 69.9141 2.86328 69.875 2.86328C69.8047 2.86328 69.7422 2.83594 69.6875 2.78125C69.6328 2.72656 69.5703 2.69141 69.5 2.67578C69.4375 2.66797 69.3516 2.65625 69.2422 2.64062C69.1406 2.625 69.0312 2.61328 68.9141 2.60547C68.7969 2.59766 68.6797 2.58984 68.5625 2.58203C68.4531 2.57422 68.3672 2.57031 68.3047 2.57031C68.2422 2.57031 68.1758 2.57422 68.1055 2.58203C68.043 2.58203 67.9766 2.58594 67.9062 2.59375C67.8438 2.59375 67.8047 2.60547 67.7891 2.62891C67.7734 2.64453 67.7422 2.66016 67.6953 2.67578C67.6562 2.66016 67.6133 2.65234 67.5664 2.65234H67.4258C67.2617 2.65234 67.0977 2.67969 66.9336 2.73438C66.7773 2.78125 66.6211 2.84766 66.4648 2.93359V2.98047C66.4648 3.04297 66.4922 3.07812 66.5469 3.08594C66.6016 3.09375 66.6328 3.125 66.6406 3.17969C66.6016 3.17969 66.5703 3.18359 66.5469 3.19141C66.5234 3.19141 66.5117 3.21875 66.5117 3.27344C66.5117 3.35156 66.5195 3.4375 66.5352 3.53125C66.5586 3.625 66.5703 3.71875 66.5703 3.8125C66.5703 3.88281 66.5625 3.96484 66.5469 4.05859C66.5312 4.15234 66.4922 4.22656 66.4297 4.28125C66.5078 4.35156 66.5469 4.44531 66.5469 4.5625C66.5469 4.64062 66.5312 4.72266 66.5 4.80859C66.4688 4.89453 66.4297 4.96875 66.3828 5.03125C66.3672 5.35938 66.3359 5.69141 66.2891 6.02734C66.2422 6.36328 66.2188 6.69531 66.2188 7.02344C66.2188 7.1875 66.2266 7.34766 66.2422 7.50391C66.2656 7.66016 66.3008 7.81641 66.3477 7.97266C66.4336 8.05859 66.5234 8.125 66.6172 8.17188C66.7188 8.21875 66.8242 8.26562 66.9336 8.3125V8.34766C66.9336 8.37109 66.918 8.39453 66.8867 8.41797C66.8555 8.44141 66.8398 8.47266 66.8398 8.51172C66.8398 8.54297 66.8555 8.55859 66.8867 8.55859C67.2148 8.46484 67.5234 8.35156 67.8125 8.21875C68.1016 8.08594 68.3711 7.90625 68.6211 7.67969C68.6445 7.65625 68.668 7.64453 68.6914 7.64453C68.707 7.64453 68.7266 7.64844 68.75 7.65625C68.7812 7.66406 68.8086 7.67188 68.832 7.67969L68.8203 7.63281C68.8203 7.58594 68.832 7.54297 68.8555 7.50391C68.8867 7.46484 68.9219 7.42969 68.9609 7.39844L69.0781 7.29297C69.1172 7.25391 69.1484 7.21484 69.1719 7.17578C69.2344 7.16016 69.2773 7.12891 69.3008 7.08203C69.332 7.03516 69.3828 7.01172 69.4531 7.01172C69.4688 6.92578 69.5117 6.86328 69.582 6.82422C69.6523 6.77734 69.6953 6.71094 69.7109 6.625C69.8672 6.53906 70.0039 6.43359 70.1211 6.30859C70.2461 6.18359 70.3594 6.05078 70.4609 5.91016C70.5703 5.76953 70.6719 5.625 70.7656 5.47656C70.8594 5.32031 70.957 5.17188 71.0586 5.03125V4.98438C71.0586 4.85938 71.0781 4.75781 71.1172 4.67969C71.1641 4.60156 71.1992 4.50781 71.2227 4.39844ZM26.9199 17.7383C26.9199 17.8086 26.9043 17.875 26.873 17.9375L26.791 18.1133C26.7676 18.168 26.7441 18.2266 26.7207 18.2891C26.6973 18.3516 26.6895 18.4258 26.6973 18.5117C26.5879 18.6367 26.4785 18.7578 26.3691 18.875C26.2598 18.9922 26.1621 19.125 26.0762 19.2734C25.9902 19.2656 25.9238 19.2852 25.877 19.332C25.8379 19.3789 25.8066 19.4414 25.7832 19.5195C25.6191 19.5742 25.4746 19.6602 25.3496 19.7773C25.2246 19.8867 25.1152 20.0078 25.0215 20.1406C24.6074 20.3125 24.2207 20.5234 23.8613 20.7734C23.502 21.0234 23.1738 21.3164 22.877 21.6523C23.0176 21.6523 23.1543 21.668 23.2871 21.6992C23.4277 21.7305 23.5645 21.7656 23.6973 21.8047C23.8379 21.8359 23.9746 21.8672 24.1074 21.8984C24.2402 21.9219 24.377 21.9258 24.5176 21.9102C24.6191 22.0039 24.7324 22.082 24.8574 22.1445C24.9902 22.207 25.1191 22.2656 25.2441 22.3203C25.377 22.375 25.502 22.4375 25.6191 22.5078C25.7441 22.5781 25.8535 22.6641 25.9473 22.7656C25.9473 22.7812 25.9434 22.7969 25.9355 22.8125C25.9355 22.8203 25.9355 22.832 25.9355 22.8477C25.9355 22.9102 25.9512 22.9727 25.9824 23.0352C26.0137 23.0898 26.0293 23.1484 26.0293 23.2109C25.9902 23.2734 25.9551 23.3398 25.9238 23.4102C25.8926 23.4805 25.8535 23.543 25.8066 23.5977C25.7676 23.6523 25.7207 23.6992 25.666 23.7383C25.6113 23.7773 25.5371 23.8008 25.4434 23.8086C25.4043 23.9414 25.3418 24.0469 25.2559 24.125C25.1699 24.1953 25.0723 24.2617 24.9629 24.3242C24.8613 24.3789 24.7598 24.4375 24.6582 24.5C24.5566 24.5547 24.4707 24.6289 24.4004 24.7227C24.166 24.7773 23.9355 24.8555 23.709 24.957C23.4902 25.0508 23.2949 25.1875 23.123 25.3672C23.0059 25.3828 22.8848 25.4023 22.7598 25.4258C22.6426 25.4414 22.5254 25.4492 22.4082 25.4492C22.2441 25.4492 22.1113 25.418 22.0098 25.3555C21.9082 25.2852 21.8496 25.1602 21.834 24.9805C21.8574 24.9258 21.8926 24.8789 21.9395 24.8398L22.0918 24.7227C22.1465 24.6836 22.1934 24.6445 22.2324 24.6055C22.2793 24.5586 22.3145 24.5039 22.3379 24.4414C22.3535 24.4414 22.373 24.4453 22.3965 24.4531C22.4199 24.4531 22.4434 24.4531 22.4668 24.4531C22.5605 24.4531 22.6348 24.4336 22.6895 24.3945C22.7441 24.3555 22.7949 24.3164 22.8418 24.2773C22.8965 24.2383 22.9551 24.2031 23.0176 24.1719C23.0801 24.1406 23.1621 24.1289 23.2637 24.1367C23.3184 24.0352 23.4004 23.9609 23.5098 23.9141C23.6191 23.8594 23.7324 23.8125 23.8496 23.7734C23.9668 23.7266 24.0762 23.6758 24.1777 23.6211C24.2871 23.5586 24.3613 23.4688 24.4004 23.3516C24.3613 23.2891 24.3105 23.2422 24.248 23.2109C24.1855 23.1719 24.1152 23.1406 24.0371 23.1172L23.8145 23.0469C23.7441 23.0234 23.6816 22.9961 23.627 22.9648C23.541 22.9883 23.459 23 23.3809 23C23.2168 23 23.0566 22.9844 22.9004 22.9531C22.7441 22.9219 22.584 22.9062 22.4199 22.9062C22.2715 22.9062 22.1426 22.9258 22.0332 22.9648C21.9941 22.957 21.9512 22.9453 21.9043 22.9297C21.8652 22.9141 21.8262 22.8984 21.7871 22.8828C21.6074 22.9531 21.4199 22.9883 21.2246 22.9883H20.4629C20.4004 22.9883 20.3379 22.9961 20.2754 23.0117C20.1895 23.168 20.1465 23.3359 20.1465 23.5156C20.1465 23.6484 20.166 23.7773 20.2051 23.9023C20.2441 24.0195 20.2832 24.1445 20.3223 24.2773C20.4785 24.418 20.623 24.5859 20.7559 24.7812C20.8887 24.9688 20.9551 25.1758 20.9551 25.4023C20.9551 25.457 20.9512 25.5 20.9434 25.5312C20.8652 25.4766 20.7637 25.4492 20.6387 25.4492C20.5293 25.4492 20.4238 25.4648 20.3223 25.4961C20.2285 25.5273 20.127 25.5508 20.0176 25.5664C19.9316 25.5273 19.8418 25.4883 19.748 25.4492C19.6543 25.4023 19.5645 25.3477 19.4785 25.2852C19.416 25.1523 19.3535 25.0273 19.291 24.9102C19.2285 24.7852 19.1504 24.668 19.0566 24.5586V24.5117C19.0566 24.2383 19.0332 23.9688 18.9863 23.7031C18.9473 23.4375 18.9277 23.168 18.9277 22.8945C18.9277 22.7695 18.9316 22.6445 18.9395 22.5195C18.9551 22.3867 18.9941 22.2656 19.0566 22.1562C19.0332 21.9688 19.0215 21.7734 19.0215 21.5703C19.0215 21.1641 19.0449 20.7578 19.0918 20.3516C19.1387 19.9453 19.1621 19.5312 19.1621 19.1094C19.1621 19.0234 19.1582 18.9375 19.1504 18.8516C19.1504 18.7656 19.1465 18.6797 19.1387 18.5938H19.0918C18.9902 18.5938 18.8926 18.6094 18.7988 18.6406C18.7051 18.6641 18.6113 18.6914 18.5176 18.7227C18.4238 18.7539 18.3262 18.7852 18.2246 18.8164C18.123 18.8398 18.0215 18.8516 17.9199 18.8516C17.8574 18.8828 17.8066 18.9141 17.7676 18.9453C17.7285 18.9766 17.6895 19.0039 17.6504 19.0273C17.6113 19.0508 17.5684 19.0703 17.5215 19.0859C17.4668 19.1016 17.4043 19.1055 17.334 19.0977C17.248 19.1523 17.1816 19.1953 17.1348 19.2266C17.0801 19.25 17.0059 19.2773 16.9121 19.3086C16.8652 19.3242 16.8262 19.3477 16.7949 19.3789L16.7012 19.4609C16.6699 19.4844 16.6348 19.5078 16.5957 19.5312C16.5566 19.5547 16.5059 19.5664 16.4434 19.5664C16.3887 19.5664 16.3496 19.5625 16.3262 19.5547C16.2793 19.5156 16.2402 19.4688 16.209 19.4141C16.1699 19.3594 16.1348 19.3086 16.1035 19.2617C16.0645 19.207 16.0254 19.1602 15.9863 19.1211C15.9395 19.0742 15.8848 19.0391 15.8223 19.0156C15.8535 18.9766 15.8691 18.9453 15.8691 18.9219C15.8613 18.8906 15.8574 18.8555 15.8574 18.8164C15.8574 18.793 15.8613 18.7773 15.8691 18.7695C15.9082 18.6289 15.9785 18.5195 16.0801 18.4414C16.1816 18.3555 16.2949 18.2891 16.4199 18.2422C16.5449 18.1875 16.6738 18.1406 16.8066 18.1016C16.9316 18.0625 17.0488 18.0156 17.1582 17.9609C17.4629 17.9688 17.7402 17.9414 17.9902 17.8789C18.2402 17.8086 18.498 17.7109 18.7637 17.5859C18.8105 17.6094 18.8574 17.6211 18.9043 17.6211C18.9434 17.6211 18.9824 17.6172 19.0215 17.6094L19.1387 17.5859C19.2324 17.5078 19.334 17.457 19.4434 17.4336C19.5527 17.4102 19.6621 17.3906 19.7715 17.375C19.8809 17.3594 19.9863 17.3438 20.0879 17.3281C20.1895 17.3047 20.2793 17.2617 20.3574 17.1992H20.4043C20.5918 17.1992 20.7793 17.168 20.9668 17.1055C21.1621 17.043 21.3496 17.0195 21.5293 17.0352C21.6855 16.9492 21.8301 16.8945 21.9629 16.8711C22.0957 16.8477 22.248 16.8359 22.4199 16.8359C22.459 16.8359 22.5059 16.8203 22.5605 16.7891C22.6152 16.75 22.6816 16.7305 22.7598 16.7305C22.7754 16.7305 22.7871 16.7344 22.7949 16.7422C22.8105 16.7422 22.8262 16.7422 22.8418 16.7422C22.9121 16.7422 22.959 16.7188 22.9824 16.6719C23.0137 16.625 23.0879 16.6016 23.2051 16.6016C23.2598 16.6016 23.3105 16.6055 23.3574 16.6133C23.4043 16.6133 23.4512 16.6133 23.498 16.6133C23.5527 16.6133 23.5879 16.5938 23.6035 16.5547C23.6191 16.5078 23.6543 16.4883 23.709 16.4961C23.7324 16.5273 23.7715 16.543 23.8262 16.543C23.8809 16.5352 23.9238 16.5312 23.9551 16.5312C24.0098 16.5312 24.041 16.5469 24.0488 16.5781C24.1738 16.5 24.3105 16.4492 24.459 16.4258C24.6152 16.4023 24.7637 16.3906 24.9043 16.3906C24.959 16.3906 25.0137 16.3945 25.0684 16.4023C25.123 16.4023 25.1816 16.4062 25.2441 16.4141C25.3145 16.3672 25.3965 16.3438 25.4902 16.3438C25.5449 16.3438 25.6309 16.3672 25.748 16.4141C25.873 16.4609 26.002 16.5156 26.1348 16.5781C26.2676 16.6406 26.3887 16.707 26.498 16.7773C26.6074 16.8477 26.6738 16.9062 26.6973 16.9531C26.7129 16.9688 26.7207 17.0039 26.7207 17.0586C26.7285 17.1133 26.7402 17.1602 26.7559 17.1992C26.7949 17.293 26.8301 17.3828 26.8613 17.4688C26.9004 17.5469 26.9199 17.6367 26.9199 17.7383ZM25.6191 17.8672C25.6191 17.8516 25.6152 17.8359 25.6074 17.8203C25.6074 17.7969 25.6074 17.7773 25.6074 17.7617C25.5684 17.7148 25.5137 17.6797 25.4434 17.6562C25.3809 17.6328 25.3105 17.6133 25.2324 17.5977C25.1621 17.582 25.0879 17.5703 25.0098 17.5625C24.9395 17.5469 24.877 17.5273 24.8223 17.5039C24.6582 17.5586 24.4785 17.5859 24.2832 17.5859C24.1035 17.5859 23.9434 17.5586 23.8027 17.5039C23.7324 17.5742 23.6426 17.6289 23.5332 17.668C23.4238 17.707 23.3066 17.7383 23.1816 17.7617C23.0645 17.7773 22.9434 17.7891 22.8184 17.7969C22.7012 17.7969 22.5957 17.7969 22.502 17.7969C22.4707 17.7969 22.416 17.8203 22.3379 17.8672C22.2598 17.9141 22.1895 17.9375 22.127 17.9375C22.0801 17.9375 22.0371 17.918 21.998 17.8789C21.9277 17.9336 21.8301 17.9805 21.7051 18.0195C21.5801 18.0586 21.4512 18.0938 21.3184 18.125C21.1855 18.1484 21.0488 18.1758 20.9082 18.207C20.7754 18.2383 20.6621 18.2695 20.5684 18.3008C20.4746 18.5039 20.4238 18.7266 20.416 18.9688C20.4082 19.2031 20.4043 19.4336 20.4043 19.6602C20.4043 19.793 20.3965 19.9219 20.3809 20.0469C20.3652 20.1719 20.3574 20.3008 20.3574 20.4336C20.3574 20.4961 20.3613 20.5625 20.3691 20.6328C20.377 20.6953 20.4004 20.7578 20.4395 20.8203C20.377 20.8672 20.334 20.9297 20.3105 21.0078C20.2949 21.0781 20.2871 21.1484 20.2871 21.2188C20.2871 21.3047 20.2949 21.3828 20.3105 21.4531C20.3262 21.5234 20.3418 21.5898 20.3574 21.6523C20.6074 21.6289 20.834 21.582 21.0371 21.5117C21.248 21.4414 21.4434 21.3555 21.623 21.2539C21.8105 21.1523 21.9902 21.0352 22.1621 20.9023C22.334 20.7695 22.5137 20.6289 22.7012 20.4805C22.7793 20.4648 22.8418 20.4414 22.8887 20.4102C22.9434 20.3789 23.0098 20.3633 23.0879 20.3633C23.1191 20.2539 23.1777 20.1797 23.2637 20.1406C23.3496 20.0938 23.416 20.0273 23.4629 19.9414C23.5566 19.918 23.6348 19.8867 23.6973 19.8477C23.7676 19.8008 23.834 19.7578 23.8965 19.7188C23.959 19.6719 24.0254 19.6289 24.0957 19.5898C24.1738 19.5508 24.2598 19.5273 24.3535 19.5195C24.4863 19.3633 24.623 19.207 24.7637 19.0508C24.9121 18.8945 25.084 18.7695 25.2793 18.6758C25.3105 18.5977 25.3457 18.5312 25.3848 18.4766C25.4238 18.4141 25.459 18.3555 25.4902 18.3008C25.5293 18.2383 25.5605 18.1758 25.584 18.1133C25.6074 18.043 25.6191 17.9609 25.6191 17.8672ZM34.4902 18.5469V18.5938C34.4355 18.6094 34.4082 18.6484 34.4082 18.7109C34.3223 18.75 34.2324 18.7812 34.1387 18.8047C34.0449 18.8203 33.9551 18.8477 33.8691 18.8867C33.7832 18.8789 33.6934 18.875 33.5996 18.875C33.5137 18.8672 33.4277 18.8633 33.3418 18.8633C33.1074 18.8633 32.873 18.8711 32.6387 18.8867C32.4043 18.9023 32.1699 18.9023 31.9355 18.8867C31.8262 18.9492 31.7051 19 31.5723 19.0391C31.4473 19.0703 31.3262 19.0859 31.209 19.0859C31.1152 19.0859 31.0332 19.0742 30.9629 19.0508C30.7754 19.1445 30.5684 19.2227 30.3418 19.2852C30.123 19.3477 29.9004 19.4102 29.6738 19.4727C29.4473 19.5273 29.2285 19.5938 29.0176 19.6719C28.8145 19.7422 28.6348 19.8438 28.4785 19.9766C28.4629 20.0859 28.4512 20.1953 28.4434 20.3047C28.4355 20.4062 28.4316 20.5078 28.4316 20.6094C28.4316 20.7188 28.4355 20.8203 28.4434 20.9141C28.459 21.0078 28.4863 21.1016 28.5254 21.1953C28.5645 21.2109 28.6074 21.2227 28.6543 21.2305C28.709 21.2383 28.7559 21.2422 28.7949 21.2422C28.834 21.2422 28.873 21.2383 28.9121 21.2305C28.9512 21.2148 28.9785 21.1875 28.9941 21.1484C29.1113 21.1328 29.2285 21.1289 29.3457 21.1367C29.4629 21.1367 29.5801 21.1367 29.6973 21.1367C29.8145 21.1367 29.9277 21.1328 30.0371 21.125C30.1543 21.1172 30.2676 21.0977 30.377 21.0664C30.502 21.0352 30.623 21.0156 30.7402 21.0078C30.8652 21 30.9863 20.9922 31.1035 20.9844C31.2207 20.9766 31.3418 20.9648 31.4668 20.9492C31.5918 20.9258 31.7207 20.8828 31.8535 20.8203C31.9551 20.8594 32.0566 20.8789 32.1582 20.8789C32.2676 20.8789 32.373 20.8867 32.4746 20.9023C32.5293 20.9414 32.5723 20.9844 32.6035 21.0312C32.6426 21.0781 32.6621 21.1328 32.6621 21.1953C32.6621 21.3047 32.623 21.4141 32.5449 21.5234C32.4668 21.6328 32.4043 21.7344 32.3574 21.8281H32.2285C32.041 21.8281 31.8574 21.8555 31.6777 21.9102C31.5059 21.957 31.3301 22.0156 31.1504 22.0859C30.9785 22.1484 30.8027 22.207 30.623 22.2617C30.4512 22.3086 30.2715 22.332 30.084 22.332C30.0527 22.332 30.0332 22.3516 30.0254 22.3906C30.0254 22.4219 30.0176 22.4453 30.002 22.4609C29.9629 22.4531 29.9043 22.4492 29.8262 22.4492C29.6465 22.4492 29.4746 22.4688 29.3105 22.5078C29.1465 22.5469 28.9785 22.5664 28.8066 22.5664C28.7598 22.5664 28.7129 22.5664 28.666 22.5664C28.6191 22.5586 28.5723 22.5508 28.5254 22.543C28.4863 22.6055 28.4355 22.6484 28.373 22.6719C28.3105 22.6875 28.252 22.7188 28.1973 22.7656C28.1738 22.8359 28.1582 22.9219 28.1504 23.0234C28.1504 23.125 28.1465 23.2305 28.1387 23.3398C28.1387 23.4414 28.1309 23.5391 28.1152 23.6328C28.0996 23.7266 28.0684 23.8008 28.0215 23.8555C28.0293 23.8945 28.0605 23.9102 28.1152 23.9023C28.1699 23.8867 28.1973 23.9102 28.1973 23.9727C28.1973 24.043 28.1895 24.1172 28.1738 24.1953C28.1582 24.2734 28.1504 24.3516 28.1504 24.4297C28.1504 24.5781 28.166 24.7422 28.1973 24.9219C28.2363 25.0938 28.291 25.2539 28.3613 25.4023C28.4395 25.5508 28.541 25.6758 28.666 25.7773C28.791 25.8711 28.9473 25.918 29.1348 25.918C29.2598 25.918 29.377 25.8945 29.4863 25.8477C29.5957 25.8008 29.6855 25.7227 29.7559 25.6133L29.8145 25.6016C29.8457 25.6016 29.873 25.6055 29.8965 25.6133C29.9277 25.6211 29.959 25.625 29.9902 25.625C30.0371 25.625 30.0957 25.5977 30.166 25.543C30.2441 25.4805 30.3262 25.4102 30.4121 25.332C30.5059 25.2539 30.5996 25.1797 30.6934 25.1094C30.7871 25.0312 30.877 24.9766 30.9629 24.9453C31.0176 24.8359 31.0684 24.7266 31.1152 24.6172C31.1699 24.5078 31.248 24.4219 31.3496 24.3594V24.0195C31.4277 23.9336 31.5098 23.8555 31.5957 23.7852C31.6895 23.7148 31.7598 23.625 31.8066 23.5156C31.8457 23.5312 31.8809 23.543 31.9121 23.5508C31.9512 23.5586 31.9902 23.5625 32.0293 23.5625C32.0684 23.5625 32.1074 23.5586 32.1465 23.5508C32.1934 23.543 32.2363 23.5312 32.2754 23.5156C32.3379 23.6016 32.3848 23.6992 32.416 23.8086C32.4551 23.9102 32.502 24.0078 32.5566 24.1016C32.4863 24.2422 32.4043 24.4102 32.3105 24.6055C32.2168 24.8008 32.1152 24.9961 32.0059 25.1914C31.8965 25.3867 31.7793 25.5742 31.6543 25.7539C31.5371 25.9258 31.4199 26.0586 31.3027 26.1523C31.2793 26.1758 31.2285 26.2031 31.1504 26.2344C31.0645 26.2969 30.9863 26.3555 30.916 26.4102C30.8457 26.4727 30.7793 26.543 30.7168 26.6211C30.4902 26.6914 30.2715 26.7852 30.0605 26.9023C29.8574 27.0195 29.6543 27.1328 29.4512 27.2422C29.3574 27.2188 29.2559 27.207 29.1465 27.207C29.0527 27.207 28.959 27.2109 28.8652 27.2188C28.7715 27.2344 28.6699 27.2422 28.5605 27.2422C28.5293 27.2031 28.4824 27.1758 28.4199 27.1602C28.3652 27.1523 28.3457 27.1133 28.3613 27.043C28.0957 27.0273 27.8809 26.9531 27.7168 26.8203C27.5527 26.6953 27.4121 26.5391 27.2949 26.3516C27.1855 26.1641 27.0957 25.9609 27.0254 25.7422C26.9551 25.5234 26.8809 25.3125 26.8027 25.1094V25.0742C26.8027 25.0352 26.8184 25.0117 26.8496 25.0039C26.8809 24.9961 26.8965 24.9727 26.8965 24.9336C26.8965 24.918 26.8926 24.9062 26.8848 24.8984C26.8613 24.8125 26.8418 24.7383 26.8262 24.6758C26.8105 24.6133 26.8027 24.5391 26.8027 24.4531C26.8027 24.3281 26.8105 24.207 26.8262 24.0898C26.8418 23.9648 26.8496 23.8398 26.8496 23.7148C26.8496 23.5898 26.834 23.4805 26.8027 23.3867C26.834 23.3477 26.8613 23.2969 26.8848 23.2344C26.9004 23.1641 26.9121 23.0938 26.9199 23.0234C26.9277 22.9531 26.9316 22.8828 26.9316 22.8125C26.9395 22.7422 26.9512 22.6797 26.9668 22.625C26.9355 22.5391 26.9082 22.4648 26.8848 22.4023C26.8613 22.332 26.8496 22.25 26.8496 22.1562V22.0742C26.9277 21.9414 26.9941 21.8047 27.0488 21.6641C27.1035 21.5234 27.1621 21.3789 27.2246 21.2305V21.1953C27.2246 20.9688 27.2168 20.7422 27.2012 20.5156C27.1855 20.2891 27.1777 20.0625 27.1777 19.8359V19.6133C27.1777 19.5352 27.1816 19.4609 27.1895 19.3906C27.252 19.3594 27.2988 19.3164 27.3301 19.2617C27.3613 19.207 27.4082 19.1641 27.4707 19.1328H27.8574L27.9277 19.0156C27.9512 18.9766 27.9668 18.9336 27.9746 18.8867C28.0605 18.8633 28.1426 18.832 28.2207 18.793C28.3066 18.7461 28.3848 18.6992 28.4551 18.6523C28.5645 18.5898 28.6621 18.5352 28.748 18.4883C28.8418 18.4336 28.9316 18.3906 29.0176 18.3594C29.1113 18.3203 29.209 18.2891 29.3105 18.2656C29.4121 18.2422 29.5293 18.2227 29.6621 18.207C29.7246 18.207 29.7637 18.1953 29.7793 18.1719C29.8027 18.1484 29.834 18.1211 29.873 18.0898C29.9668 18.1055 30.0605 18.1211 30.1543 18.1367C30.248 18.1445 30.3418 18.1484 30.4355 18.1484C30.623 18.1484 30.7988 18.1133 30.9629 18.043C31.1973 18.043 31.4277 18.0391 31.6543 18.0312C31.8887 18.0234 32.123 18.0195 32.3574 18.0195C32.5605 18.0195 32.7637 18.0273 32.9668 18.043C33.1699 18.0586 33.3691 18.0859 33.5645 18.125C33.6348 18.1016 33.7129 18.0898 33.7988 18.0898C33.8926 18.0898 33.9863 18.1016 34.0801 18.125C34.1816 18.1406 34.2793 18.1406 34.373 18.125C34.3809 18.2109 34.4004 18.2852 34.4316 18.3477C34.4707 18.4023 34.4902 18.4688 34.4902 18.5469ZM45.0488 17.9375C45.0488 18.0078 45.0176 18.0664 44.9551 18.1133C44.9004 18.1602 44.873 18.1953 44.873 18.2188C44.873 18.2656 44.8809 18.3008 44.8965 18.3242C44.9121 18.3398 44.9199 18.3594 44.9199 18.3828V18.4414C44.8418 18.5195 44.7832 18.6055 44.7441 18.6992C44.7051 18.7852 44.6738 18.8789 44.6504 18.9805C44.627 19.0742 44.6035 19.1719 44.5801 19.2734C44.5645 19.375 44.541 19.4727 44.5098 19.5664C44.4707 19.6602 44.4199 19.7422 44.3574 19.8125C44.2949 19.875 44.2441 19.9492 44.2051 20.0352C44.1426 20.1758 44.0957 20.3203 44.0645 20.4688C44.0332 20.6172 43.9668 20.7539 43.8652 20.8789V20.9375C43.8574 20.9922 43.873 21.0391 43.9121 21.0781C43.7637 21.2734 43.6465 21.5078 43.5605 21.7812C43.4746 22.0469 43.4043 22.3281 43.3496 22.625C43.2949 22.9141 43.248 23.207 43.209 23.5039C43.1699 23.793 43.123 24.0547 43.0684 24.2891C43.1074 24.4609 43.166 24.625 43.2441 24.7812C43.3301 24.9297 43.4121 25.0859 43.4902 25.25C43.6465 25.2891 43.7949 25.3438 43.9355 25.4141C44.084 25.4844 44.1895 25.5977 44.252 25.7539C44.2363 25.9102 44.1855 26.0312 44.0996 26.1172C44.0137 26.2031 43.9082 26.293 43.7832 26.3867C43.6973 26.3555 43.627 26.3281 43.5723 26.3047C43.5176 26.2891 43.4355 26.2891 43.3262 26.3047C43.1777 26.1875 43.0371 26.0938 42.9043 26.0234C42.7793 25.9531 42.666 25.832 42.5645 25.6602C42.5488 25.6367 42.5254 25.625 42.4941 25.625H42.3887C42.3496 25.5312 42.3027 25.4336 42.248 25.332C42.1934 25.2227 42.1387 25.1133 42.084 25.0039C42.0293 24.8867 41.9824 24.7734 41.9434 24.6641C41.9043 24.5469 41.8848 24.4414 41.8848 24.3477C41.8848 23.9492 41.9199 23.5547 41.9902 23.1641C42.0684 22.7656 42.1074 22.3633 42.1074 21.957V21.8398C41.9512 21.8789 41.7949 21.9336 41.6387 22.0039C41.4902 22.0742 41.3379 22.1289 41.1816 22.168C41.127 22.1836 41.0957 22.2109 41.0879 22.25C41.0801 22.2891 41.0566 22.3203 41.0176 22.3438C40.9395 22.3516 40.8652 22.3594 40.7949 22.3672C40.7246 22.3672 40.6582 22.3672 40.5957 22.3672C40.4629 22.3672 40.3223 22.3633 40.1738 22.3555C40.0332 22.3398 39.8926 22.3125 39.752 22.2734C39.6113 22.2344 39.4785 22.1797 39.3535 22.1094C39.2363 22.0391 39.1309 21.9492 39.0371 21.8398C39.0215 21.8477 39.002 21.8555 38.9785 21.8633C38.9551 21.8711 38.9316 21.875 38.9082 21.875C38.8848 21.875 38.8613 21.8711 38.8379 21.8633C38.8145 21.8555 38.7949 21.8477 38.7793 21.8398C38.7168 21.7539 38.666 21.6602 38.627 21.5586L38.5098 21.2539C38.4707 21.1523 38.4277 21.0547 38.3809 20.9609C38.334 20.8672 38.2715 20.7812 38.1934 20.7031C38.1699 20.5625 38.1582 20.4258 38.1582 20.293C38.1582 20.1523 38.1699 20.0156 38.1934 19.8828C38.209 19.75 38.2363 19.6172 38.2754 19.4844C38.2441 19.3906 38.2246 19.293 38.2168 19.1914C38.2012 19.0898 38.1934 18.9883 38.1934 18.8867C38.1934 18.7695 38.2051 18.6484 38.2285 18.5234C38.252 18.3984 38.291 18.2852 38.3457 18.1836C38.4004 18.0742 38.4785 17.9844 38.5801 17.9141C38.6738 17.8438 38.791 17.8086 38.9316 17.8086C39.0879 17.8086 39.2324 17.8516 39.3652 17.9375C39.498 18.0156 39.627 18.0977 39.752 18.1836C39.7676 18.2773 39.7793 18.3711 39.7871 18.4648C39.7949 18.5508 39.7988 18.6445 39.7988 18.7461C39.7988 18.9336 39.7871 19.125 39.7637 19.3203C39.748 19.5078 39.7402 19.6992 39.7402 19.8945C39.7402 20.0977 39.7637 20.2891 39.8105 20.4688C39.8652 20.6406 39.959 20.8047 40.0918 20.9609H40.1387C40.2012 20.9531 40.2559 20.9648 40.3027 20.9961C40.3496 21.0273 40.4043 21.043 40.4668 21.043C40.5215 21.043 40.5645 21.0234 40.5957 20.9844C40.627 20.9375 40.666 20.9141 40.7129 20.9141C40.7598 20.9141 40.7949 20.9219 40.8184 20.9375C40.8418 20.9531 40.8613 20.9609 40.877 20.9609C40.9629 20.9609 41.0605 20.9297 41.1699 20.8672C41.2793 20.8047 41.3496 20.7344 41.3809 20.6562C41.4121 20.6797 41.4512 20.6914 41.498 20.6914C41.5605 20.6914 41.6191 20.6719 41.6738 20.6328C41.7285 20.5938 41.7988 20.5742 41.8848 20.5742C41.9316 20.5742 41.9473 20.5469 41.9316 20.4922C41.9238 20.4297 41.9395 20.3906 41.9785 20.375C42.0723 20.3359 42.1738 20.2812 42.2832 20.2109C42.4004 20.1328 42.4941 20.0859 42.5645 20.0703C42.6035 19.9688 42.6504 19.875 42.7051 19.7891C42.7676 19.6953 42.8301 19.6094 42.8926 19.5312C42.916 19.3516 42.9629 19.1797 43.0332 19.0156C43.1035 18.8516 43.1777 18.6875 43.2559 18.5234C43.334 18.3594 43.4082 18.1953 43.4785 18.0312C43.5488 17.8672 43.5957 17.6953 43.6191 17.5156C43.7051 17.4297 43.7715 17.3359 43.8184 17.2344C43.873 17.1328 43.9199 17.0312 43.959 16.9297C44.0371 16.9062 44.1348 16.8945 44.252 16.8945C44.3691 16.8867 44.4707 16.8828 44.5566 16.8828H44.7559C44.7793 16.9297 44.8105 16.9727 44.8496 17.0117L44.9668 17.1289C44.8965 17.2383 44.8613 17.3477 44.8613 17.457C44.8613 17.543 44.8809 17.6289 44.9199 17.7148C44.959 17.793 45.002 17.8672 45.0488 17.9375ZM52.6777 19.2148C52.6309 19.2852 52.6035 19.3633 52.5957 19.4492C52.5879 19.5352 52.584 19.6133 52.584 19.6836C52.584 19.7773 52.584 19.8711 52.584 19.9648C52.5918 20.0508 52.5957 20.1367 52.5957 20.2227V20.3984C52.5801 20.4531 52.5566 20.5078 52.5254 20.5625C52.4941 20.6172 52.4707 20.6719 52.4551 20.7266C52.3457 21.0156 52.291 21.3047 52.291 21.5938V21.6172C52.252 21.7109 52.2129 21.7969 52.1738 21.875C52.1426 21.9531 52.1113 22.0312 52.0801 22.1094C52.0488 22.1797 52.0254 22.2578 52.0098 22.3438C51.9941 22.4219 51.9902 22.5156 51.998 22.625C51.8887 22.8984 51.7441 23.1484 51.5645 23.375C51.3848 23.5938 51.209 23.8203 51.0371 24.0547C50.873 24.1172 50.7207 24.1992 50.5801 24.3008C50.4473 24.4023 50.3184 24.5156 50.1934 24.6406C49.9512 24.7188 49.7129 24.8086 49.4785 24.9102C49.2441 25.0117 49.0332 25.1484 48.8457 25.3203C48.6973 25.3359 48.5488 25.3594 48.4004 25.3906C48.252 25.4219 48.1074 25.4688 47.9668 25.5312H47.8262C47.7559 25.5312 47.7051 25.5156 47.6738 25.4844C47.5723 25.5391 47.4668 25.5781 47.3574 25.6016C47.248 25.6172 47.1387 25.625 47.0293 25.625C46.8887 25.625 46.748 25.6172 46.6074 25.6016C46.4746 25.5781 46.3379 25.5547 46.1973 25.5312C46.1191 25.4219 46.0098 25.3398 45.8691 25.2852C45.7285 25.2227 45.6035 25.1641 45.4941 25.1094C45.2676 24.7969 45.1035 24.4961 45.002 24.207C44.9004 23.9102 44.7949 23.5781 44.6855 23.2109C44.7012 23.1016 44.7285 22.9961 44.7676 22.8945C44.8066 22.7852 44.8223 22.668 44.8145 22.543C44.9551 22.1367 45.1387 21.7695 45.3652 21.4414C45.5996 21.1055 45.8652 20.7852 46.1621 20.4805C46.1621 20.4336 46.1699 20.3945 46.1855 20.3633C46.209 20.332 46.2129 20.2852 46.1973 20.2227C46.2051 20.2305 46.2207 20.2344 46.2441 20.2344C46.3066 20.2344 46.3457 20.2188 46.3613 20.1875C46.377 20.1484 46.3809 20.1055 46.373 20.0586C46.6543 19.8789 46.9082 19.6719 47.1348 19.4375C47.3691 19.2031 47.6348 19.0078 47.9316 18.8516C47.9551 18.7812 47.9941 18.7227 48.0488 18.6758C48.1035 18.6289 48.1465 18.5742 48.1777 18.5117C48.4277 18.4414 48.6543 18.3359 48.8574 18.1953C49.0605 18.0547 49.2754 17.9297 49.502 17.8203C49.627 17.75 49.7441 17.7031 49.8535 17.6797C49.9707 17.6484 50.0957 17.6172 50.2285 17.5859C50.2754 17.5703 50.3184 17.5586 50.3574 17.5508C50.3965 17.543 50.4395 17.5391 50.4863 17.5391C50.627 17.5391 50.7637 17.5664 50.8965 17.6211C51.0293 17.668 51.166 17.6914 51.3066 17.6914C51.3457 17.6914 51.377 17.6914 51.4004 17.6914C51.4316 17.6836 51.4629 17.6758 51.4941 17.668C51.627 17.832 51.7949 17.957 51.998 18.043C52.0449 18.1602 52.0996 18.2617 52.1621 18.3477C52.2324 18.4336 52.3027 18.5195 52.373 18.6055C52.4434 18.6836 52.5059 18.7734 52.5605 18.875C52.623 18.9688 52.6621 19.082 52.6777 19.2148ZM51.5059 19.8242C51.5059 19.7852 51.502 19.75 51.4941 19.7188C51.416 19.6953 51.3418 19.6641 51.2715 19.625C51.2012 19.5859 51.123 19.5664 51.0371 19.5664C50.9824 19.5664 50.9277 19.5781 50.873 19.6016C50.8652 19.5469 50.8418 19.5078 50.8027 19.4844C50.7715 19.4609 50.7324 19.4414 50.6855 19.4258C50.6465 19.4023 50.6035 19.3867 50.5566 19.3789C50.5176 19.3633 50.4824 19.3398 50.4512 19.3086C50.4277 19.2461 50.4004 19.1836 50.3691 19.1211C50.3457 19.0508 50.2988 19 50.2285 18.9688C50.1582 19.0391 50.0762 19.0977 49.9824 19.1445C49.8887 19.1836 49.791 19.2227 49.6895 19.2617C49.5957 19.3008 49.502 19.3477 49.4082 19.4023C49.3223 19.457 49.248 19.5234 49.1855 19.6016H48.9746C48.9277 19.6875 48.8613 19.7539 48.7754 19.8008C48.6895 19.8398 48.6152 19.8984 48.5527 19.9766C48.4277 20.0391 48.3105 20.1172 48.2012 20.2109C48.0996 20.2969 47.998 20.3906 47.8965 20.4922C47.7949 20.5859 47.6934 20.6836 47.5918 20.7852C47.498 20.8867 47.3965 20.9805 47.2871 21.0664C47.1855 21.2852 47.0723 21.4766 46.9473 21.6406C46.8301 21.7969 46.7168 21.957 46.6074 22.1211C46.5059 22.2852 46.416 22.4648 46.3379 22.6602C46.2676 22.8477 46.2324 23.082 46.2324 23.3633V23.4805C46.2324 23.5195 46.2363 23.5586 46.2441 23.5977C46.3457 23.707 46.4277 23.8242 46.4902 23.9492C46.5605 24.0742 46.6738 24.1641 46.8301 24.2188C46.9863 24.2812 47.1504 24.3086 47.3223 24.3008C47.502 24.293 47.6738 24.3125 47.8379 24.3594C48.2129 24.2891 48.5723 24.1758 48.916 24.0195C49.2676 23.8555 49.5996 23.6602 49.9121 23.4336C49.959 23.3945 50.0137 23.3555 50.0762 23.3164C50.1387 23.2695 50.1895 23.2227 50.2285 23.1758C50.2676 23.1367 50.2988 23.0938 50.3223 23.0469C50.3535 23 50.3848 22.957 50.416 22.918C50.4785 22.8164 50.5488 22.7148 50.627 22.6133C50.7051 22.5117 50.7871 22.418 50.873 22.332C50.9121 22.1602 50.9629 21.9961 51.0254 21.8398C51.0879 21.6758 51.1504 21.5156 51.2129 21.3594C51.2754 21.2031 51.3262 21.043 51.3652 20.8789C51.4121 20.7148 51.4355 20.543 51.4355 20.3633C51.4355 20.3242 51.4316 20.2812 51.4238 20.2344C51.4238 20.1875 51.4199 20.1445 51.4121 20.1055C51.4746 20.0195 51.5059 19.9258 51.5059 19.8242ZM60.7871 24.1016C60.7559 24.2188 60.7051 24.3164 60.6348 24.3945C60.5645 24.4727 60.4824 24.543 60.3887 24.6055C60.3027 24.668 60.209 24.7266 60.1074 24.7812C60.0059 24.8281 59.9082 24.8828 59.8145 24.9453H59.6621C59.334 24.9453 59.0801 24.8672 58.9004 24.7109C58.7285 24.5469 58.5957 24.3477 58.502 24.1133C58.4082 23.8711 58.3379 23.6133 58.291 23.3398C58.252 23.0664 58.2012 22.8164 58.1387 22.5898C58.0449 22.668 57.9668 22.7617 57.9043 22.8711C57.8418 22.9727 57.7754 23.0742 57.7051 23.1758C57.6426 23.2773 57.5684 23.3711 57.4824 23.457C57.4043 23.543 57.2988 23.6016 57.166 23.6328C57.1426 23.6875 57.1152 23.7422 57.084 23.7969C57.0605 23.8516 57.0449 23.9102 57.0371 23.9727C56.8652 24.0664 56.709 24.1758 56.5684 24.3008C56.4277 24.4258 56.2871 24.5547 56.1465 24.6875C56.0059 24.8203 55.8613 24.9492 55.7129 25.0742C55.5723 25.1914 55.4121 25.2891 55.2324 25.3672C55.2246 25.3594 55.209 25.3555 55.1855 25.3555C55.0918 25.3555 55.0059 25.3789 54.9277 25.4258C54.8496 25.4648 54.7637 25.4844 54.6699 25.4844C54.6074 25.4844 54.5488 25.4727 54.4941 25.4492C54.4473 25.4258 54.3965 25.3984 54.3418 25.3672C54.2949 25.3359 54.2441 25.3125 54.1895 25.2969C54.1348 25.2812 54.0762 25.2773 54.0137 25.2852C53.9355 25.1445 53.8301 25.0156 53.6973 24.8984C53.5723 24.7734 53.4941 24.6328 53.4629 24.4766C53.4473 24.4062 53.4355 24.3359 53.4277 24.2656C53.4277 24.1875 53.4199 24.1094 53.4043 24.0312C53.3809 23.9141 53.3496 23.7969 53.3105 23.6797C53.2715 23.5547 53.2402 23.4297 53.2168 23.3047C53.2559 23.0938 53.2949 22.8633 53.334 22.6133C53.3652 22.3555 53.4043 22.1016 53.4512 21.8516C53.5059 21.5938 53.5762 21.3516 53.6621 21.125C53.7559 20.8906 53.873 20.6914 54.0137 20.5273L54.002 20.4453C54.002 20.3203 54.0254 20.2031 54.0723 20.0938C54.1191 19.9844 54.1699 19.8789 54.2246 19.7773C54.2793 19.6758 54.3262 19.5742 54.3652 19.4727C54.4043 19.3711 54.4121 19.2578 54.3887 19.1328C54.4824 19.0859 54.5801 19.0469 54.6816 19.0156C54.7832 18.9844 54.8887 18.9688 54.998 18.9688C55.0996 18.9688 55.1934 18.9844 55.2793 19.0156C55.2637 19.0781 55.291 19.1172 55.3613 19.1328V19.168C55.3613 19.332 55.3418 19.4922 55.3027 19.6484C55.2637 19.8047 55.2168 19.9609 55.1621 20.1172C55.1074 20.2656 55.0527 20.418 54.998 20.5742C54.9512 20.7227 54.916 20.875 54.8926 21.0312C54.8613 21.0391 54.8379 21.0547 54.8223 21.0781C54.8145 21.1016 54.8066 21.125 54.7988 21.1484C54.791 21.1719 54.7793 21.1914 54.7637 21.207C54.748 21.2227 54.7246 21.2305 54.6934 21.2305C54.6465 21.5039 54.5957 21.7773 54.541 22.0508C54.4941 22.3164 54.4707 22.5859 54.4707 22.8594C54.4707 23.0234 54.4863 23.1914 54.5176 23.3633C54.5488 23.5352 54.6074 23.6992 54.6934 23.8555L54.7402 23.8438C54.8262 23.8438 54.8926 23.8633 54.9395 23.9023C54.9941 23.9414 55.0645 23.9805 55.1504 24.0195C55.2129 24.0039 55.2715 23.9844 55.3262 23.9609C55.3809 23.9297 55.4043 23.8789 55.3965 23.8086C55.498 23.8008 55.584 23.7773 55.6543 23.7383C55.7246 23.6914 55.7871 23.6406 55.8418 23.5859L56.0176 23.4219C56.0801 23.3672 56.1543 23.3281 56.2402 23.3047C56.2402 23.2578 56.252 23.2227 56.2754 23.1992L56.3457 23.1289C56.3691 23.1055 56.3848 23.082 56.3926 23.0586C56.4082 23.0273 56.4121 22.9844 56.4043 22.9297C56.498 22.9219 56.5684 22.8984 56.6152 22.8594C56.6699 22.8203 56.7168 22.7773 56.7559 22.7305C56.8027 22.6758 56.8457 22.6211 56.8848 22.5664C56.9238 22.5117 56.9746 22.4648 57.0371 22.4258C57.0918 22.3086 57.166 22.1523 57.2598 21.957C57.3613 21.7617 57.459 21.5586 57.5527 21.3477C57.6543 21.1367 57.7402 20.9375 57.8105 20.75C57.8887 20.5547 57.9277 20.4062 57.9277 20.3047C57.9277 20.2656 57.916 20.2305 57.8926 20.1992C57.877 20.168 57.873 20.1328 57.8809 20.0938V20.0586C57.9434 19.9805 57.998 19.8945 58.0449 19.8008C58.0996 19.707 58.1543 19.6172 58.209 19.5312C58.2715 19.4453 58.3379 19.3672 58.4082 19.2969C58.4785 19.2266 58.5684 19.1719 58.6777 19.1328C58.8027 19.1719 58.9277 19.1992 59.0527 19.2148C59.1855 19.2305 59.3105 19.2617 59.4277 19.3086C59.4355 19.5039 59.4551 19.7305 59.4863 19.9883C59.5176 20.2461 59.5723 20.4648 59.6504 20.6445C59.6504 20.7461 59.6465 20.8438 59.6387 20.9375C59.6387 21.0312 59.6387 21.125 59.6387 21.2188C59.6387 21.375 59.6426 21.5352 59.6504 21.6992C59.666 21.8633 59.6934 22.0156 59.7324 22.1562C59.6777 22.2734 59.6504 22.3984 59.6504 22.5312C59.6504 22.7109 59.6777 22.8828 59.7324 23.0469C59.7871 23.2031 59.8262 23.3711 59.8496 23.5508C59.9512 23.6914 60.084 23.7617 60.248 23.7617C60.2871 23.7617 60.3184 23.7578 60.3418 23.75C60.373 23.7422 60.4043 23.7305 60.4355 23.7148C60.498 23.7852 60.5527 23.8555 60.5996 23.9258C60.6543 23.9883 60.7168 24.0469 60.7871 24.1016Z" fill="#BBF55A"/>
</svg>
