<svg viewBox="0 0 32 32" fill="none" xmlns="http://www.w3.org/2000/svg">
<path d="M24.789 10.3812L18.2879 11.0591L11.3581 7.66999V2.14046C11.3581 0.963208 10.3936 0 9.21486 0H8.50045C7.32167 0 6.35722 0.963208 6.35722 2.14046V5.92195C5.53565 6.10032 4.78552 6.63543 4.39259 7.45595L0.284732 15.7681C-0.393958 17.195 0.17757 18.9074 1.60639 19.5852L11.6796 24.5083L15.1445 30.0378C15.2873 30.2519 15.5017 30.3589 15.7517 30.3589H15.7874C16.0375 30.3589 16.2875 30.1805 16.3947 29.9665L18.9308 24.8294C19.5024 25.0434 20.0739 25.1504 20.6454 25.1504C22.36 25.1504 24.0032 24.1872 24.8247 22.5462C25.8963 20.3701 25.0748 17.7302 23.003 16.5172L25.5391 11.3801C25.6463 11.1304 25.6463 10.8807 25.4677 10.6666C25.2891 10.4883 25.0391 10.3812 24.789 10.3812ZM7.78604 2.14046C7.78604 1.74804 8.10753 1.42698 8.50045 1.42698H9.21486C9.60779 1.42698 9.92927 1.74804 9.92927 2.14046V10.8807C9.60779 10.7737 9.21486 10.7023 8.85766 10.7023C8.50045 10.7023 8.10753 10.7737 7.78604 10.8807V2.14046ZM8.85766 12.1293C9.85783 12.1293 10.6437 12.9141 10.6437 13.913C10.6437 14.9119 9.85783 15.6967 8.85766 15.6967C7.85748 15.6967 7.07163 14.9119 7.07163 13.913C7.07163 12.9141 7.85748 12.1293 8.85766 12.1293ZM2.24936 18.301C1.53495 17.9442 1.24919 17.088 1.60639 16.4102L5.67853 8.09808C5.82141 7.77701 6.07146 7.56297 6.35722 7.42027V11.9152C5.92857 12.4504 5.64281 13.1638 5.64281 13.913C5.64281 15.6967 7.07163 17.1237 8.85766 17.1237C10.6437 17.1237 12.0725 15.6967 12.0725 13.913C12.0725 13.1638 11.7867 12.4504 11.3581 11.9152V9.27534L17.2163 12.1293L11.8582 23.01L2.24936 18.301ZM23.5031 21.9754C22.7887 23.4737 21.0384 24.1159 19.5381 23.5808L22.36 17.8372C23.7174 18.6934 24.2532 20.4771 23.5031 21.9754ZM15.6803 28.2184L13.0012 23.9375L18.6094 12.486L23.646 11.9509L15.6803 28.2184Z" fill="#BBF55A"/>
<path d="M30.8617 24.7578L27.6468 23.1881C27.2896 23.0097 26.861 23.1524 26.6824 23.5092C26.5038 23.8659 26.6466 24.294 27.0038 24.4724L30.2187 26.0421C30.3259 26.0777 30.433 26.1134 30.5402 26.1134C30.7902 26.1134 31.076 25.9707 31.1832 25.721C31.3618 25.3286 31.1832 24.9005 30.8617 24.7578Z" fill="#BBF55A"/>
<path d="M23.718 27.6476C23.5751 27.2908 23.1822 27.0768 22.825 27.2195C22.4678 27.3622 22.2534 27.7546 22.3963 28.1114L23.5751 31.5004C23.6823 31.7858 23.968 31.9999 24.2538 31.9999C24.3252 31.9999 24.3967 31.9999 24.5038 31.9642C24.861 31.8215 25.0754 31.4291 24.9325 31.0723L23.718 27.6476Z" fill="#BBF55A"/>
<path d="M31.9688 16.588C31.826 16.2313 31.433 16.0172 31.0758 16.1599L27.6824 17.3372C27.3252 17.4799 27.1109 17.8723 27.2537 18.2291C27.3609 18.5145 27.6467 18.7285 27.9324 18.7285C28.0039 18.7285 28.0753 18.7285 28.1825 18.6929L31.5759 17.5156C31.8974 17.3372 32.076 16.9448 31.9688 16.588Z" fill="#BBF55A"/>
</svg>
