<svg width="25" height="25" viewBox="0 0 25 25" fill="none" xmlns="http://www.w3.org/2000/svg">
<path d="M16.4336 11.2031C18.0936 11.2031 19.4236 9.86312 19.4236 8.20312C19.4236 6.54313 18.0936 5.20312 16.4336 5.20312C14.7736 5.20312 13.4336 6.54313 13.4336 8.20312C13.4336 9.86312 14.7736 11.2031 16.4336 11.2031ZM8.43359 11.2031C10.0936 11.2031 11.4236 9.86312 11.4236 8.20312C11.4236 6.54313 10.0936 5.20312 8.43359 5.20312C6.77359 5.20312 5.43359 6.54313 5.43359 8.20312C5.43359 9.86312 6.77359 11.2031 8.43359 11.2031ZM8.43359 13.2031C6.10359 13.2031 1.43359 14.3731 1.43359 16.7031V19.2031H15.4336V16.7031C15.4336 14.3731 10.7636 13.2031 8.43359 13.2031ZM16.4336 13.2031C16.1436 13.2031 15.8136 13.2231 15.4636 13.2531C16.6236 14.0931 17.4336 15.2231 17.4336 16.7031V19.2031H23.4336V16.7031C23.4336 14.3731 18.7636 13.2031 16.4336 13.2031Z" fill="#00A851"/>
</svg>
