<svg width="29" height="29" viewBox="0 0 29 29" fill="none" xmlns="http://www.w3.org/2000/svg">
<path d="M28.0045 11.5654L25.0665 10.5864C24.9375 10.2194 24.7845 9.85038 24.6075 9.48137L25.9935 6.70138C26.1855 6.31637 26.1095 5.85238 25.8055 5.54838L23.3755 3.11837C23.0715 2.81337 22.6065 2.74038 22.2215 2.93038L19.4505 4.31637C19.0815 4.13937 18.7095 3.98638 18.3375 3.85738L17.3575 0.919375C17.2205 0.509375 16.8385 0.234375 16.4085 0.234375H12.9685C12.5375 0.234375 12.1555 0.509375 12.0195 0.918375L11.0405 3.85638C10.6745 3.98438 10.3055 4.13837 9.93548 4.31537L7.15548 2.92938C6.76848 2.73738 6.30548 2.81337 6.00148 3.11737L3.57148 5.54738C3.26748 5.85138 3.19148 6.31637 3.38348 6.70037L4.76948 9.48038C4.59248 9.85038 4.43848 10.2194 4.31048 10.5854L1.37248 11.5644C0.963477 11.7014 0.688477 12.0834 0.688477 12.5144V15.9544C0.688477 16.3854 0.963477 16.7674 1.37248 16.9024L4.31048 17.8824C4.43948 18.2544 4.59348 18.6264 4.76948 18.9954L3.38348 21.7664C3.19148 22.1514 3.26648 22.6164 3.57148 22.9204L6.00148 25.3504C6.30548 25.6544 6.76848 25.7314 7.15448 25.5384L9.93448 24.1524C10.3045 24.3294 10.6735 24.4824 11.0395 24.6114L12.0185 27.5494C12.1565 27.9594 12.5385 28.2344 12.9685 28.2344H16.4075C16.8385 28.2344 17.2205 27.9594 17.3555 27.5504L18.3355 24.6124C18.7075 24.4834 19.0805 24.3294 19.4485 24.1534L22.2195 25.5394C22.6055 25.7324 23.0685 25.6584 23.3735 25.3514L25.8035 22.9214C26.1085 22.6164 26.1835 22.1514 25.9915 21.7674L24.6055 18.9964C24.7815 18.6284 24.9355 18.2554 25.0645 17.8834L28.0025 16.9034C28.4135 16.7664 28.6885 16.3844 28.6885 15.9544V12.5144C28.6885 12.0834 28.4135 11.7014 28.0045 11.5654ZM26.6885 15.2334L23.9525 16.1464C23.6395 16.2504 23.3995 16.5004 23.3075 16.8174C23.1435 17.3834 22.9085 17.9584 22.6065 18.5234C22.4535 18.8084 22.4495 19.1514 22.5935 19.4414L23.8815 22.0174L22.4715 23.4274L19.8955 22.1394C19.6065 21.9944 19.2625 21.9984 18.9775 22.1524C18.4125 22.4544 17.8375 22.6894 17.2715 22.8534C16.9555 22.9454 16.7045 23.1854 16.6005 23.4984L15.6875 26.2344H13.6895L12.7775 23.4984C12.6735 23.1854 12.4225 22.9454 12.1065 22.8534C11.5545 22.6944 10.9835 22.4584 10.4095 22.1524C10.1245 21.9994 9.78348 21.9954 9.49248 22.1394L6.90748 23.4284L5.49548 22.0174L6.78348 19.4414C6.92848 19.1514 6.92348 18.8084 6.77048 18.5234C6.46848 17.9564 6.23148 17.3824 6.06948 16.8174C5.97848 16.5024 5.73748 16.2504 5.42448 16.1464L2.68848 15.2334V13.2344L5.42448 12.3224C5.73748 12.2184 5.97848 11.9674 6.06948 11.6504C6.22948 11.0934 6.45948 10.5384 6.77148 9.95438C6.92348 9.66838 6.92848 9.32738 6.78448 9.03738L5.49448 6.45238L6.90648 5.04038L9.49148 6.32938C9.78248 6.47338 10.1235 6.46937 10.4085 6.31637C10.9925 6.00437 11.5475 5.77437 12.1045 5.61438C12.4215 5.52338 12.6725 5.28238 12.7765 4.96938L13.6895 2.23438H15.6875L16.6005 4.97038C16.7045 5.28338 16.9555 5.52338 17.2715 5.61538C17.8365 5.77838 18.4105 6.01437 18.9775 6.31637C19.2625 6.46937 19.6065 6.47438 19.8955 6.32938L22.4715 5.04138L23.8825 6.45337L22.5935 9.03837C22.4485 9.32837 22.4535 9.66937 22.6065 9.95537C22.9135 10.5294 23.1485 11.1004 23.3075 11.6524C23.3995 11.9684 23.6395 12.2194 23.9525 12.3234L26.6885 13.2344V15.2334ZM14.6885 8.23438C11.3795 8.23438 8.68848 10.9254 8.68848 14.2344C8.68848 17.5434 11.3795 20.2344 14.6885 20.2344C17.9975 20.2344 20.6885 17.5434 20.6885 14.2344C20.6885 10.9254 17.9975 8.23438 14.6885 8.23438ZM14.6885 18.2344C12.4825 18.2344 10.6885 16.4404 10.6885 14.2344C10.6885 12.0284 12.4825 10.2344 14.6885 10.2344C16.8945 10.2344 18.6885 12.0284 18.6885 14.2344C18.6885 16.4404 16.8945 18.2344 14.6885 18.2344Z" fill="#767676"/>
</svg>
