<?xml version="1.0" encoding="UTF-8"?>
<svg xmlns="http://www.w3.org/2000/svg" xmlns:xlink="http://www.w3.org/1999/xlink" width="25pt" height="25pt" viewBox="0 0 25 25" version="1.1">
<g id="surface1">
<path style=" stroke:none;fill-rule:nonzero;fill:rgb(98.823529%,27.058824%,0%);fill-opacity:1;" d="M 19.644531 1.5 L 5.355469 1.5 C 3.785156 1.5 2.515625 2.601562 2.515625 3.945312 L 2.5 23.5 L 12.5 19.832031 L 22.5 23.5 L 22.5 3.945312 C 22.5 2.601562 21.214844 1.5 19.644531 1.5 Z M 19.644531 19.832031 L 12.5 17.167969 L 5.355469 19.832031 L 5.355469 3.945312 L 19.644531 3.945312 Z M 19.644531 19.832031 "/>
</g>
</svg>
