<svg width="6" height="19" viewBox="0 0 6 19" fill="none" xmlns="http://www.w3.org/2000/svg">
<path d="M0 0.644531H2V2.64453H0V0.644531ZM4 0.644531H6V2.64453H4V0.644531ZM0 4.64453H2V6.64453H0V4.64453ZM4 4.64453H6V6.64453H4V4.64453ZM0 8.64453H2V10.6445H0V8.64453ZM4 8.64453H6V10.6445H4V8.64453ZM0 12.6445H2V14.6445H0V12.6445ZM4 12.6445H6V14.6445H4V12.6445ZM0 16.6445H2V18.6445H0V16.6445ZM4 16.6445H6V18.6445H4V16.6445Z" fill="var(--main-color)"/>
</svg>
