<svg width="13" height="19" viewBox="0 0 13 19" fill="none" xmlns="http://www.w3.org/2000/svg">
<path fill-rule="evenodd" clip-rule="evenodd" d="M12.6393 0.978228C12.2757 0.562592 11.6439 0.520474 11.2283 0.884156L0.886718 9.63672L11.2282 18.3893C11.6439 18.753 12.2756 18.7109 12.6393 18.2952C13.003 17.8796 12.9609 17.2478 12.5452 16.8841L3.88672 9.63672L12.5453 2.38931C12.9609 2.02563 13.003 1.39387 12.6393 0.978228Z" fill="var(--secondary-color)"/>
</svg>
