<svg width="25" height="25" viewBox="0 0 25 25" fill="none" xmlns="http://www.w3.org/2000/svg">
<path d="M11.3848 3.21875C11.3848 2.66647 11.8325 2.21875 12.3848 2.21875C12.9371 2.21875 13.3848 2.66647 13.3848 3.21875V4.21875H20.3848C20.937 4.21875 21.3848 4.66647 21.3848 5.21875C21.3848 5.77103 20.937 6.21875 20.3848 6.21875H4.38477C3.83248 6.21875 3.38477 5.77103 3.38477 5.21875C3.38477 4.66647 3.83248 4.21875 4.38477 4.21875H11.3848V3.21875Z" fill="#A168DF"/>
<path fill-rule="evenodd" clip-rule="evenodd" d="M5.24591 19.4484L4.30505 7.19373H20.4645L19.5236 19.4484C19.4036 21.0116 18.1002 22.2188 16.5324 22.2188H8.23711C6.66933 22.2188 5.36592 21.0116 5.24591 19.4484ZM6.46449 9.19373L7.24004 19.2953C7.28005 19.8164 7.71451 20.2188 8.23711 20.2188H16.5324C17.055 20.2188 17.4895 19.8164 17.5295 19.2953L18.3051 9.19373H6.46449Z" fill="#A168DF"/>
</svg>
