<svg width="32" height="32" viewBox="0 0 32 32" fill="none" xmlns="http://www.w3.org/2000/svg">
<path d="M0 16C0 7.16344 7.16344 0 16 0C24.8366 0 32 7.16344 32 16C32 24.8366 24.8366 32 16 32C7.16344 32 0 24.8366 0 16Z" fill="var(--blackcurrant-color-medium)" fill-opacity="0.15"/>
<path fill-rule="evenodd" clip-rule="evenodd" d="M22 16C22 16.5523 21.5523 17 21 17L11 17C10.4477 17 10 16.5523 10 16C10 15.4477 10.4477 15 11 15L21 15C21.5523 15 22 15.4477 22 16Z" fill="var(--tolopea-medium-color)"/>
<path fill-rule="evenodd" clip-rule="evenodd" d="M16 10C16.5523 10 17 10.4477 17 11L17 21C17 21.5523 16.5523 22 16 22C15.4477 22 15 21.5523 15 21L15 11C15 10.4477 15.4477 10 16 10Z" fill="var(--tolopea-medium-color)"/>
<path d="M16 30C8.26801 30 2 23.732 2 16H-2C-2 25.9411 6.05887 34 16 34V30ZM30 16C30 23.732 23.732 30 16 30V34C25.9411 34 34 25.9411 34 16H30ZM16 2C23.732 2 30 8.26801 30 16H34C34 6.05887 25.9411 -2 16 -2V2ZM16 -2C6.05887 -2 -2 6.05887 -2 16H2C2 8.26801 8.26801 2 16 2V-2Z" fill="var(--tertiary-color)"/>
</svg>
