<svg width="16" height="16" viewBox="0 0 16 16" fill="none" xmlns="http://www.w3.org/2000/svg">
<path d="M13.5091 0.90625H1.84245C0.925781 0.90625 0.175781 1.65625 0.175781 2.57292V14.2396C0.175781 15.1562 0.925781 15.9062 1.84245 15.9062H13.5091C14.4258 15.9062 15.1758 15.1562 15.1758 14.2396V2.57292C15.1758 1.65625 14.4258 0.90625 13.5091 0.90625ZM13.5091 14.2396H1.84245V2.57292H13.5091V14.2396ZM9.30911 8.64792L7.01745 11.5979L5.38411 9.63125L3.09245 12.5729H12.2591L9.30911 8.64792Z" fill="white" fill-opacity="0.6"/>
</svg>
