<?xml version="1.0" encoding="UTF-8"?>
<svg xmlns="http://www.w3.org/2000/svg" xmlns:xlink="http://www.w3.org/1999/xlink" viewBox="0 0 30 30" width="30px" height="30px">
<g id="surface20047020">
<path style=" stroke:none;fill-rule:nonzero;fill:rgb(72.941178%,72.941178%,72.941178%);fill-opacity:1;" d="M 6.703125 2.5 L 2.5 8.296875 L 2.5 25 L 8.75 25 L 8.75 28.75 L 12.5 28.75 L 16.25 25 L 21.25 25 L 27.5 18.75 L 27.5 2.5 Z M 7.5 5 L 25 5 L 25 16.25 L 21.25 20 L 15 20 L 11.25 23.75 L 11.25 20 L 7.5 20 Z M 13.75 8.75 L 13.75 15 L 16.25 15 L 16.25 8.75 Z M 20 8.75 L 20 15 L 22.5 15 L 22.5 8.75 Z M 20 8.75 "/>
</g>
</svg>
