<svg viewBox="0 0 42 34" fill="none" xmlns="http://www.w3.org/2000/svg">
<path d="M33.8889 33.6107V29.4996C33.8889 24.9586 30.2077 21.2773 25.6667 21.2773H9.22222C4.68121 21.2773 1 24.9586 1 29.4996V33.6107" stroke="#BBF55A" stroke-width="2"/>
<path d="M24 8.60938C24 12.4754 20.866 15.6094 17 15.6094C13.134 15.6094 10 12.4754 10 8.60938C10 4.74338 13.134 1.60938 17 1.60938C20.866 1.60938 24 4.74339 24 8.60938Z" stroke="#BBF55A" stroke-width="2"/>
<path d="M40 32.6094V28.5208C39.9973 24.7943 37.53 21.541 34 20.6094" stroke="#BBF55A" stroke-width="2"/>
<path d="M28.832 1.60938C31.7742 2.42801 33.832 5.30897 33.832 8.60937C33.832 11.9098 31.7742 14.7907 28.832 15.6094" stroke="#BBF55A" stroke-width="2"/>
</svg>
