<svg viewBox="0 0 31 35" fill="none" xmlns="http://www.w3.org/2000/svg">
<path d="M21.8501 8.71879C21.8489 8.90978 21.8418 9.09996 21.8287 9.29047C21.8222 9.38453 21.8123 9.47832 21.8023 9.57211C21.7686 9.89014 21.8434 9.30997 21.7941 9.62451C21.7323 10.0189 21.6318 10.4064 21.5081 10.7856C21.4799 10.8721 21.4485 10.9576 21.4172 11.043C21.3986 11.0936 21.2816 11.38 21.4028 11.0933C21.3325 11.2595 21.2532 11.4217 21.1713 11.5822C20.9946 11.9281 20.7852 12.2565 20.5576 12.5709C20.379 12.8177 20.7169 12.3737 20.527 12.6116C20.4714 12.6813 20.4132 12.749 20.3552 12.8167C20.2391 12.952 20.1159 13.0811 19.9906 13.2079C19.8653 13.3347 19.7333 13.4548 19.5994 13.5725C19.5324 13.6313 19.4633 13.6878 19.3943 13.7443C19.2911 13.8262 19.3015 13.8187 19.4254 13.7217C19.3778 13.7575 19.3298 13.7927 19.2814 13.8273C18.9909 14.0376 18.6822 14.2217 18.365 14.3885C18.2053 14.4725 18.0413 14.5478 17.8761 14.62C18.1608 14.4955 17.8767 14.615 17.8258 14.6345C17.7123 14.6777 17.597 14.716 17.4817 14.7537C17.1311 14.868 16.7706 14.9497 16.4073 15.0113C16.0935 15.0645 16.6725 14.9818 16.3549 15.0196C16.2613 15.0307 16.1674 15.0383 16.0734 15.0459C15.8513 15.064 15.6283 15.0681 15.4056 15.0667C15.2154 15.0655 15.0253 15.0537 14.8357 15.0383C14.7419 15.0307 14.6486 15.0196 14.5551 15.0084C14.8738 15.0463 14.5604 15.0052 14.5041 14.9957C14.1112 14.9291 13.7256 14.8241 13.3486 14.696C13.2625 14.6668 13.1776 14.6345 13.0927 14.6021C12.8038 14.4921 13.3269 14.7073 13.0443 14.5838C12.8792 14.5115 12.7181 14.4305 12.5586 14.3466C12.215 14.1659 11.8892 13.9528 11.5778 13.7216C11.8234 13.904 11.5818 13.722 11.5398 13.6878C11.4708 13.6312 11.4037 13.5724 11.3368 13.5136C11.2028 13.3959 11.0752 13.2713 10.9499 13.1445C10.8245 13.0176 10.706 12.8842 10.5899 12.749C10.5318 12.6813 10.4761 12.6116 10.4204 12.5418C10.6195 12.7911 10.3764 12.4749 10.3416 12.4256C10.1346 12.1324 9.95404 11.8214 9.79095 11.502C9.74998 11.4218 9.71187 11.3401 9.67377 11.2584C9.65065 11.2088 9.53408 10.9248 9.65154 11.2121C9.57123 11.0155 9.50282 10.8143 9.43947 10.6116C9.32927 10.2591 9.25183 9.89705 9.19464 9.53236C9.24444 9.84985 9.1969 9.53524 9.19088 9.4786C9.18089 9.3846 9.17439 9.29027 9.16796 9.196C9.1527 8.9734 9.15134 8.75005 9.15551 8.52704C9.15907 8.33727 9.17316 8.14792 9.19088 7.95904C9.19614 7.90281 9.24061 7.58649 9.19464 7.90528C9.20791 7.81313 9.2246 7.7216 9.24129 7.63007C9.31264 7.23864 9.42223 6.85493 9.55467 6.48006C9.58491 6.39448 9.61829 6.30999 9.65161 6.22558C9.53791 6.51365 9.65113 6.22961 9.67384 6.17927C9.74792 6.01516 9.8309 5.85515 9.91662 5.69685C10.002 5.5391 10.0958 5.38607 10.1921 5.23489C10.2402 5.15944 10.2909 5.08576 10.3416 5.01215C10.3756 4.96283 10.6169 4.64384 10.4205 4.89586C10.6398 4.61443 10.8836 4.35284 11.1401 4.10527C11.2684 3.98138 11.4031 3.8644 11.5398 3.74995C11.581 3.71548 11.8218 3.5305 11.5778 3.71602C11.6726 3.64392 11.7703 3.57572 11.8685 3.50813C12.1642 3.30448 12.4776 3.12757 12.7991 2.96818C12.8799 2.92816 12.9622 2.89095 13.0444 2.85387C13.3255 2.72691 12.8052 2.94903 13.0927 2.83554C13.2905 2.75742 13.4929 2.69147 13.6964 2.63052C13.8727 2.57778 14.0517 2.53482 14.2313 2.49514C14.3218 2.47517 14.413 2.45854 14.5042 2.44192C14.5597 2.4318 14.874 2.38726 14.5552 2.42913C14.9639 2.37543 15.3772 2.36284 15.7888 2.3757C15.9781 2.38158 16.1668 2.39807 16.3549 2.41805C16.673 2.45184 16.0929 2.377 16.4073 2.42632C16.4991 2.44069 16.5903 2.45848 16.6814 2.47626C17.0714 2.55233 17.4532 2.66644 17.8258 2.80318C17.8765 2.82179 18.1629 2.93891 17.8761 2.81762C17.9593 2.85278 18.0412 2.89095 18.123 2.92912C18.2861 3.00513 18.4449 3.08995 18.6021 3.17745C18.7587 3.26467 18.9106 3.36016 19.0605 3.45826C19.1353 3.50724 19.2084 3.55882 19.2814 3.6104C19.3251 3.64132 19.5666 3.82636 19.3246 3.63776C19.606 3.85708 19.8676 4.10089 20.1152 4.35735C20.2391 4.48562 20.3561 4.62038 20.4706 4.75706C20.505 4.79824 20.69 5.03904 20.5044 4.79503C20.5585 4.86617 20.6101 4.93916 20.6616 5.01215C20.8685 5.30528 21.0491 5.61627 21.2122 5.9356C21.2532 6.01591 21.2913 6.09759 21.3294 6.17934C21.3526 6.22893 21.4691 6.51289 21.3516 6.22565C21.4204 6.394 21.48 6.56605 21.5364 6.73891C21.6508 7.08951 21.7324 7.44995 21.7941 7.81327C21.8472 8.12712 21.7646 7.54805 21.8023 7.86567C21.8134 7.95932 21.8211 8.05331 21.8287 8.14723C21.8442 8.33727 21.8489 8.52813 21.8501 8.71879C21.8542 9.37133 22.3915 9.91593 23.0472 9.91593C23.6968 9.91593 24.2485 9.3714 24.2444 8.71879C24.2234 5.36097 22.248 2.17786 19.1674 0.786372C15.9468 -0.668329 12.2012 -0.0694836 9.57752 2.2906C7.05394 4.56073 6.12892 8.30916 7.21559 11.5083C7.74219 13.0585 8.70422 14.4698 9.98564 15.4929C11.3742 16.6015 12.9778 17.2363 14.7419 17.4237C17.175 17.6823 19.6259 16.7661 21.4258 15.147C23.2267 13.5269 24.2293 11.1255 24.2443 8.71879C24.2484 8.06617 23.6967 7.52164 23.0472 7.52164C22.3915 7.52164 21.8542 8.06631 21.8501 8.71879Z" fill="#736CFF"/>
<path d="M24.1449 17.1609C24.3126 17.2678 24.477 17.379 24.6387 17.4948C24.6705 17.5176 24.9333 17.7195 24.7127 17.547C24.7908 17.6081 24.8668 17.6716 24.9429 17.7351C25.2724 18.0102 25.578 18.3129 25.8664 18.6305C25.9997 18.7772 26.1258 18.9302 26.2494 19.085C26.075 18.8665 26.2782 19.1274 26.3014 19.1592C26.3601 19.2394 26.4161 19.3214 26.472 19.4033C26.7158 19.7602 26.9285 20.1374 27.1201 20.5244C27.1645 20.6142 27.2061 20.7054 27.2475 20.7966C27.3865 21.1019 27.1576 20.5692 27.2834 20.8809C27.3589 21.0683 27.4253 21.2592 27.4884 21.4511C27.627 21.8723 27.728 22.3052 27.8046 22.7416C27.8117 22.7824 27.86 23.1248 27.8222 22.8339C27.8357 22.9375 27.8457 23.0415 27.8556 23.1455C27.8758 23.3556 27.8852 23.5666 27.8912 23.7775C27.8942 23.8865 27.8936 23.9955 27.8936 24.1044C27.8936 25.9437 27.8936 27.7828 27.8936 29.622C27.8936 29.8173 27.8936 30.0126 27.8936 30.2079C27.8936 30.2853 27.8911 30.3236 27.8873 30.4007C27.8718 30.7192 27.9373 30.1458 27.8816 30.4558C27.8652 30.5469 27.8402 30.6362 27.8152 30.7252C27.8003 30.7779 27.6895 31.066 27.8097 30.7819C27.7392 30.9485 27.6458 31.1042 27.546 31.2543C27.3786 31.5065 27.7092 31.0654 27.5125 31.2947C27.4346 31.3855 27.3473 31.4675 27.2592 31.548C27.0359 31.7517 27.4656 31.4065 27.2188 31.5817C27.1453 31.6338 27.0672 31.679 26.9893 31.7241C26.9109 31.7694 26.8285 31.8074 26.7464 31.8452C27.0232 31.7178 26.7451 31.8332 26.6896 31.8507C26.6013 31.8785 26.5107 31.8978 26.4203 31.9171C26.1121 31.9828 26.683 31.8971 26.3652 31.9229C26.2993 31.9282 26.2322 31.9291 26.1661 31.9291C26.0846 31.9291 26.003 31.9291 25.9216 31.9291C24.6636 31.9291 23.4058 31.9291 22.1478 31.9291C17.8663 31.9291 13.5849 31.9291 9.30342 31.9291C7.94558 31.9291 6.58775 31.9291 5.22991 31.9291C5.113 31.9291 4.99603 31.9291 4.87912 31.9291C4.86304 31.9291 4.84696 31.9291 4.83089 31.9291C4.74634 31.9291 4.72301 31.927 4.6388 31.9229C4.32029 31.9073 4.89369 31.9728 4.58373 31.9171C4.49261 31.9008 4.40334 31.8757 4.31434 31.8507C4.25578 31.8333 4.19784 31.814 4.14044 31.7928C4.28499 31.858 4.29655 31.8627 4.17519 31.8073C4.01129 31.7317 3.85874 31.6338 3.71193 31.5295C3.95595 31.7027 3.72192 31.5271 3.67862 31.4875C3.6124 31.4271 3.55186 31.3608 3.49152 31.2947C3.2878 31.0714 3.63299 31.5011 3.45787 31.2543C3.40574 31.1808 3.36052 31.1027 3.31544 31.0248C3.27002 30.9464 3.23212 30.864 3.19429 30.7818C3.32652 31.069 3.18177 30.7001 3.16385 30.6364C3.13874 30.5468 3.12226 30.4552 3.10584 30.3638C3.16139 30.6729 3.115 30.3669 3.11199 30.3052C3.11008 30.2652 3.11042 30.2247 3.11042 30.1846C3.11042 30.0947 3.11042 30.0048 3.11042 29.915C3.11042 28.0487 3.11042 26.1825 3.11042 24.3161C3.11042 23.9949 3.112 23.6748 3.1319 23.3539C3.1384 23.249 3.14846 23.1443 3.15851 23.0398C3.16241 22.9992 3.20838 22.6534 3.1672 22.944C3.19614 22.7394 3.2354 22.5363 3.27795 22.3342C3.369 21.9021 3.49809 21.4786 3.64996 21.0643C3.68464 20.9696 3.72254 20.876 3.7603 20.7825C3.65427 21.0448 3.78397 20.736 3.80045 20.6998C3.88357 20.5175 3.97551 20.3393 4.07026 20.1628C4.27452 19.7823 4.51122 19.4201 4.76624 19.0719C4.9623 18.8042 4.61506 19.259 4.82213 19.0001C4.88411 18.9226 4.94855 18.8471 5.01299 18.7716C5.1418 18.6207 5.27773 18.4761 5.41578 18.3338C5.55389 18.1914 5.69871 18.0557 5.84559 17.9224C5.91906 17.8557 5.99465 17.7914 6.07017 17.7272C6.10807 17.6949 6.44156 17.4328 6.21595 17.605C6.40045 17.4641 6.59226 17.3333 6.78675 17.2067C7.33251 16.8513 7.55805 16.1522 7.21621 15.5688C6.89853 15.0265 6.12572 14.7828 5.57832 15.1393C2.58354 17.0894 0.716064 20.417 0.716064 24.0061C0.716064 25.7709 0.716064 27.5356 0.716064 29.3004C0.716064 30.3024 0.740486 31.2222 1.20512 32.1539C1.87757 33.5021 3.38693 34.3235 4.8653 34.3235C5.86447 34.3235 6.86364 34.3235 7.86281 34.3235C12.1015 34.3235 16.3403 34.3235 20.5791 34.3235C22.1529 34.3235 23.7268 34.3235 25.3007 34.3235C25.5868 34.3235 25.873 34.3235 26.1592 34.3235C27.8983 34.3235 29.413 33.2257 30.0332 31.6207C30.3449 30.8142 30.2879 29.9407 30.2879 29.0932C30.2879 28.0192 30.2879 26.945 30.2879 25.8709C30.2879 25.2442 30.2879 24.6174 30.2879 23.9907C30.2879 22.1369 29.7844 20.3031 28.8574 18.7C28.0088 17.2325 26.7782 16.0026 25.3535 15.0936C24.8028 14.7422 24.0355 14.9768 23.7156 15.523C23.376 16.1025 23.5959 16.8106 24.1449 17.1609Z" fill="#736CFF"/>
</svg>
