<svg xmlns="http://www.w3.org/2000/svg" width="22.414" height="14.099" viewBox="0 0 22.414 14.099">
  <g id="video-game" transform="translate(-60.002 -182.331)">
    <path id="Union_1" data-name="Union 1" d="M14.06,9.843c-5.978,0-5.708,0-5.708.005A4.224,4.224,0,0,1,4.012,14.1,4.219,4.219,0,0,1,.069,9.123L.99,4.058A4.635,4.635,0,0,1,5.563,0H16.85a4.634,4.634,0,0,1,4.572,4.058l.922,5.065A4.218,4.218,0,0,1,18.4,14.1c-.059,0-.115,0-.17,0A4.23,4.23,0,0,1,14.06,9.843Zm0-1.331a1.325,1.325,0,0,1,1.317,1.322,2.991,2.991,0,0,0,.9,2.132,2.8,2.8,0,0,0,3.6.278,2.9,2.9,0,0,0,1.177-2.881c-.993-5.453-.927-5.091-.93-5.121A3.311,3.311,0,0,0,16.85,1.33H5.563A3.312,3.312,0,0,0,2.294,4.243c0,.013,0,.026-.005.038-1,5.494-.988,5.3-.975,5.677a2.9,2.9,0,0,0,2.751,2.809A2.9,2.9,0,0,0,7.035,9.834,1.326,1.326,0,0,1,8.353,8.512ZM5.631,7.049V5.941h-1.1a.665.665,0,0,1,0-1.331h1.1V3.5a.658.658,0,1,1,1.317,0V4.611h1.1a.665.665,0,0,1,0,1.331h-1.1V7.049a.658.658,0,1,1-1.317,0Zm9.863.193a.658.658,0,1,1,.82.443.643.643,0,0,1-.192.029A.655.655,0,0,1,15.495,7.242ZM17.221,5.32V5.276a.659.659,0,1,1,1.318,0V5.32a.659.659,0,1,1-1.318,0Zm-3.511,0V5.276a.658.658,0,1,1,1.316,0V5.32a.658.658,0,1,1-1.316,0ZM15.495,3.7a.656.656,0,1,1,.63.471A.656.656,0,0,1,15.495,3.7Z" transform="translate(60.002 182.331)" fill="#ff6a3a"/>
  </g>
</svg>
