<svg width="32" height="33" viewBox="0 0 32 33" fill="none" xmlns="http://www.w3.org/2000/svg">
<path d="M15.9997 29.9775C17.4663 29.9775 18.6663 28.7775 18.6663 27.3109H13.333C13.333 28.7775 14.533 29.9775 15.9997 29.9775ZM23.9997 21.9775V15.3109C23.9997 11.2175 21.8263 7.79087 17.9997 6.88421V5.97754C17.9997 4.87087 17.1063 3.97754 15.9997 3.97754C14.893 3.97754 13.9997 4.87087 13.9997 5.97754V6.88421C10.1863 7.79087 7.99967 11.2042 7.99967 15.3109V21.9775L5.33301 24.6442V25.9775H26.6663V24.6442L23.9997 21.9775ZM21.333 23.3109H10.6663V15.3109C10.6663 12.0042 12.6797 9.31087 15.9997 9.31087C19.3197 9.31087 21.333 12.0042 21.333 15.3109V23.3109Z" fill="var(--tertiary-color)"/>
</svg>
