<svg width="32" height="33" viewBox="0 0 32 33" fill="none" xmlns="http://www.w3.org/2000/svg">
<path d="M21.9997 17.9782C20.3997 17.9782 17.9063 18.4315 15.9997 19.3115C14.093 18.4182 11.5997 17.9782 9.99967 17.9782C7.10634 17.9782 1.33301 19.4182 1.33301 22.3115V25.9782H30.6663V22.3115C30.6663 19.4182 24.893 17.9782 21.9997 17.9782ZM16.6663 23.9782H3.33301V22.3115C3.33301 21.5915 6.74634 19.9782 9.99967 19.9782C13.253 19.9782 16.6663 21.5915 16.6663 22.3115V23.9782ZM28.6663 23.9782H18.6663V22.3115C18.6663 21.6982 18.3997 21.1649 17.973 20.6849C19.1463 20.2849 20.5863 19.9782 21.9997 19.9782C25.253 19.9782 28.6663 21.5915 28.6663 22.3115V23.9782ZM9.99967 16.6449C12.573 16.6449 14.6663 14.5515 14.6663 11.9782C14.6663 9.40486 12.573 7.31152 9.99967 7.31152C7.42634 7.31152 5.33301 9.40486 5.33301 11.9782C5.33301 14.5515 7.42634 16.6449 9.99967 16.6449ZM9.99967 9.31152C11.4663 9.31152 12.6663 10.5115 12.6663 11.9782C12.6663 13.4449 11.4663 14.6449 9.99967 14.6449C8.53301 14.6449 7.33301 13.4449 7.33301 11.9782C7.33301 10.5115 8.53301 9.31152 9.99967 9.31152ZM21.9997 16.6449C24.573 16.6449 26.6663 14.5515 26.6663 11.9782C26.6663 9.40486 24.573 7.31152 21.9997 7.31152C19.4263 7.31152 17.333 9.40486 17.333 11.9782C17.333 14.5515 19.4263 16.6449 21.9997 16.6449ZM21.9997 9.31152C23.4663 9.31152 24.6663 10.5115 24.6663 11.9782C24.6663 13.4449 23.4663 14.6449 21.9997 14.6449C20.533 14.6449 19.333 13.4449 19.333 11.9782C19.333 10.5115 20.533 9.31152 21.9997 9.31152Z" fill="var(--main-color)"/>
</svg>
