<svg width="19" height="19" viewBox="0 0 19 19" fill="none" xmlns="http://www.w3.org/2000/svg">
<path d="M0 14.8941V18.6441H3.75L14.81 7.5841L11.06 3.8341L0 14.8941ZM17.71 4.6841C18.1 4.2941 18.1 3.6641 17.71 3.2741L15.37 0.934102C14.98 0.544102 14.35 0.544102 13.96 0.934102L12.13 2.7641L15.88 6.5141L17.71 4.6841Z" fill="var(--main-color)"/>
</svg>
