<svg xmlns="http://www.w3.org/2000/svg" width="42.411" height="42.337" viewBox="0 0 42.411 42.337">
  <path id="Path_285" data-name="Path 285" d="M40.7,7.7H35.986V3H12.425V7.7H7.712A4.722,4.722,0,0,0,3,12.408V14.76A11.748,11.748,0,0,0,13.344,26.379a11.8,11.8,0,0,0,8.506,6.962v7.291H12.425v4.7H35.986v-4.7H26.562V33.341a11.8,11.8,0,0,0,8.506-6.962A11.748,11.748,0,0,0,45.411,14.76V12.408A4.722,4.722,0,0,0,40.7,7.7ZM7.712,14.76V12.408h4.712v8.985A7.081,7.081,0,0,1,7.712,14.76Zm32.986,0a7.081,7.081,0,0,1-4.712,6.633V12.408H40.7Z" transform="translate(-3 -3)" fill="#fff"/>
</svg>
