<svg width="14" height="12" viewBox="0 0 14 12" fill="none" xmlns="http://www.w3.org/2000/svg">
<path d="M11.6654 3.33333H2.33203C1.22536 3.33333 0.332031 4.22667 0.332031 5.33333V9.33333H2.9987V12H10.9987V9.33333H13.6654V5.33333C13.6654 4.22667 12.772 3.33333 11.6654 3.33333ZM9.66536 10.6667H4.33203V7.33333H9.66536V10.6667ZM11.6654 6C11.2987 6 10.9987 5.7 10.9987 5.33333C10.9987 4.96667 11.2987 4.66667 11.6654 4.66667C12.032 4.66667 12.332 4.96667 12.332 5.33333C12.332 5.7 12.032 6 11.6654 6ZM10.9987 0H2.9987V2.66667H10.9987V0Z" fill="white"/>
</svg>
