<svg width="18" height="18" viewBox="0 0 18 18" fill="none" xmlns="http://www.w3.org/2000/svg">
<path d="M9.00033 0.666687C4.39199 0.666687 0.666992 4.39169 0.666992 9.00002C0.666992 13.6084 4.39199 17.3334 9.00033 17.3334C13.6087 17.3334 17.3337 13.6084 17.3337 9.00002C17.3337 4.39169 13.6087 0.666687 9.00033 0.666687ZM13.167 11.9917L11.992 13.1667L9.00033 10.175L6.00866 13.1667L4.83366 11.9917L7.82533 9.00002L4.83366 6.00835L6.00866 4.83335L9.00033 7.82502L11.992 4.83335L13.167 6.00835L10.1753 9.00002L13.167 11.9917Z" fill="white" fill-opacity="0.38"/>
</svg>
