<svg width="33" height="32" viewBox="0 0 33 32" fill="none" xmlns="http://www.w3.org/2000/svg">
<path d="M15.5 24C14.9477 24 14.5 24.4477 14.5 25C14.5 25.5523 14.9477 26 15.5 26H17.5C18.0523 26 18.5 25.5523 18.5 25C18.5 24.4477 18.0523 24 17.5 24H15.5Z" fill="white"/>
<path fill-rule="evenodd" clip-rule="evenodd" d="M19.5 2H13.5C10.7386 2 8.5 4.23858 8.5 7V25C8.5 27.7614 10.7386 30 13.5 30H19.5C22.2614 30 24.5 27.7614 24.5 25V7C24.5 4.23858 22.2614 2 19.5 2ZM10.5 7C10.5 5.34315 11.8431 4 13.5 4H19.5C21.1569 4 22.5 5.34315 22.5 7V25C22.5 26.6569 21.1569 28 19.5 28H13.5C11.8431 28 10.5 26.6569 10.5 25V7Z" fill="white"/>
</svg>
