<svg width="33" height="32" viewBox="0 0 33 32" fill="none" xmlns="http://www.w3.org/2000/svg">
<path d="M16.4998 2.66675C9.13984 2.66675 3.1665 8.64008 3.1665 16.0001C3.1665 23.3601 9.13984 29.3334 16.4998 29.3334C23.8598 29.3334 29.8332 23.3601 29.8332 16.0001C29.8332 8.64008 23.8598 2.66675 16.4998 2.66675ZM15.1665 26.5734C9.89984 25.9201 5.83317 21.4401 5.83317 16.0001C5.83317 15.1734 5.93984 14.3867 6.11317 13.6134L12.4998 20.0001V21.3334C12.4998 22.8001 13.6998 24.0001 15.1665 24.0001V26.5734ZM24.3665 23.1867C24.0198 22.1067 23.0332 21.3334 21.8332 21.3334H20.4998V17.3334C20.4998 16.6001 19.8998 16.0001 19.1665 16.0001H11.1665V13.3334H13.8332C14.5665 13.3334 15.1665 12.7334 15.1665 12.0001V9.33342H17.8332C19.2998 9.33342 20.4998 8.13341 20.4998 6.66675V6.12008C24.4065 7.70675 27.1665 11.5334 27.1665 16.0001C27.1665 18.7734 26.0998 21.2934 24.3665 23.1867Z" fill="#4F0E8C"/>
</svg>
