<svg width="81" height="64" viewBox="0 0 81 64" fill="none" xmlns="http://www.w3.org/2000/svg">
<rect x="15.8848" y="14" width="42.5466" height="5.42443" stroke="#A168DF" stroke-width="2"/>
<rect x="15.8848" y="23.8999" width="42.5466" height="5.42443" stroke="#A168DF" stroke-width="2"/>
<rect x="15.8848" y="33.7983" width="42.5466" height="5.42443" stroke="#A168DF" stroke-width="2"/>
<rect x="15.8848" y="43.6982" width="42.5466" height="5.42443" stroke="#A168DF" stroke-width="2"/>
<path d="M67.5915 17.4497L68.8592 16.182L70.1269 17.4497L67.5915 17.4497Z" stroke="#A168DF"/>
<path d="M70.1273 25.874L68.8596 27.1417L67.5919 25.874H70.1273Z" stroke="#A168DF"/>
<path d="M70.1273 35.7734L68.8596 37.0411L67.5919 35.7734H70.1273Z" stroke="#A168DF"/>
<path d="M70.1273 45.6733L68.8596 46.941L67.5919 45.6733H70.1273Z" stroke="#A168DF"/>
</svg>
