<svg width="30" height="30" viewBox="0 0 30 30" fill="none" xmlns="http://www.w3.org/2000/svg">
<rect x="0.5" y="0.5" width="29" height="29" stroke="white" stroke-opacity="0.2"/>
<path d="M13.5317 21V15.3693H12V13.3419H13.5317V11.6103C13.5317 10.2496 14.4364 9 16.5212 9C17.3653 9 17.9894 9.07866 17.9894 9.07866L17.9402 10.9719C17.9402 10.9719 17.3037 10.9658 16.6091 10.9658C15.8573 10.9658 15.7368 11.3026 15.7368 11.8616V13.3419H18L17.9015 15.3693H15.7368V21H13.5317Z" fill="white"/>
</svg>
