<svg xmlns="http://www.w3.org/2000/svg" width="20.897" height="20.897" viewBox="0 0 20.897 20.897">
  <g id="Icon_feather-search" data-name="Icon feather-search" transform="translate(-3.5 -3.5)">
    <g id="Group_40114" data-name="Group 40114" transform="translate(4.5 4.5)">
      <path id="Path_11599" data-name="Path 11599" d="M20.929,12.715A8.215,8.215,0,1,1,12.715,4.5a8.215,8.215,0,0,1,8.215,8.215Z" transform="translate(-4.5 -4.5)" fill="none" stroke="#fd6a39" stroke-linecap="round" stroke-linejoin="round" stroke-width="2"/>
      <path id="Path_11600" data-name="Path 11600" d="M29.442,29.442l-4.467-4.467" transform="translate(-10.959 -10.959)" fill="none" stroke="#fd6a39" stroke-linecap="round" stroke-linejoin="round" stroke-width="2"/>
    </g>
  </g>
</svg>
