<svg width="33" height="33" viewBox="0 0 33 33" fill="none" xmlns="http://www.w3.org/2000/svg">
<path d="M22.8866 18.2995C21.2866 18.2995 18.7933 18.7528 16.8866 19.6328C14.98 18.7395 12.4866 18.2995 10.8866 18.2995C7.9933 18.2995 2.21997 19.7395 2.21997 22.6328V26.2995H31.5533V22.6328C31.5533 19.7395 25.78 18.2995 22.8866 18.2995ZM17.5533 24.2995H4.21997V22.6328C4.21997 21.9128 7.6333 20.2995 10.8866 20.2995C14.14 20.2995 17.5533 21.9128 17.5533 22.6328V24.2995ZM29.5533 24.2995H19.5533V22.6328C19.5533 22.0195 19.2866 21.4861 18.86 21.0061C20.0333 20.6061 21.4733 20.2995 22.8866 20.2995C26.14 20.2995 29.5533 21.9128 29.5533 22.6328V24.2995ZM10.8866 16.9661C13.46 16.9661 15.5533 14.8728 15.5533 12.2995C15.5533 9.72615 13.46 7.63281 10.8866 7.63281C8.3133 7.63281 6.21997 9.72615 6.21997 12.2995C6.21997 14.8728 8.3133 16.9661 10.8866 16.9661ZM10.8866 9.63281C12.3533 9.63281 13.5533 10.8328 13.5533 12.2995C13.5533 13.7661 12.3533 14.9661 10.8866 14.9661C9.41997 14.9661 8.21997 13.7661 8.21997 12.2995C8.21997 10.8328 9.41997 9.63281 10.8866 9.63281ZM22.8866 16.9661C25.46 16.9661 27.5533 14.8728 27.5533 12.2995C27.5533 9.72615 25.46 7.63281 22.8866 7.63281C20.3133 7.63281 18.22 9.72615 18.22 12.2995C18.22 14.8728 20.3133 16.9661 22.8866 16.9661ZM22.8866 9.63281C24.3533 9.63281 25.5533 10.8328 25.5533 12.2995C25.5533 13.7661 24.3533 14.9661 22.8866 14.9661C21.42 14.9661 20.22 13.7661 20.22 12.2995C20.22 10.8328 21.42 9.63281 22.8866 9.63281Z" fill="var(--tertiary-color)"/>
</svg>
