<svg width="198" height="21" viewBox="0 0 198 21" fill="none" xmlns="http://www.w3.org/2000/svg">
<path d="M0 10.4848C0 16.7453 4.44658 21 10.0196 21C13.1322 21 15.7409 19.6324 17.5195 17.6266V10.5456H8.32992V12.1259H15.8298V16.958C14.733 18.0825 12.6579 19.4197 10.0196 19.4197C5.36554 19.4197 1.77863 15.712 1.77863 10.4848C1.77863 5.19682 5.36554 1.58032 10.0196 1.58032C12.5393 1.58032 14.7923 2.70478 16.1855 4.40666L17.4602 3.46454C15.6519 1.33719 13.2804 0 10.0196 0C4.44658 0 0 4.22431 0 10.4848Z" fill="#00FA00"/>
<path d="M23.5946 0.334297V20.6049H36.134V19.0246H25.2843V11.0014H35.9265V9.42113H25.2843V1.91462H36.134V0.334297H23.5946Z" fill="#00FA00"/>
<path d="M43.7955 3.09985L56.2459 20.6049H57.906V0.334297H56.2163V17.5962L43.8252 0.334297H42.1058V20.6049H43.7955V3.09985Z" fill="#00FA00"/>
<path d="M63.8709 10.4848C63.8709 16.7453 68.3175 21 73.8905 21C77.0031 21 79.6118 19.6324 81.3904 17.6266V10.5456H72.2008V12.1259H79.7007V16.958C78.6039 18.0825 76.5288 19.4197 73.8905 19.4197C69.2364 19.4197 65.6495 15.712 65.6495 10.4848C65.6495 5.19682 69.2364 1.58032 73.8905 1.58032C76.4102 1.58032 78.6632 2.70478 80.0564 4.40666L81.3311 3.46454C79.5228 1.33719 77.1513 0 73.8905 0C68.3175 0 63.8709 4.22431 63.8709 10.4848Z" fill="#00FA00"/>
<path d="M96.1746 10.4848C96.1746 16.7453 100.621 21 106.194 21C109.307 21 111.915 19.6324 113.694 17.6266V10.5456H104.504V12.1259H112.004V16.958C110.908 18.0825 108.832 19.4197 106.194 19.4197C101.54 19.4197 97.9532 15.712 97.9532 10.4848C97.9532 5.19682 101.54 1.58032 106.194 1.58032C108.714 1.58032 110.967 2.70478 112.36 4.40666L113.635 3.46454C111.827 1.33719 109.455 0 106.194 0C100.621 0 96.1746 4.22431 96.1746 10.4848Z" fill="#00FA00"/>
<path d="M132.102 15.6208L134.089 20.6049H135.986L127.893 0.334297H125.788L117.696 20.6049H119.593L121.579 15.6208H132.102ZM122.112 14.0405L126.826 2.03618L131.569 14.0405H122.112Z" fill="#00FA00"/>
<path d="M157.462 2.6136V20.6049H159.181V0.334297H156.632L149.932 17.1404L143.203 0.334297H140.683V20.6049H142.373V2.6136L149.606 20.6049H150.258L157.462 2.6136Z" fill="#00FA00"/>
<path d="M165.853 0.334297V20.6049H178.392V19.0246H167.542V11.0014H178.184V9.42113H167.542V1.91462H178.392V0.334297H165.853Z" fill="#00FA00"/>
<path d="M190.411 12.2171L195.955 20.6049H198L192.279 12.0955C195.213 11.974 197.763 9.93777 197.763 6.26049C197.763 2.55282 195.154 0.334297 191.745 0.334297H184.364V20.6049H186.054V12.2171H190.411ZM195.984 6.26049C195.984 8.81331 194.206 10.6368 191.597 10.6368H186.054V1.91462H191.597C194.206 1.91462 195.984 3.70767 195.984 6.26049Z" fill="#00FA00"/>
</svg>
