<svg xmlns="http://www.w3.org/2000/svg" width="32" height="31.619" viewBox="0 0 32 31.619">
  <g id="desktop_access_disabled-black-18dp">
    <path id="Path_232" data-name="Path 232" d="M30.651,20.471a2.655,2.655,0,0,1-2.665,2.63H26.653l-2.665-2.63h4V4.693H8L5.331,2.063H27.985a2.655,2.655,0,0,1,2.665,2.63ZM23.321,23.1l-2.665-2.63Zm-3.465,0,8,7.889,1.732-1.709L23.321,23.1l-2.665-2.63L1.6,1.8,0,3.509,1.333,4.824V20.471A2.655,2.655,0,0,0,4,23.1h9.328v2.63H10.661v2.63H21.322V25.73H18.657V23.1ZM4,20.471V7.454L17.191,20.471Z" transform="translate(0 0.629)" fill="#fff"/>
  </g>
</svg>
