<svg xmlns="http://www.w3.org/2000/svg" width="32.386" height="34" viewBox="0 0 32.386 34">
  <g id="dashboard-black-18dp_1_" data-name="dashboard-black-18dp (1)">
    <path id="Path_228" data-name="Path 228" d="M3,17.391H13.8V3H3ZM3,28.9H13.8V20.269H3Zm13.494,0h10.8V14.513h-10.8Zm0-25.9v8.635h10.8V3Z" transform="translate(1.048 1.048)" fill="#fff"/>
  </g>
</svg>
