<svg xmlns="http://www.w3.org/2000/svg" width="18.133" height="29.467" viewBox="0 0 18.133 29.467">
  <path id="Path_349" data-name="Path 349" d="M23.133,4.947H7.267V2H5V31.467H7.267V19.68H23.133l-2.267-7.367Zm-6.8,7.367c0,1.621-1.02,2.947-2.267,2.947S11.8,13.934,11.8,12.313s1.02-2.947,2.267-2.947S16.333,10.693,16.333,12.313Z" transform="translate(-5 -2)" fill="#7b7c83"/>
</svg>
