<svg width="30" height="17" viewBox="0 0 30 17" fill="none" xmlns="http://www.w3.org/2000/svg">
<path d="M1.47395 9.19117L5.81978 4.82353C6.00937 4.63236 6.26458 4.52206 6.54166 4.52206C6.81145 4.52206 7.07395 4.625 7.26353 4.82353C7.45311 5.0147 7.56248 5.27206 7.56248 5.55147C7.56248 5.83088 7.45311 6.08823 7.26353 6.2794C7.26353 6.2794 7.26353 6.2794 7.25624 6.28676L4.25937 9.23528H23.3125C24.275 9.23528 25.1937 8.85293 25.8865 8.15441C26.5792 7.46323 26.9583 6.54412 26.9583 5.55882V2.02941C26.9583 1.46323 27.4177 1 27.9792 1C28.5406 1 29 1.46324 29 2.02942V5.55883C29 7.08824 28.4094 8.52206 27.3302 9.6103C26.251 10.6985 24.8292 11.2941 23.3125 11.2941H4.2302L7.1177 14.25C7.30728 14.4412 7.41666 14.6985 7.41666 14.9779C7.41666 15.25 7.31457 15.5147 7.1177 15.7059L7.11041 15.7132C6.91354 15.8971 6.65832 16 6.39583 16C6.11145 16 5.86354 15.8971 5.67396 15.6985L1.47396 11.4779C1.16771 11.1691 1 10.7574 1 10.3235C1 9.89705 1.16771 9.49264 1.47396 9.19116L1.47395 9.19117Z" fill="#00FA00"/>
</svg>
